<?xml version="1.0" encoding="UTF-8" standalone="no"?>
<!-- Created with Inkscape (http://www.inkscape.org/) -->

<svg
   xmlns:dc="http://purl.org/dc/elements/1.1/"
   xmlns:cc="http://creativecommons.org/ns#"
   xmlns:rdf="http://www.w3.org/1999/02/22-rdf-syntax-ns#"
   xmlns:svg="http://www.w3.org/2000/svg"
   xmlns="http://www.w3.org/2000/svg"
   xmlns:xlink="http://www.w3.org/1999/xlink"
   xmlns:sodipodi="http://sodipodi.sourceforge.net/DTD/sodipodi-0.dtd"
   xmlns:inkscape="http://www.inkscape.org/namespaces/inkscape"
   width="148mm"
   height="210mm"
   viewBox="0 0 524.40946 744.09448"
   id="svg2"
   version="1.1"
   inkscape:version="0.92.0 r"
   sodipodi:docname="05.svg">
  <sodipodi:namedview
     id="base"
     pagecolor="#3e3e3e"
     bordercolor="#666666"
     borderopacity="1.0"
     inkscape:pageopacity="1"
     inkscape:pageshadow="2"
     inkscape:zoom="1.153684"
     inkscape:cx="310.41501"
     inkscape:cy="333.69593"
     inkscape:document-units="mm"
     inkscape:current-layer="layer1"
     showgrid="false"
     units="mm"
     inkscape:window-width="1280"
     inkscape:window-height="1371"
     inkscape:window-x="0"
     inkscape:window-y="27"
     inkscape:window-maximized="0"
     showguides="true"
     inkscape:guide-bbox="true"
     inkscape:snap-bbox="true"
     inkscape:bbox-paths="false"
     inkscape:bbox-nodes="true"
     borderlayer="true"
     inkscape:snap-global="false">
    <sodipodi:guide
       inkscape:locked="false"
       position="-7.0866147,0"
       orientation="1,0"
       id="guide7382"
       inkscape:label=""
       inkscape:color="rgb(0,0,255)" />
    <sodipodi:guide
       inkscape:locked="false"
       position="531.4961,0"
       orientation="1,0"
       id="guide7384"
       inkscape:label=""
       inkscape:color="rgb(0,0,255)" />
    <sodipodi:guide
       inkscape:locked="false"
       position="0,-7.0866142"
       orientation="0,1"
       id="guide7386"
       inkscape:label=""
       inkscape:color="rgb(0,0,255)" />
    <sodipodi:guide
       inkscape:locked="false"
       position="0,751.1811"
       orientation="0,1"
       id="guide7388"
       inkscape:label=""
       inkscape:color="rgb(0,0,255)" />
    <sodipodi:guide
       inkscape:locked="false"
       position="35.433073,0"
       orientation="1,0"
       id="guide7390"
       inkscape:label=""
       inkscape:color="rgb(0,0,255)" />
    <sodipodi:guide
       inkscape:locked="false"
       position="0,708.66142"
       orientation="0,1"
       id="guide7392"
       inkscape:label=""
       inkscape:color="rgb(0,0,255)" />
    <sodipodi:guide
       inkscape:locked="false"
       position="488.97641,0"
       orientation="1,0"
       id="guide7394"
       inkscape:label=""
       inkscape:color="rgb(0,0,255)" />
    <sodipodi:guide
       inkscape:locked="false"
       position="0,35.433071"
       orientation="0,1"
       id="guide7396"
       inkscape:label=""
       inkscape:color="rgb(0,0,255)" />
  </sodipodi:namedview>
  <defs
     id="defs4">
    <clipPath
       id="clipPath4363"
       clipPathUnits="userSpaceOnUse">
      <rect
         y="658.55035"
         x="-259.85718"
         height="185.95108"
         width="217.33749"
         id="rect4365"
         style="opacity:1;fill:#191919;fill-opacity:0.8;stroke:none;stroke-width:7.08661413;stroke-linecap:round;stroke-linejoin:round;stroke-miterlimit:10;stroke-dasharray:none;stroke-dashoffset:0;stroke-opacity:1" />
    </clipPath>
    <clipPath
       id="clipPath4532"
       clipPathUnits="userSpaceOnUse">
      <rect
         style="opacity:1;fill:#ffffff;fill-opacity:1;stroke:none;stroke-width:7.08661413;stroke-linecap:round;stroke-linejoin:round;stroke-miterlimit:10;stroke-dasharray:none;stroke-dashoffset:0;stroke-opacity:1"
         id="rect4534"
         width="217.33749"
         height="9.5085154"
         x="-259.85718"
         y="728.59741" />
    </clipPath>
    <clipPath
       id="clipPath4543"
       clipPathUnits="userSpaceOnUse">
      <rect
         style="opacity:1;fill:#191919;fill-opacity:0.8;stroke:none;stroke-width:7.08661413;stroke-linecap:round;stroke-linejoin:round;stroke-miterlimit:10;stroke-dasharray:none;stroke-dashoffset:0;stroke-opacity:1"
         id="rect4545"
         width="453.5433"
         height="158.74017"
         x="35.433128"
         y="607.04565" />
    </clipPath>
    <clipPath
       id="clipPath4572"
       clipPathUnits="userSpaceOnUse">
      <rect
         style="opacity:1;fill:#ffffff;fill-opacity:1;stroke:none;stroke-width:7.08661413;stroke-linecap:round;stroke-linejoin:round;stroke-miterlimit:10;stroke-dasharray:none;stroke-dashoffset:0;stroke-opacity:1"
         id="rect4574"
         width="217.33749"
         height="38.034061"
         x="-259.85718"
         y="768.85492" />
    </clipPath>
    <clipPath
       id="clipPath4576"
       clipPathUnits="userSpaceOnUse">
      <rect
         style="opacity:1;fill:#ffffff;fill-opacity:1;stroke:none;stroke-width:7.08661413;stroke-linecap:round;stroke-linejoin:round;stroke-miterlimit:10;stroke-dasharray:none;stroke-dashoffset:0;stroke-opacity:1"
         id="rect4578"
         width="217.33749"
         height="19.017031"
         x="-259.85718"
         y="743.23602" />
    </clipPath>
    <clipPath
       id="clipPath4586"
       clipPathUnits="userSpaceOnUse">
      <rect
         y="721.58002"
         x="-259.85718"
         height="4.7542577"
         width="217.33749"
         id="rect4588"
         style="opacity:1;fill:#ffffff;fill-opacity:1;stroke:none;stroke-width:7.08661413;stroke-linecap:round;stroke-linejoin:round;stroke-miterlimit:10;stroke-dasharray:none;stroke-dashoffset:0;stroke-opacity:1" />
    </clipPath>
    <clipPath
       id="clipPath4592"
       clipPathUnits="userSpaceOnUse">
      <rect
         y="717.01483"
         x="-259.85718"
         height="2.3771288"
         width="217.33749"
         id="rect4594"
         style="opacity:1;fill:#ffffff;fill-opacity:1;stroke:none;stroke-width:7.08661413;stroke-linecap:round;stroke-linejoin:round;stroke-miterlimit:10;stroke-dasharray:none;stroke-dashoffset:0;stroke-opacity:1" />
    </clipPath>
    <clipPath
       id="clipPath4596"
       clipPathUnits="userSpaceOnUse">
      <rect
         y="713.82672"
         x="-259.85718"
         height="1.1885644"
         width="217.33749"
         id="rect4598"
         style="opacity:1;fill:#ffffff;fill-opacity:1;stroke:none;stroke-width:7.08661413;stroke-linecap:round;stroke-linejoin:round;stroke-miterlimit:10;stroke-dasharray:none;stroke-dashoffset:0;stroke-opacity:1" />
    </clipPath>
    <clipPath
       id="clipPath4612"
       clipPathUnits="userSpaceOnUse">
      <rect
         style="opacity:0.5;fill:#ffffff;fill-opacity:1;stroke:none;stroke-width:7.08661413;stroke-linecap:round;stroke-linejoin:round;stroke-miterlimit:10;stroke-dasharray:none;stroke-dashoffset:0;stroke-opacity:1"
         id="rect4614"
         width="453.5433"
         height="274.96066"
         x="35.433128"
         y="741.96838" />
    </clipPath>
  </defs>
  <metadata
     id="metadata7">
    <rdf:RDF>
      <cc:Work
         rdf:about="">
        <dc:format>image/svg+xml</dc:format>
        <dc:type
           rdf:resource="http://purl.org/dc/dcmitype/StillImage" />
        <dc:title />
      </cc:Work>
    </rdf:RDF>
  </metadata>
  <g
     transform="translate(0,-308.26761)"
     id="layer1"
     inkscape:groupmode="layer"
     inkscape:label="artwork"
     style="display:inline">
    <rect
       y="741.96838"
       x="35.433128"
       height="274.96066"
       width="453.5433"
       id="rect4600"
       style="opacity:1;fill:#ffffff;fill-opacity:1;stroke:none;stroke-width:7.08661413;stroke-linecap:round;stroke-linejoin:round;stroke-miterlimit:10;stroke-dasharray:none;stroke-dashoffset:0;stroke-opacity:1" />
    <image
       sodipodi:absref="/home/nylnook/Crea/BD/Mokatori/storyboard/layout/storyboard-ep1-en/../c_019.jpg"
       xlink:href="../c_019.jpg"
       y="714.24506"
       x="113.53845"
       id="image3459"
       preserveAspectRatio="none"
       height="318.74857"
       width="318.74857"
       clip-path="url(#clipPath4612)"
       transform="translate(56.689415)" />
    <image
       sodipodi:absref="/home/nylnook/Crea/BD/Mokatori/storyboard/layout/storyboard-ep1-en/../c_018.jpg"
       xlink:href="../c_018.jpg"
       clip-path="url(#clipPath4596)"
       width="235.05273"
       height="235.05273"
       preserveAspectRatio="none"
       id="image4616"
       x="-277.57242"
       y="609.44873"
       transform="matrix(2.086816,0,0,2.086816,577.70719,-1131.9838)" />
    <image
       sodipodi:absref="/home/nylnook/Crea/BD/Mokatori/storyboard/layout/storyboard-ep1-en/../c_018.jpg"
       xlink:href="../c_018.jpg"
       clip-path="url(#clipPath4596)"
       width="235.05273"
       height="235.05273"
       preserveAspectRatio="none"
       id="image4618"
       x="-277.57242"
       y="609.44873"
       transform="matrix(2.086816,0,0,1.0434079,577.70719,-392.41139)" />
    <image
       sodipodi:absref="/home/nylnook/Crea/BD/Mokatori/storyboard/layout/storyboard-ep1-en/../c_018.jpg"
       xlink:href="../c_018.jpg"
       transform="matrix(2.0868161,0,0,0.52170397,577.70719,-24.085506)"
       y="609.44873"
       x="-277.57242"
       id="image4590"
       preserveAspectRatio="none"
       height="235.05273"
       width="235.05273"
       clip-path="url(#clipPath4596)" />
    <image
       sodipodi:absref="/home/nylnook/Crea/BD/Mokatori/storyboard/layout/storyboard-ep1-en/../c_018.jpg"
       xlink:href="../c_018.jpg"
       clip-path="url(#clipPath4592)"
       width="235.05273"
       height="235.05273"
       preserveAspectRatio="none"
       id="image4584"
       x="-277.57242"
       y="609.44873"
       transform="matrix(2.086816,0,0,2.086816,577.70719,-1131.9838)" />
    <image
       sodipodi:absref="/home/nylnook/Crea/BD/Mokatori/storyboard/layout/storyboard-ep1-en/../c_018.jpg"
       xlink:href="../c_018.jpg"
       transform="matrix(2.086816,0,0,2.086816,577.70719,-1131.9838)"
       y="609.44873"
       x="-277.57242"
       id="image4555"
       preserveAspectRatio="none"
       height="235.05273"
       width="235.05273"
       clip-path="url(#clipPath4586)" />
    <image
       sodipodi:absref="/home/nylnook/Crea/BD/Mokatori/storyboard/layout/storyboard-ep1-en/../c_018.jpg"
       xlink:href="../c_018.jpg"
       clip-path="url(#clipPath4576)"
       width="235.05273"
       height="235.05273"
       preserveAspectRatio="none"
       id="image4530"
       x="-277.57242"
       y="609.44873"
       transform="matrix(2.086816,0,0,2.086816,577.70719,-1131.9838)" />
    <image
       sodipodi:absref="/home/nylnook/Crea/BD/Mokatori/storyboard/layout/storyboard-ep1-en/../c_018.jpg"
       xlink:href="../c_018.jpg"
       y="609.44873"
       x="-277.57242"
       id="image4528"
       preserveAspectRatio="none"
       height="235.05273"
       width="235.05273"
       clip-path="url(#clipPath4572)"
       transform="matrix(2.086816,0,0,2.086816,577.70719,-1136.4377)" />
    <image
       sodipodi:absref="/home/nylnook/Crea/BD/Mokatori/storyboard/layout/storyboard-ep1-en/../c_018.jpg"
       xlink:href="../c_018.jpg"
       transform="matrix(2.086816,0,0,2.086816,577.70719,-1131.9838)"
       clip-path="url(#clipPath4532)"
       width="235.05273"
       height="235.05273"
       preserveAspectRatio="none"
       id="image4511"
       x="-277.57242"
       y="609.44873" />
    <image
       sodipodi:absref="/home/nylnook/Crea/BD/Mokatori/storyboard/layout/storyboard-ep1-en/../c_018bis.jpg"
       xlink:href="../c_018bis.jpg"
       style="display:inline"
       y="481.6304"
       x="27.056438"
       id="image4387"
       preserveAspectRatio="none"
       height="461.91998"
       width="461.91998"
       clip-path="url(#clipPath4543)"
       transform="translate(0,-43.648613)" />
  </g>
  <g
     inkscape:groupmode="layer"
     id="layer2"
     inkscape:label="bubbles"
     transform="translate(0,-70.866142)">
    <path
       sodipodi:nodetypes="sssss"
       inkscape:connector-curvature="0"
       id="path4622"
       d="m 56.782373,555.67079 c -12.55364,17.62359 -12.020529,54.02682 -0.273196,66.98224 40.109743,44.23455 127.728273,36.15324 166.437533,8.93205 14.9231,-10.49424 30.45572,-54.53293 -0.49592,-76.37409 C 169.92225,518.144 83.229015,518.54331 56.782373,555.67079 Z"
       style="opacity:1;fill:#c0c0c0;fill-opacity:1;stroke:none;stroke-width:7.08661461;stroke-linecap:round;stroke-linejoin:round;stroke-miterlimit:10;stroke-dasharray:none;stroke-dashoffset:0;stroke-opacity:1" />
    <path
       sodipodi:nodetypes="sssss"
       inkscape:connector-curvature="0"
       id="path4626"
       d="m 115.84693,735.49483 c 40.27914,27.41191 84.87744,21.75913 128.6077,6.95649 14.6478,-4.95826 39.69457,-31.82416 12.7712,-54.91162 -28.38294,-24.33907 -128.35731,-20.27396 -141.91694,-11.84013 -27.50311,17.1064 -8.19255,53.85367 0.53804,59.79526 z"
       style="opacity:1;fill:#c0c0c0;fill-opacity:1;stroke:none;stroke-width:7.08661366;stroke-linecap:round;stroke-linejoin:round;stroke-miterlimit:10;stroke-dasharray:none;stroke-dashoffset:0;stroke-opacity:1" />
  </g>
  <g
     style="display:inline"
     inkscape:groupmode="layer"
     id="layer3"
     inkscape:label="text"
     transform="translate(0,-70.866142)">
    <text
       xml:space="preserve"
       style="color:#000000;font-style:normal;font-variant:normal;font-weight:normal;font-stretch:normal;font-size:16.25000191px;line-height:100%;font-family:Comili;-inkscape-font-specification:'Comili, Normal';text-indent:0;text-align:center;text-decoration:none;text-decoration-line:none;text-decoration-style:solid;text-decoration-color:#000000;letter-spacing:0px;word-spacing:0px;text-transform:none;direction:ltr;block-progression:tb;writing-mode:lr-tb;baseline-shift:baseline;text-anchor:middle;white-space:normal;clip-rule:nonzero;display:inline;overflow:visible;visibility:visible;opacity:1;isolation:auto;mix-blend-mode:normal;color-interpolation:sRGB;color-interpolation-filters:linearRGB;solid-color:#000000;solid-opacity:1;fill:#000000;fill-opacity:1;fill-rule:nonzero;stroke:none;stroke-width:0.99999964px;stroke-linecap:butt;stroke-linejoin:miter;stroke-miterlimit:4;stroke-dasharray:none;stroke-dashoffset:0;stroke-opacity:1;color-rendering:auto;image-rendering:auto;shape-rendering:auto;text-rendering:auto;enable-background:accumulate"
       x="344.76828"
       y="138.59998"
       id="text3477"><tspan
         sodipodi:role="line"
         id="tspan3479"
         x="344.76828"
         y="138.59998" /></text>
    <text
       id="text3485"
       y="304.03015"
       x="376.14102"
       style="color:#000000;font-style:normal;font-variant:normal;font-weight:normal;font-stretch:normal;font-size:16.25000191px;line-height:100%;font-family:Comili;-inkscape-font-specification:'Comili, Normal';text-indent:0;text-align:center;text-decoration:none;text-decoration-line:none;text-decoration-style:solid;text-decoration-color:#000000;letter-spacing:0px;word-spacing:0px;text-transform:none;direction:ltr;block-progression:tb;writing-mode:lr-tb;baseline-shift:baseline;text-anchor:middle;white-space:normal;clip-rule:nonzero;display:inline;overflow:visible;visibility:visible;opacity:1;isolation:auto;mix-blend-mode:normal;color-interpolation:sRGB;color-interpolation-filters:linearRGB;solid-color:#000000;solid-opacity:1;fill:#000000;fill-opacity:1;fill-rule:nonzero;stroke:none;stroke-width:0.99999964px;stroke-linecap:butt;stroke-linejoin:miter;stroke-miterlimit:4;stroke-dasharray:none;stroke-dashoffset:0;stroke-opacity:1;color-rendering:auto;image-rendering:auto;shape-rendering:auto;text-rendering:auto;enable-background:accumulate"
       xml:space="preserve"><tspan
         y="304.03015"
         x="376.14102"
         id="tspan3487"
         sodipodi:role="line" /></text>
    <text
       xml:space="preserve"
       style="color:#000000;font-style:normal;font-variant:normal;font-weight:normal;font-stretch:normal;font-size:16.25000191px;line-height:100%;font-family:Comili;-inkscape-font-specification:'Comili, Normal';text-indent:0;text-align:center;text-decoration:none;text-decoration-line:none;text-decoration-style:solid;text-decoration-color:#000000;letter-spacing:0px;word-spacing:0px;text-transform:none;direction:ltr;block-progression:tb;writing-mode:lr-tb;baseline-shift:baseline;text-anchor:middle;white-space:normal;clip-rule:nonzero;display:inline;overflow:visible;visibility:visible;opacity:1;isolation:auto;mix-blend-mode:normal;color-interpolation:sRGB;color-interpolation-filters:linearRGB;solid-color:#000000;solid-opacity:1;fill:#000000;fill-opacity:1;fill-rule:nonzero;stroke:none;stroke-width:0.99999964px;stroke-linecap:butt;stroke-linejoin:miter;stroke-miterlimit:4;stroke-dasharray:none;stroke-dashoffset:0;stroke-opacity:1;color-rendering:auto;image-rendering:auto;shape-rendering:auto;text-rendering:auto;enable-background:accumulate"
       x="205.58685"
       y="386.01328"
       id="text3481"><tspan
         sodipodi:role="line"
         id="tspan3483"
         x="205.58685"
         y="386.01328" /></text>
    <text
       id="text3473"
       y="221.93939"
       x="218.27101"
       style="color:#000000;font-style:normal;font-variant:normal;font-weight:500;font-stretch:normal;font-size:22.82893181px;line-height:100%;font-family:LetsTrace;-inkscape-font-specification:'LetsTrace Medium';text-indent:0;text-align:center;text-decoration:none;text-decoration-line:none;text-decoration-style:solid;text-decoration-color:#000000;letter-spacing:0px;word-spacing:0px;text-transform:none;direction:ltr;block-progression:tb;writing-mode:lr-tb;baseline-shift:baseline;text-anchor:middle;white-space:normal;clip-rule:nonzero;display:inline;overflow:visible;visibility:visible;opacity:1;isolation:auto;mix-blend-mode:normal;color-interpolation:sRGB;color-interpolation-filters:linearRGB;solid-color:#000000;solid-opacity:1;fill:#000000;fill-opacity:1;fill-rule:nonzero;stroke:none;stroke-width:0.99999964px;stroke-linecap:butt;stroke-linejoin:miter;stroke-miterlimit:4;stroke-dasharray:none;stroke-dashoffset:0;stroke-opacity:1;color-rendering:auto;image-rendering:auto;shape-rendering:auto;text-rendering:auto;enable-background:accumulate"
       xml:space="preserve"><tspan
         y="221.93939"
         x="218.27101"
         id="tspan3475"
         sodipodi:role="line" /></text>
    <flowRoot
       transform="translate(-311.61281,100.16674)"
       style="color:#000000;font-style:normal;font-variant:normal;font-weight:500;font-stretch:normal;line-height:0.01%;font-family:LetsTrace;-inkscape-font-specification:'LetsTrace Medium';text-indent:0;text-align:center;text-decoration:none;text-decoration-line:none;text-decoration-style:solid;text-decoration-color:#000000;letter-spacing:0px;word-spacing:0px;text-transform:none;writing-mode:lr-tb;direction:ltr;baseline-shift:baseline;text-anchor:middle;white-space:normal;clip-rule:nonzero;display:inline;overflow:visible;visibility:visible;opacity:1;isolation:auto;mix-blend-mode:normal;color-interpolation:sRGB;color-interpolation-filters:linearRGB;solid-color:#000000;solid-opacity:1;fill:#000000;fill-opacity:1;fill-rule:nonzero;stroke:none;stroke-width:0.99999964px;stroke-linecap:butt;stroke-linejoin:miter;stroke-miterlimit:4;stroke-dasharray:none;stroke-dashoffset:0;stroke-opacity:1;color-rendering:auto;image-rendering:auto;shape-rendering:auto;text-rendering:auto;enable-background:accumulate"
       id="flowRoot3489"
       xml:space="preserve"><flowRegion
         id="flowRegion3491"><rect
           style="font-style:normal;font-variant:normal;font-weight:500;font-stretch:normal;font-size:17.50000191px;font-family:LetsTrace;-inkscape-font-specification:'LetsTrace Medium'"
           y="50.898045"
           x="295.72476"
           height="36.317951"
           width="320.3718"
           id="rect3493" /></flowRegion><flowPara
         style="font-size:17.50000191px;line-height:100%"
         id="flowPara3495">Reykjavik, Iceland, March 20, 2054</flowPara></flowRoot>    <flowRoot
       xml:space="preserve"
       id="flowRoot4400"
       style="color:#000000;font-style:normal;font-variant:normal;font-weight:500;font-stretch:normal;line-height:0.01%;font-family:LetsTrace;-inkscape-font-specification:'LetsTrace Medium';text-indent:0;text-align:center;text-decoration:none;text-decoration-line:none;text-decoration-style:solid;text-decoration-color:#000000;letter-spacing:0px;word-spacing:0px;text-transform:none;writing-mode:lr-tb;direction:ltr;baseline-shift:baseline;text-anchor:middle;white-space:normal;clip-rule:nonzero;display:inline;overflow:visible;visibility:visible;opacity:1;isolation:auto;mix-blend-mode:normal;color-interpolation:sRGB;color-interpolation-filters:linearRGB;solid-color:#000000;solid-opacity:1;fill:#000000;fill-opacity:1;fill-rule:nonzero;stroke:none;stroke-width:0.99999964px;stroke-linecap:butt;stroke-linejoin:miter;stroke-miterlimit:4;stroke-dasharray:none;stroke-dashoffset:0;stroke-opacity:1;color-rendering:auto;image-rendering:auto;shape-rendering:auto;text-rendering:auto;enable-background:accumulate"
       transform="translate(-64.383087,95.67919)"><flowRegion
         id="flowRegion4402"><rect
           id="rect4404"
           width="367.25516"
           height="43.707279"
           x="81.251114"
           y="99.209518"
           style="font-style:normal;font-variant:normal;font-weight:500;font-stretch:normal;font-size:20.00000191px;line-height:80.00000119%;font-family:LetsTrace;-inkscape-font-specification:'LetsTrace Medium'" /></flowRegion><flowPara
         style="font-size:20.00000191px;line-height:80.00000119%"
         id="flowPara4406">If these few positrons cross time</flowPara></flowRoot>    <flowRoot
       transform="translate(0,70.866111)"
       style="color:#000000;font-style:normal;font-variant:normal;font-weight:normal;font-stretch:normal;font-size:15px;line-height:100%;font-family:Comili;-inkscape-font-specification:'Comili, Normal';text-indent:0;text-align:center;text-decoration:none;text-decoration-line:none;text-decoration-style:solid;text-decoration-color:#000000;letter-spacing:0px;word-spacing:0px;text-transform:none;direction:ltr;block-progression:tb;writing-mode:lr-tb;baseline-shift:baseline;text-anchor:middle;white-space:normal;clip-rule:nonzero;display:inline;overflow:visible;visibility:visible;opacity:1;isolation:auto;mix-blend-mode:normal;color-interpolation:sRGB;color-interpolation-filters:linearRGB;solid-color:#000000;solid-opacity:1;fill:#000000;fill-opacity:1;fill-rule:nonzero;stroke:none;stroke-width:0.99999964px;stroke-linecap:butt;stroke-linejoin:miter;stroke-miterlimit:4;stroke-dasharray:none;stroke-dashoffset:0;stroke-opacity:1;color-rendering:auto;image-rendering:auto;shape-rendering:auto;text-rendering:auto;enable-background:accumulate"
       id="flowRoot3505"
       xml:space="preserve"><flowRegion
         id="flowRegion3507"><rect
           y="140.93306"
           x="289.86884"
           height="62.951313"
           width="110.53079"
           id="rect3509" /></flowRegion><flowPara
         id="flowPara3511" /></flowRoot>    <flowRoot
       transform="translate(-151.6101,277.63859)"
       style="color:#000000;font-style:normal;font-variant:normal;font-weight:normal;font-stretch:normal;line-height:1.20000005em;font-family:Comili;-inkscape-font-specification:Comili;text-indent:0;text-align:center;text-decoration:none;text-decoration-line:none;text-decoration-style:solid;text-decoration-color:#000000;letter-spacing:0px;word-spacing:0px;text-transform:none;writing-mode:lr-tb;direction:ltr;baseline-shift:baseline;text-anchor:middle;white-space:normal;clip-rule:nonzero;display:inline;overflow:visible;visibility:visible;opacity:1;isolation:auto;mix-blend-mode:normal;color-interpolation:sRGB;color-interpolation-filters:linearRGB;solid-color:#000000;solid-opacity:1;fill:#000000;fill-opacity:1;fill-rule:nonzero;stroke:none;stroke-width:0.99999964px;stroke-linecap:butt;stroke-linejoin:miter;stroke-miterlimit:4;stroke-dasharray:none;stroke-dashoffset:0;stroke-opacity:1;color-rendering:auto;image-rendering:auto;shape-rendering:auto;text-rendering:auto;enable-background:accumulate"
       id="flowRoot3513"
       xml:space="preserve"><flowRegion
         id="flowRegion3515"
         style="line-height:1.20000005em"><rect
           style="font-style:normal;font-variant:normal;font-weight:normal;font-stretch:normal;font-size:16.25000191px;line-height:1.20000005em;font-family:Comili;-inkscape-font-specification:Comili"
           y="170.21274"
           x="262.05313"
           height="50.5019"
           width="351.94635"
           id="rect3517" /></flowRegion><flowPara
         style="font-size:16.25000191px;line-height:1.20000005em"
         id="flowPara3519">and correctly transform themselves into electrons 40 years earlier,</flowPara></flowRoot>    <flowRoot
       transform="translate(0,70.866111)"
       style="color:#000000;font-style:normal;font-variant:normal;font-weight:normal;font-stretch:normal;font-size:15px;line-height:100%;font-family:Comili;-inkscape-font-specification:'Comili, Normal';text-indent:0;text-align:center;text-decoration:none;text-decoration-line:none;text-decoration-style:solid;text-decoration-color:#000000;letter-spacing:0px;word-spacing:0px;text-transform:none;direction:ltr;block-progression:tb;writing-mode:lr-tb;baseline-shift:baseline;text-anchor:middle;white-space:normal;clip-rule:nonzero;display:inline;overflow:visible;visibility:visible;opacity:1;isolation:auto;mix-blend-mode:normal;color-interpolation:sRGB;color-interpolation-filters:linearRGB;solid-color:#000000;solid-opacity:1;fill:#000000;fill-opacity:1;fill-rule:nonzero;stroke:none;stroke-width:0.99999964px;stroke-linecap:butt;stroke-linejoin:miter;stroke-miterlimit:4;stroke-dasharray:none;stroke-dashoffset:0;stroke-opacity:1;color-rendering:auto;image-rendering:auto;shape-rendering:auto;text-rendering:auto;enable-background:accumulate"
       id="flowRoot3521"
       xml:space="preserve"><flowRegion
         id="flowRegion3523"><rect
           y="270.49564"
           x="96.622948"
           height="148.59438"
           width="195.44186"
           id="rect3525" /></flowRegion><flowPara
         id="flowPara3527" /></flowRoot>    <flowRoot
       transform="translate(-36.296512,271.98812)"
       style="color:#000000;font-style:normal;font-variant:normal;font-weight:normal;font-stretch:normal;line-height:1.20000005em;font-family:Comili;-inkscape-font-specification:Comili;text-align:center;text-anchor:middle;clip-rule:nonzero;display:inline;overflow:visible;visibility:visible;opacity:1;isolation:auto;mix-blend-mode:normal;color-interpolation:sRGB;color-interpolation-filters:linearRGB;solid-color:#000000;solid-opacity:1;fill:#000000;fill-opacity:1;fill-rule:nonzero;stroke:none;stroke-width:0.99999952px;stroke-linecap:butt;stroke-linejoin:miter;stroke-miterlimit:4;stroke-dasharray:none;stroke-dashoffset:0;stroke-opacity:1;color-rendering:auto;image-rendering:auto;shape-rendering:auto;text-rendering:auto;enable-background:accumulate"
       id="flowRoot3529"
       xml:space="preserve"><flowRegion
         id="flowRegion3531"
         style="line-height:1.20000005em"><rect
           style="font-style:normal;font-variant:normal;font-weight:normal;font-stretch:normal;font-size:16.25000191px;line-height:1.20000005em;font-family:Comili;-inkscape-font-specification:Comili;text-align:center;text-anchor:middle"
           y="277.08359"
           x="87.107048"
           height="102.56015"
           width="180.29341"
           id="rect3533" /></flowRegion><flowPara
         style="font-size:16.25000191px;line-height:1.20000005em"
         id="flowPara3535">you, the one who will find this digital message, don't need to worry too much about your own future, </flowPara></flowRoot>    <flowRoot
       transform="translate(-26.351716,310.22752)"
       style="color:#000000;font-style:normal;font-variant:normal;font-weight:normal;font-stretch:normal;font-size:16.25000191px;line-height:normal;font-family:Comili;-inkscape-font-specification:Comili;text-indent:0;text-align:start;text-decoration:none;text-decoration-line:none;text-decoration-style:solid;text-decoration-color:#000000;letter-spacing:normal;word-spacing:normal;text-transform:none;direction:ltr;block-progression:tb;writing-mode:lr-tb;baseline-shift:baseline;text-anchor:start;white-space:normal;clip-rule:nonzero;display:inline;overflow:visible;visibility:visible;opacity:1;isolation:auto;mix-blend-mode:normal;color-interpolation:sRGB;color-interpolation-filters:linearRGB;solid-color:#000000;solid-opacity:1;fill:#000000;fill-opacity:1;fill-rule:nonzero;stroke:none;stroke-width:0.9999994px;stroke-linecap:butt;stroke-linejoin:miter;stroke-miterlimit:4;stroke-dasharray:none;stroke-dashoffset:0;stroke-opacity:1;color-rendering:auto;image-rendering:auto;shape-rendering:auto;text-rendering:auto;enable-background:accumulate"
       id="flowRoot3545"
       xml:space="preserve"><flowRegion
         id="flowRegion3547"><rect
           style="font-size:16.25000191px"
           y="395.66629"
           x="114.19076"
           height="68.807251"
           width="123.70665"
           id="rect3549" /></flowRegion><flowPara
         id="flowPara3551" /></flowRoot>    <flowRoot
       transform="translate(-81.714588,158.09987)"
       style="color:#000000;font-style:normal;font-variant:normal;font-weight:normal;font-stretch:normal;line-height:1.2em;font-family:Comili;-inkscape-font-specification:Comili;text-indent:0;text-align:center;text-decoration:none;text-decoration-line:none;text-decoration-style:solid;text-decoration-color:#000000;letter-spacing:normal;word-spacing:normal;text-transform:none;writing-mode:lr-tb;direction:ltr;baseline-shift:baseline;text-anchor:middle;white-space:normal;clip-rule:nonzero;display:inline;overflow:visible;visibility:visible;opacity:1;isolation:auto;mix-blend-mode:normal;color-interpolation:sRGB;color-interpolation-filters:linearRGB;solid-color:#000000;solid-opacity:1;fill:#000000;fill-opacity:1;fill-rule:nonzero;stroke:none;stroke-width:0.9999994px;stroke-linecap:butt;stroke-linejoin:miter;stroke-miterlimit:4;stroke-dasharray:none;stroke-dashoffset:0;stroke-opacity:1;color-rendering:auto;image-rendering:auto;shape-rendering:auto;text-rendering:auto;enable-background:accumulate;"
       id="flowRoot3553"
       xml:space="preserve"><flowRegion
         id="flowRegion3555"
         style="line-height:1.2em;"><rect
           style="text-align:center;text-anchor:middle;line-height:1.2em;"
           y="525.22888"
           x="177.14207"
           height="77.435524"
           width="171.66261"
           id="rect3557" /></flowRegion><flowPara
         style="font-size:16.25px;line-height:1.2em;"
         id="flowPara3559">the main part of humanity is still healthy today.</flowPara></flowRoot>    <flowRoot
       style="fill:#000000;stroke:none;stroke-opacity:1;stroke-width:0.99999943px;stroke-linejoin:miter;stroke-linecap:butt;color:#000000;font-style:normal;font-variant:normal;font-weight:normal;font-stretch:normal;font-size:16.25000046px;line-height:normal;font-family:Comili;-inkscape-font-specification:Comili;text-indent:0;text-align:start;text-decoration:none;text-decoration-line:none;text-decoration-style:solid;text-decoration-color:#000000;letter-spacing:normal;word-spacing:normal;text-transform:none;direction:ltr;block-progression:tb;writing-mode:lr-tb;baseline-shift:baseline;text-anchor:start;white-space:normal;clip-rule:nonzero;display:inline;overflow:visible;visibility:visible;opacity:1;isolation:auto;mix-blend-mode:normal;color-interpolation:sRGB;color-interpolation-filters:linearRGB;solid-color:#000000;solid-opacity:1;fill-opacity:1;fill-rule:nonzero;stroke-miterlimit:4;stroke-dasharray:none;stroke-dashoffset:0;filter-blend-mode:normal;filter-gaussianBlur-deviation:0;color-rendering:auto;image-rendering:auto;shape-rendering:auto;text-rendering:auto;enable-background:accumulate"
       id="flowRoot4367"
       xml:space="preserve"><flowRegion
         id="flowRegion4369"><rect
           y="583.05621"
           x="559.97388"
           height="125.60517"
           width="78.323143"
           id="rect4371" /></flowRegion><flowPara
         id="flowPara4373" /></flowRoot>    <flowRoot
       xml:space="preserve"
       id="flowRoot4408"
       style="stroke-linejoin:miter;baseline-shift:baseline;color-rendering:auto;text-decoration-color:#000000;color:#000000;letter-spacing:1.50000012px;shape-rendering:auto;word-spacing:0px;stroke:none;text-decoration-line:none;text-rendering:auto;stroke-width:0.99999964px;color-interpolation-filters:linearRGB;fill:#000000;solid-opacity:1;line-height:0.01%;fill-rule:nonzero;mix-blend-mode:normal;fill-opacity:1;font-style:normal;block-progression:tb;font-stretch:normal;stroke-miterlimit:4;font-variant:normal;font-weight:500;opacity:1;direction:ltr;-inkscape-font-specification:'LetsTrace Medium';visibility:visible;text-indent:0;clip-rule:nonzero;image-rendering:auto;white-space:normal;overflow:visible;font-family:LetsTrace;text-decoration-style:solid;text-align:center;solid-color:#000000;writing-mode:lr-tb;stroke-opacity:1;isolation:auto;stroke-dashoffset:0;text-anchor:middle;text-decoration:none;stroke-linecap:butt;stroke-dasharray:none;enable-background:accumulate;text-transform:none;display:inline;color-interpolation:sRGB"
       transform="matrix(0,-1.2244897,1.2244899,0,-74.66117,601.02862)"><flowRegion
         id="flowRegion4410"><rect
           id="rect4412"
           width="107.74363"
           height="60.714088"
           x="81.251114"
           y="99.209518"
           style="font-style:normal;font-variant:normal;font-weight:500;font-stretch:normal;font-size:8.75000095px;line-height:80.00000119%;font-family:LetsTrace;-inkscape-font-specification:'LetsTrace Medium';letter-spacing:1.50000012px;baseline-shift:baseline" /></flowRegion><flowPara
         style="font-size:8.75000095px;line-height:80.00000119%"
         id="flowPara4414">010100110001011</flowPara></flowRoot>    <g
       transform="matrix(1.2244898,0,0,1.2244898,-187.83795,-160.6345)"
       id="g4464"
       style="display:inline">
      <text
         id="text4466"
         y="447.33768"
         x="304.99374"
         style="stroke-linejoin:miter;baseline-shift:baseline;color-rendering:auto;text-decoration-color:#000000;color:#000000;letter-spacing:normal;shape-rendering:auto;word-spacing:normal;stroke:none;text-decoration-line:none;text-rendering:auto;stroke-width:0.99999928px;color-interpolation-filters:linearRGB;fill:#000000;solid-opacity:1;line-height:0%;fill-rule:nonzero;mix-blend-mode:normal;fill-opacity:1;font-style:normal;block-progression:tb;font-stretch:normal;stroke-miterlimit:4;font-variant:normal;font-weight:normal;opacity:1;direction:ltr;-inkscape-font-specification:Comili;visibility:visible;text-indent:0;clip-rule:nonzero;image-rendering:auto;white-space:normal;overflow:visible;font-family:Comili;text-decoration-style:solid;text-align:center;solid-color:#000000;writing-mode:lr-tb;stroke-opacity:1;isolation:auto;stroke-dashoffset:0;text-anchor:middle;text-decoration:none;stroke-linecap:butt;stroke-dasharray:none;enable-background:accumulate;text-transform:none;display:inline;color-interpolation:sRGB"
         xml:space="preserve"><tspan
           style="font-size:17.50000191px;font-family:LetsTrace;-inkscape-font-specification:'LetsTrace Medium';line-height:normal;font-stretch:normal;font-variant:normal;font-weight:500;font-style:normal"
           y="447.33768"
           x="304.99374"
           id="tspan4468"
           sodipodi:role="line">e</tspan></text>
      <text
         xml:space="preserve"
         style="stroke-linejoin:miter;baseline-shift:baseline;color-rendering:auto;text-decoration-color:#000000;color:#000000;letter-spacing:normal;shape-rendering:auto;word-spacing:normal;stroke:none;text-decoration-line:none;text-rendering:auto;stroke-width:0.99999928px;color-interpolation-filters:linearRGB;fill:#000000;solid-opacity:1;line-height:0%;fill-rule:nonzero;mix-blend-mode:normal;fill-opacity:1;font-style:normal;block-progression:tb;font-stretch:normal;stroke-miterlimit:4;font-variant:normal;font-weight:normal;opacity:1;direction:ltr;-inkscape-font-specification:Comili;visibility:visible;text-indent:0;clip-rule:nonzero;image-rendering:auto;white-space:normal;overflow:visible;font-family:Comili;text-decoration-style:solid;text-align:center;solid-color:#000000;writing-mode:lr-tb;stroke-opacity:1;isolation:auto;stroke-dashoffset:0;text-anchor:middle;text-decoration:none;stroke-linecap:butt;stroke-dasharray:none;enable-background:accumulate;text-transform:none;display:inline;color-interpolation:sRGB"
         x="309.51935"
         y="450.92276"
         id="text4470"><tspan
           sodipodi:role="line"
           id="tspan4472"
           x="309.51935"
           y="450.92276"
           style="font-size:65.00000954%;font-family:LetsTrace;baseline-shift:super;-inkscape-font-specification:'LetsTrace Medium';line-height:normal;font-stretch:normal;font-variant:normal;font-weight:500;font-style:normal">-</tspan></text>
    </g>
    <g
       id="g4474"
       transform="matrix(1.2244898,0,0,1.2244898,-117.36504,-114.13806)"
       style="display:inline">
      <text
         id="text4476"
         y="447.33768"
         x="304.99374"
         style="stroke-linejoin:miter;baseline-shift:baseline;color-rendering:auto;text-decoration-color:#000000;color:#000000;letter-spacing:normal;shape-rendering:auto;word-spacing:normal;stroke:none;text-decoration-line:none;text-rendering:auto;stroke-width:0.99999928px;color-interpolation-filters:linearRGB;fill:#000000;solid-opacity:1;line-height:0%;fill-rule:nonzero;mix-blend-mode:normal;fill-opacity:1;font-style:normal;block-progression:tb;font-stretch:normal;stroke-miterlimit:4;font-variant:normal;font-weight:normal;opacity:1;direction:ltr;-inkscape-font-specification:Comili;visibility:visible;text-indent:0;clip-rule:nonzero;image-rendering:auto;white-space:normal;overflow:visible;font-family:Comili;text-decoration-style:solid;text-align:center;solid-color:#000000;writing-mode:lr-tb;stroke-opacity:1;isolation:auto;stroke-dashoffset:0;text-anchor:middle;text-decoration:none;stroke-linecap:butt;stroke-dasharray:none;enable-background:accumulate;text-transform:none;display:inline;color-interpolation:sRGB"
         xml:space="preserve"><tspan
           style="font-size:17.50000191px;font-family:LetsTrace;-inkscape-font-specification:'LetsTrace Medium';line-height:normal;font-stretch:normal;font-variant:normal;font-weight:500;font-style:normal"
           y="447.33768"
           x="304.99374"
           id="tspan4478"
           sodipodi:role="line">e</tspan></text>
      <text
         xml:space="preserve"
         style="stroke-linejoin:miter;baseline-shift:baseline;color-rendering:auto;text-decoration-color:#000000;color:#000000;letter-spacing:normal;shape-rendering:auto;word-spacing:normal;stroke:none;text-decoration-line:none;text-rendering:auto;stroke-width:0.99999928px;color-interpolation-filters:linearRGB;fill:#000000;solid-opacity:1;line-height:0%;fill-rule:nonzero;mix-blend-mode:normal;fill-opacity:1;font-style:normal;block-progression:tb;font-stretch:normal;stroke-miterlimit:4;font-variant:normal;font-weight:normal;opacity:1;direction:ltr;-inkscape-font-specification:Comili;visibility:visible;text-indent:0;clip-rule:nonzero;image-rendering:auto;white-space:normal;overflow:visible;font-family:Comili;text-decoration-style:solid;text-align:center;solid-color:#000000;writing-mode:lr-tb;stroke-opacity:1;isolation:auto;stroke-dashoffset:0;text-anchor:middle;text-decoration:none;stroke-linecap:butt;stroke-dasharray:none;enable-background:accumulate;text-transform:none;display:inline;color-interpolation:sRGB"
         x="309.51935"
         y="450.92276"
         id="text4480"><tspan
           sodipodi:role="line"
           id="tspan4482"
           x="309.51935"
           y="450.92276"
           style="font-size:65.00000954%;font-family:LetsTrace;baseline-shift:super;-inkscape-font-specification:'LetsTrace Medium';line-height:normal;font-stretch:normal;font-variant:normal;font-weight:500;font-style:normal">-</tspan></text>
    </g>
    <g
       transform="matrix(1.2244898,0,0,1.2244898,-187.83795,-160.6345)"
       id="g4494"
       style="display:inline">
      <text
         id="text4496"
         y="432.42334"
         x="448.73871"
         style="stroke-linejoin:miter;baseline-shift:baseline;color-rendering:auto;text-decoration-color:#000000;color:#000000;letter-spacing:normal;shape-rendering:auto;word-spacing:normal;stroke:none;text-decoration-line:none;text-rendering:auto;stroke-width:0.99999928px;color-interpolation-filters:linearRGB;fill:#000000;solid-opacity:1;line-height:0%;fill-rule:nonzero;mix-blend-mode:normal;fill-opacity:1;font-style:normal;block-progression:tb;font-stretch:normal;stroke-miterlimit:4;font-variant:normal;font-weight:normal;opacity:1;direction:ltr;-inkscape-font-specification:Comili;visibility:visible;text-indent:0;clip-rule:nonzero;image-rendering:auto;white-space:normal;overflow:visible;font-family:Comili;text-decoration-style:solid;text-align:center;solid-color:#000000;writing-mode:lr-tb;stroke-opacity:1;isolation:auto;stroke-dashoffset:0;text-anchor:middle;text-decoration:none;stroke-linecap:butt;stroke-dasharray:none;enable-background:accumulate;text-transform:none;display:inline;color-interpolation:sRGB"
         xml:space="preserve"><tspan
           style="font-size:17.50000191px;font-family:LetsTrace;-inkscape-font-specification:'LetsTrace Medium';line-height:normal;font-stretch:normal;font-variant:normal;font-weight:500;font-style:normal"
           y="432.42334"
           x="448.73871"
           id="tspan4498"
           sodipodi:role="line">e</tspan></text>
      <text
         xml:space="preserve"
         style="stroke-linejoin:miter;baseline-shift:baseline;color-rendering:auto;text-decoration-color:#000000;color:#000000;letter-spacing:normal;shape-rendering:auto;word-spacing:normal;stroke:none;text-decoration-line:none;text-rendering:auto;stroke-width:0.99999928px;color-interpolation-filters:linearRGB;fill:#000000;solid-opacity:1;line-height:0%;fill-rule:nonzero;mix-blend-mode:normal;fill-opacity:1;font-style:normal;block-progression:tb;font-stretch:normal;stroke-miterlimit:4;font-variant:normal;font-weight:normal;opacity:1;direction:ltr;-inkscape-font-specification:Comili;visibility:visible;text-indent:0;clip-rule:nonzero;image-rendering:auto;white-space:normal;overflow:visible;font-family:Comili;text-decoration-style:solid;text-align:center;solid-color:#000000;writing-mode:lr-tb;stroke-opacity:1;isolation:auto;stroke-dashoffset:0;text-anchor:middle;text-decoration:none;stroke-linecap:butt;stroke-dasharray:none;enable-background:accumulate;text-transform:none;display:inline;color-interpolation:sRGB"
         x="453.26431"
         y="436.00842"
         id="text4500"><tspan
           sodipodi:role="line"
           id="tspan4502"
           x="453.26431"
           y="436.00842"
           style="font-size:65.00000954%;font-family:LetsTrace;baseline-shift:super;-inkscape-font-specification:'LetsTrace Medium';line-height:normal;font-stretch:normal;font-variant:normal;font-weight:500;font-style:normal">+</tspan></text>
    </g>
    <g
       transform="matrix(1.2244898,0,0,1.2244898,-174.84135,-144.72487)"
       id="g4504"
       style="display:inline">
      <text
         id="text4506"
         y="432.42334"
         x="448.73871"
         style="stroke-linejoin:miter;baseline-shift:baseline;color-rendering:auto;text-decoration-color:#000000;color:#000000;letter-spacing:normal;shape-rendering:auto;word-spacing:normal;stroke:none;text-decoration-line:none;text-rendering:auto;stroke-width:0.99999928px;color-interpolation-filters:linearRGB;fill:#000000;solid-opacity:1;line-height:0%;fill-rule:nonzero;mix-blend-mode:normal;fill-opacity:1;font-style:normal;block-progression:tb;font-stretch:normal;stroke-miterlimit:4;font-variant:normal;font-weight:normal;opacity:1;direction:ltr;-inkscape-font-specification:Comili;visibility:visible;text-indent:0;clip-rule:nonzero;image-rendering:auto;white-space:normal;overflow:visible;font-family:Comili;text-decoration-style:solid;text-align:center;solid-color:#000000;writing-mode:lr-tb;stroke-opacity:1;isolation:auto;stroke-dashoffset:0;text-anchor:middle;text-decoration:none;stroke-linecap:butt;stroke-dasharray:none;enable-background:accumulate;text-transform:none;display:inline;color-interpolation:sRGB"
         xml:space="preserve"><tspan
           style="font-size:17.50000191px;font-family:LetsTrace;-inkscape-font-specification:'LetsTrace Medium';line-height:normal;font-stretch:normal;font-variant:normal;font-weight:500;font-style:normal"
           y="432.42334"
           x="448.73871"
           id="tspan4508"
           sodipodi:role="line">e</tspan></text>
      <text
         xml:space="preserve"
         style="stroke-linejoin:miter;baseline-shift:baseline;color-rendering:auto;text-decoration-color:#000000;color:#000000;letter-spacing:normal;shape-rendering:auto;word-spacing:normal;stroke:none;text-decoration-line:none;text-rendering:auto;stroke-width:0.99999928px;color-interpolation-filters:linearRGB;fill:#000000;solid-opacity:1;line-height:0%;fill-rule:nonzero;mix-blend-mode:normal;fill-opacity:1;font-style:normal;block-progression:tb;font-stretch:normal;stroke-miterlimit:4;font-variant:normal;font-weight:normal;opacity:1;direction:ltr;-inkscape-font-specification:Comili;visibility:visible;text-indent:0;clip-rule:nonzero;image-rendering:auto;white-space:normal;overflow:visible;font-family:Comili;text-decoration-style:solid;text-align:center;solid-color:#000000;writing-mode:lr-tb;stroke-opacity:1;isolation:auto;stroke-dashoffset:0;text-anchor:middle;text-decoration:none;stroke-linecap:butt;stroke-dasharray:none;enable-background:accumulate;text-transform:none;display:inline;color-interpolation:sRGB"
         x="453.26431"
         y="436.00842"
         id="text4510"><tspan
           sodipodi:role="line"
           id="tspan4512"
           x="453.26431"
           y="436.00842"
           style="font-size:65.00000954%;font-family:LetsTrace;baseline-shift:super;-inkscape-font-specification:'LetsTrace Medium';line-height:normal;font-stretch:normal;font-variant:normal;font-weight:500;font-style:normal">+</tspan></text>
    </g>
    <g
       transform="matrix(1.2244898,0,0,1.2244898,-193.32789,-97.780279)"
       id="g4514"
       style="display:inline">
      <text
         id="text4516"
         y="432.42334"
         x="448.73871"
         style="stroke-linejoin:miter;baseline-shift:baseline;color-rendering:auto;text-decoration-color:#000000;color:#000000;letter-spacing:normal;shape-rendering:auto;word-spacing:normal;stroke:none;text-decoration-line:none;text-rendering:auto;stroke-width:0.99999928px;color-interpolation-filters:linearRGB;fill:#000000;solid-opacity:1;line-height:0%;fill-rule:nonzero;mix-blend-mode:normal;fill-opacity:1;font-style:normal;block-progression:tb;font-stretch:normal;stroke-miterlimit:4;font-variant:normal;font-weight:normal;opacity:1;direction:ltr;-inkscape-font-specification:Comili;visibility:visible;text-indent:0;clip-rule:nonzero;image-rendering:auto;white-space:normal;overflow:visible;font-family:Comili;text-decoration-style:solid;text-align:center;solid-color:#000000;writing-mode:lr-tb;stroke-opacity:1;isolation:auto;stroke-dashoffset:0;text-anchor:middle;text-decoration:none;stroke-linecap:butt;stroke-dasharray:none;enable-background:accumulate;text-transform:none;display:inline;color-interpolation:sRGB"
         xml:space="preserve"><tspan
           style="font-size:17.50000191px;font-family:LetsTrace;-inkscape-font-specification:'LetsTrace Medium';line-height:normal;font-stretch:normal;font-variant:normal;font-weight:500;font-style:normal"
           y="432.42334"
           x="448.73871"
           id="tspan4518"
           sodipodi:role="line">e</tspan></text>
      <text
         xml:space="preserve"
         style="stroke-linejoin:miter;baseline-shift:baseline;color-rendering:auto;text-decoration-color:#000000;color:#000000;letter-spacing:normal;shape-rendering:auto;word-spacing:normal;stroke:none;text-decoration-line:none;text-rendering:auto;stroke-width:0.99999928px;color-interpolation-filters:linearRGB;fill:#000000;solid-opacity:1;line-height:0%;fill-rule:nonzero;mix-blend-mode:normal;fill-opacity:1;font-style:normal;block-progression:tb;font-stretch:normal;stroke-miterlimit:4;font-variant:normal;font-weight:normal;opacity:1;direction:ltr;-inkscape-font-specification:Comili;visibility:visible;text-indent:0;clip-rule:nonzero;image-rendering:auto;white-space:normal;overflow:visible;font-family:Comili;text-decoration-style:solid;text-align:center;solid-color:#000000;writing-mode:lr-tb;stroke-opacity:1;isolation:auto;stroke-dashoffset:0;text-anchor:middle;text-decoration:none;stroke-linecap:butt;stroke-dasharray:none;enable-background:accumulate;text-transform:none;display:inline;color-interpolation:sRGB"
         x="453.26431"
         y="436.00842"
         id="text4520"><tspan
           sodipodi:role="line"
           id="tspan4522"
           x="453.26431"
           y="436.00842"
           style="font-size:65.00000954%;font-family:LetsTrace;baseline-shift:super;-inkscape-font-specification:'LetsTrace Medium';line-height:normal;font-stretch:normal;font-variant:normal;font-weight:500;font-style:normal">+</tspan></text>
    </g>
    <g
       transform="matrix(1.2244898,0,0,1.2244898,-190.30282,-81.758608)"
       id="g4488"
       style="display:inline">
      <text
         xml:space="preserve"
         style="stroke-linejoin:miter;baseline-shift:baseline;color-rendering:auto;text-decoration-color:#000000;color:#000000;letter-spacing:normal;shape-rendering:auto;word-spacing:normal;stroke:none;text-decoration-line:none;text-rendering:auto;stroke-width:0.99999928px;color-interpolation-filters:linearRGB;fill:#000000;solid-opacity:1;line-height:0%;fill-rule:nonzero;mix-blend-mode:normal;fill-opacity:1;font-style:normal;block-progression:tb;font-stretch:normal;stroke-miterlimit:4;font-variant:normal;font-weight:normal;opacity:1;direction:ltr;-inkscape-font-specification:Comili;visibility:visible;text-indent:0;clip-rule:nonzero;image-rendering:auto;white-space:normal;overflow:visible;font-family:Comili;text-decoration-style:solid;text-align:center;solid-color:#000000;writing-mode:lr-tb;stroke-opacity:1;isolation:auto;stroke-dashoffset:0;text-anchor:middle;text-decoration:none;stroke-linecap:butt;stroke-dasharray:none;enable-background:accumulate;text-transform:none;display:inline;color-interpolation:sRGB"
         x="448.73871"
         y="432.42334"
         id="text4454"><tspan
           sodipodi:role="line"
           id="tspan4456"
           x="448.73871"
           y="432.42334"
           style="font-size:17.50000191px;font-family:LetsTrace;-inkscape-font-specification:'LetsTrace Medium';line-height:normal;font-stretch:normal;font-variant:normal;font-weight:500;font-style:normal">e</tspan></text>
      <text
         id="text4448"
         y="436.00842"
         x="453.26431"
         style="stroke-linejoin:miter;baseline-shift:baseline;color-rendering:auto;text-decoration-color:#000000;color:#000000;letter-spacing:normal;shape-rendering:auto;word-spacing:normal;stroke:none;text-decoration-line:none;text-rendering:auto;stroke-width:0.99999928px;color-interpolation-filters:linearRGB;fill:#000000;solid-opacity:1;line-height:0%;fill-rule:nonzero;mix-blend-mode:normal;fill-opacity:1;font-style:normal;block-progression:tb;font-stretch:normal;stroke-miterlimit:4;font-variant:normal;font-weight:normal;opacity:1;direction:ltr;-inkscape-font-specification:Comili;visibility:visible;text-indent:0;clip-rule:nonzero;image-rendering:auto;white-space:normal;overflow:visible;font-family:Comili;text-decoration-style:solid;text-align:center;solid-color:#000000;writing-mode:lr-tb;stroke-opacity:1;isolation:auto;stroke-dashoffset:0;text-anchor:middle;text-decoration:none;stroke-linecap:butt;stroke-dasharray:none;enable-background:accumulate;text-transform:none;display:inline;color-interpolation:sRGB"
         xml:space="preserve"><tspan
           style="font-size:65.00000954%;font-family:LetsTrace;baseline-shift:super;-inkscape-font-specification:'LetsTrace Medium';line-height:normal;font-stretch:normal;font-variant:normal;font-weight:500;font-style:normal"
           y="436.00842"
           x="453.26431"
           id="tspan4450"
           sodipodi:role="line">+</tspan></text>
    </g>
    <text
       id="text4444"
       y="360.71024"
       x="54.741127"
       style="stroke-linejoin:miter;baseline-shift:baseline;color-rendering:auto;text-decoration-color:#000000;color:#000000;letter-spacing:normal;shape-rendering:auto;word-spacing:normal;stroke:none;text-decoration-line:none;text-rendering:auto;stroke-width:0.99999928px;color-interpolation-filters:linearRGB;fill:#000000;solid-opacity:1;line-height:0%;fill-rule:nonzero;mix-blend-mode:normal;fill-opacity:1;font-style:normal;block-progression:tb;font-stretch:normal;stroke-miterlimit:4;font-variant:normal;font-weight:normal;opacity:1;direction:ltr;-inkscape-font-specification:Comili;visibility:visible;text-indent:0;clip-rule:nonzero;image-rendering:auto;white-space:normal;overflow:visible;font-family:Comili;text-decoration-style:solid;text-align:center;solid-color:#000000;writing-mode:lr-tb;stroke-opacity:1;isolation:auto;stroke-dashoffset:0;text-anchor:middle;text-decoration:none;stroke-linecap:butt;stroke-dasharray:none;enable-background:accumulate;text-transform:none;display:inline;color-interpolation:sRGB"
       xml:space="preserve"><tspan
         style="font-size:21.42857361px;font-family:LetsTrace;-inkscape-font-specification:'LetsTrace Medium';line-height:normal;font-stretch:normal;font-variant:normal;font-weight:500;font-style:normal"
         y="360.71024"
         x="54.741127"
         id="tspan4446"
         sodipodi:role="line"><tspan
   id="tspan4452"
   style="font-size:13.92857456px;baseline-shift:super">18</tspan>F</tspan></text>
  </g>
  <g
     id="printing-marks"
     inkscape:label="printing marks"
     inkscape:groupmode="layer"
     sodipodi:insensitive="true">
    <g
       id="CropMarks"
       inkscape:label="CropMarks">
      <path
         d="M 0,-7.0866141732 L 0,-42.5196850392"
         id="cropTL1"
         style="stroke:#000000;stroke-width:0.25;fill:none" />
      <path
         d="M -7.0866141732,0 L -42.5196850392,0"
         id="cropTL2"
         style="stroke:#000000;stroke-width:0.25;fill:none" />
      <path
         d="M 524.409448817,-7.0866141732 L 524.409448817,-42.5196850392"
         id="cropTR1"
         style="stroke:#000000;stroke-width:0.25;fill:none" />
      <path
         d="M 531.49606299,0 L 566.929133856,0"
         id="cropTR2"
         style="stroke:#000000;stroke-width:0.25;fill:none" />
      <path
         d="M 0,751.181102359 L 0,786.614173225"
         id="cropBL1"
         style="stroke:#000000;stroke-width:0.25;fill:none" />
      <path
         d="M -7.0866141732,744.094488186 L -42.5196850392,744.094488186"
         id="cropBL2"
         style="stroke:#000000;stroke-width:0.25;fill:none" />
      <path
         d="M 524.409448817,751.181102359 L 524.409448817,786.614173225"
         id="cropBR1"
         style="stroke:#000000;stroke-width:0.25;fill:none" />
      <path
         d="M 531.49606299,744.094488186 L 566.929133856,744.094488186"
         id="cropBR2"
         style="stroke:#000000;stroke-width:0.25;fill:none" />
    </g>
    <g
       id="RegistrationMarks"
       inkscape:label="RegistrationMarks">
      <g
         id="regMarkL">
        <path
           d="m -0.0,17.716535433 -3.5433070866,0 17.716535433,-17.716535433 -17.716535433,-17.716535433 3.5433070866,0 17.716535433,17.716535433 -17.716535433,17.716535433 z"
           style="stroke:none;fill-opacity:1;fill:#000000"
           transform="translate(-35.433070866,318.897637794) rotate(0)"
           id="path3448" />
        <path
           d="m -3.5433070866,17.716535433 -3.5433070866,0 17.716535433,-17.716535433 -17.716535433,-17.716535433 3.5433070866,0 17.716535433,17.716535433 -17.716535433,17.716535433 z"
           style="stroke:none;fill-opacity:1;fill:#00ffff"
           transform="translate(-35.433070866,318.897637794) rotate(0)"
           id="path3450" />
        <path
           d="m -7.0866141732,17.716535433 -3.5433070866,0 17.716535433,-17.716535433 -17.716535433,-17.716535433 3.5433070866,0 17.716535433,17.716535433 -17.716535433,17.716535433 z"
           style="stroke:none;fill-opacity:1;fill:#ff00ff"
           transform="translate(-35.433070866,318.897637794) rotate(0)"
           id="path3452" />
        <path
           d="m -10.6299212598,17.716535433 -3.5433070866,0 17.716535433,-17.716535433 -17.716535433,-17.716535433 3.5433070866,0 17.716535433,17.716535433 -17.716535433,17.716535433 z"
           style="stroke:none;fill-opacity:1;fill:#ffff00"
           transform="translate(-35.433070866,318.897637794) rotate(0)"
           id="path3454" />
        <path
           d="m -14.1732283464,17.716535433 -3.5433070866,0 17.716535433,-17.716535433 -17.716535433,-17.716535433 3.5433070866,0 17.716535433,17.716535433 -17.716535433,17.716535433 z"
           style="stroke:none;fill-opacity:1;fill:#000000"
           transform="translate(-35.433070866,318.897637794) rotate(0)"
           id="path3456" />
      </g>
      <g
         id="regMarkR">
        <path
           d="m -0.0,17.716535433 -3.5433070866,0 17.716535433,-17.716535433 -17.716535433,-17.716535433 3.5433070866,0 17.716535433,17.716535433 -17.716535433,17.716535433 z"
           style="stroke:none;fill-opacity:1;fill:#000000"
           transform="translate(559.842519683,318.897637794) rotate(180)"
           id="path3459" />
        <path
           d="m -3.5433070866,17.716535433 -3.5433070866,0 17.716535433,-17.716535433 -17.716535433,-17.716535433 3.5433070866,0 17.716535433,17.716535433 -17.716535433,17.716535433 z"
           style="stroke:none;fill-opacity:1;fill:#00ffff"
           transform="translate(559.842519683,318.897637794) rotate(180)"
           id="path3461" />
        <path
           d="m -7.0866141732,17.716535433 -3.5433070866,0 17.716535433,-17.716535433 -17.716535433,-17.716535433 3.5433070866,0 17.716535433,17.716535433 -17.716535433,17.716535433 z"
           style="stroke:none;fill-opacity:1;fill:#ff00ff"
           transform="translate(559.842519683,318.897637794) rotate(180)"
           id="path3463" />
        <path
           d="m -10.6299212598,17.716535433 -3.5433070866,0 17.716535433,-17.716535433 -17.716535433,-17.716535433 3.5433070866,0 17.716535433,17.716535433 -17.716535433,17.716535433 z"
           style="stroke:none;fill-opacity:1;fill:#ffff00"
           transform="translate(559.842519683,318.897637794) rotate(180)"
           id="path3465" />
        <path
           d="m -14.1732283464,17.716535433 -3.5433070866,0 17.716535433,-17.716535433 -17.716535433,-17.716535433 3.5433070866,0 17.716535433,17.716535433 -17.716535433,17.716535433 z"
           style="stroke:none;fill-opacity:1;fill:#000000"
           transform="translate(559.842519683,318.897637794) rotate(180)"
           id="path3467" />
      </g>
      <g
         id="regMarkT">
        <path
           d="m -0.0,17.716535433 -3.5433070866,0 17.716535433,-17.716535433 -17.716535433,-17.716535433 3.5433070866,0 17.716535433,17.716535433 -17.716535433,17.716535433 z"
           style="stroke:none;fill-opacity:1;fill:#000000"
           transform="translate(262.204724408,-35.433070866) rotate(90)"
           id="path3470" />
        <path
           d="m -3.5433070866,17.716535433 -3.5433070866,0 17.716535433,-17.716535433 -17.716535433,-17.716535433 3.5433070866,0 17.716535433,17.716535433 -17.716535433,17.716535433 z"
           style="stroke:none;fill-opacity:1;fill:#00ffff"
           transform="translate(262.204724408,-35.433070866) rotate(90)"
           id="path3472" />
        <path
           d="m -7.0866141732,17.716535433 -3.5433070866,0 17.716535433,-17.716535433 -17.716535433,-17.716535433 3.5433070866,0 17.716535433,17.716535433 -17.716535433,17.716535433 z"
           style="stroke:none;fill-opacity:1;fill:#ff00ff"
           transform="translate(262.204724408,-35.433070866) rotate(90)"
           id="path3474" />
        <path
           d="m -10.6299212598,17.716535433 -3.5433070866,0 17.716535433,-17.716535433 -17.716535433,-17.716535433 3.5433070866,0 17.716535433,17.716535433 -17.716535433,17.716535433 z"
           style="stroke:none;fill-opacity:1;fill:#ffff00"
           transform="translate(262.204724408,-35.433070866) rotate(90)"
           id="path3476" />
        <path
           d="m -14.1732283464,17.716535433 -3.5433070866,0 17.716535433,-17.716535433 -17.716535433,-17.716535433 3.5433070866,0 17.716535433,17.716535433 -17.716535433,17.716535433 z"
           style="stroke:none;fill-opacity:1;fill:#000000"
           transform="translate(262.204724408,-35.433070866) rotate(90)"
           id="path3478" />
      </g>
      <g
         id="regMarkB">
        <path
           d="m -0.0,17.716535433 -3.5433070866,0 17.716535433,-17.716535433 -17.716535433,-17.716535433 3.5433070866,0 17.716535433,17.716535433 -17.716535433,17.716535433 z"
           style="stroke:none;fill-opacity:1;fill:#000000"
           transform="translate(262.204724408,779.527559052) rotate(-90)"
           id="path3481" />
        <path
           d="m -3.5433070866,17.716535433 -3.5433070866,0 17.716535433,-17.716535433 -17.716535433,-17.716535433 3.5433070866,0 17.716535433,17.716535433 -17.716535433,17.716535433 z"
           style="stroke:none;fill-opacity:1;fill:#00ffff"
           transform="translate(262.204724408,779.527559052) rotate(-90)"
           id="path3483" />
        <path
           d="m -7.0866141732,17.716535433 -3.5433070866,0 17.716535433,-17.716535433 -17.716535433,-17.716535433 3.5433070866,0 17.716535433,17.716535433 -17.716535433,17.716535433 z"
           style="stroke:none;fill-opacity:1;fill:#ff00ff"
           transform="translate(262.204724408,779.527559052) rotate(-90)"
           id="path3485" />
        <path
           d="m -10.6299212598,17.716535433 -3.5433070866,0 17.716535433,-17.716535433 -17.716535433,-17.716535433 3.5433070866,0 17.716535433,17.716535433 -17.716535433,17.716535433 z"
           style="stroke:none;fill-opacity:1;fill:#ffff00"
           transform="translate(262.204724408,779.527559052) rotate(-90)"
           id="path3487" />
        <path
           d="m -14.1732283464,17.716535433 -3.5433070866,0 17.716535433,-17.716535433 -17.716535433,-17.716535433 3.5433070866,0 17.716535433,17.716535433 -17.716535433,17.716535433 z"
           style="stroke:none;fill-opacity:1;fill:#000000"
           transform="translate(262.204724408,779.527559052) rotate(-90)"
           id="path3489" />
      </g>
    </g>
  </g>
</svg>
