<?xml version="1.0" encoding="UTF-8" standalone="no"?>
<!-- Created with Inkscape (http://www.inkscape.org/) -->

<svg
   xmlns:dc="http://purl.org/dc/elements/1.1/"
   xmlns:cc="http://creativecommons.org/ns#"
   xmlns:rdf="http://www.w3.org/1999/02/22-rdf-syntax-ns#"
   xmlns:svg="http://www.w3.org/2000/svg"
   xmlns="http://www.w3.org/2000/svg"
   xmlns:xlink="http://www.w3.org/1999/xlink"
   xmlns:sodipodi="http://sodipodi.sourceforge.net/DTD/sodipodi-0.dtd"
   xmlns:inkscape="http://www.inkscape.org/namespaces/inkscape"
   width="148mm"
   height="210mm"
   viewBox="0 0 524.40946 744.09448"
   id="svg2"
   version="1.1"
   inkscape:version="0.92.1 r15371"
   sodipodi:docname="05.svg">
  <sodipodi:namedview
     id="base"
     pagecolor="#ffffff"
     bordercolor="#666666"
     borderopacity="1.0"
     inkscape:pageopacity="1"
     inkscape:pageshadow="2"
     inkscape:zoom="2.4423819"
     inkscape:cx="347.40812"
     inkscape:cy="107.86752"
     inkscape:document-units="mm"
     inkscape:current-layer="layer3"
     showgrid="false"
     units="mm"
     inkscape:window-width="1920"
     inkscape:window-height="1016"
     inkscape:window-x="0"
     inkscape:window-y="27"
     inkscape:window-maximized="1"
     showguides="false"
     inkscape:guide-bbox="true"
     inkscape:snap-bbox="true"
     inkscape:bbox-paths="false"
     inkscape:bbox-nodes="true"
     borderlayer="true"
     inkscape:snap-global="false">
    <sodipodi:guide
       inkscape:color="rgb(0,0,255)"
       inkscape:label=""
       id="guide7382"
       orientation="1,0"
       position="-7.0866147,0"
       inkscape:locked="false" />
    <sodipodi:guide
       inkscape:color="rgb(0,0,255)"
       inkscape:label=""
       id="guide7384"
       orientation="1,0"
       position="531.4961,0"
       inkscape:locked="false" />
    <sodipodi:guide
       inkscape:color="rgb(0,0,255)"
       inkscape:label=""
       id="guide7386"
       orientation="0,1"
       position="0,-7.0866142"
       inkscape:locked="false" />
    <sodipodi:guide
       inkscape:color="rgb(0,0,255)"
       inkscape:label=""
       id="guide7388"
       orientation="0,1"
       position="0,751.1811"
       inkscape:locked="false" />
    <sodipodi:guide
       inkscape:color="rgb(0,0,255)"
       inkscape:label=""
       id="guide7390"
       orientation="1,0"
       position="35.433073,0"
       inkscape:locked="false" />
    <sodipodi:guide
       inkscape:color="rgb(0,0,255)"
       inkscape:label=""
       id="guide7392"
       orientation="0,1"
       position="0,708.66142"
       inkscape:locked="false" />
    <sodipodi:guide
       inkscape:color="rgb(0,0,255)"
       inkscape:label=""
       id="guide7394"
       orientation="1,0"
       position="488.97641,0"
       inkscape:locked="false" />
    <sodipodi:guide
       inkscape:color="rgb(0,0,255)"
       inkscape:label=""
       id="guide7396"
       orientation="0,1"
       position="0,35.433071"
       inkscape:locked="false" />
  </sodipodi:namedview>
  <defs
     id="defs4" />
  <metadata
     id="metadata7">
    <rdf:RDF>
      <cc:Work
         rdf:about="">
        <dc:format>image/svg+xml</dc:format>
        <dc:type
           rdf:resource="http://purl.org/dc/dcmitype/StillImage" />
        <dc:title />
      </cc:Work>
    </rdf:RDF>
  </metadata>
  <g
     style="display:inline"
     inkscape:label="artwork"
     inkscape:groupmode="layer"
     id="layer1"
     transform="translate(0,-308.26761)"
     sodipodi:insensitive="true">
    <image
       sodipodi:absref="/home/elisa/Perso/graphisme/Nylnook/mokatori/layout/ep0 ebook-es/../p05.png"
       xlink:href="../p05.png"
       width="538.65009"
       height="758.25006"
       preserveAspectRatio="none"
       id="image4242"
       x="-7.0866151"
       y="301.19867" />
  </g>
  <g
     transform="translate(0,-70.866142)"
     inkscape:label="bubbles"
     id="layer2"
     inkscape:groupmode="layer"
     style="display:inline">
    <path
       sodipodi:nodetypes="sssss"
       inkscape:connector-curvature="0"
       id="path3415"
       d="m 236.93143,110.63314 c -8.30792,2.80964 -8.73825,18.27553 1.63866,20.91776 32.18917,8.19621 247.07182,6.3871 255.02364,2.39567 5.07487,-2.54734 9.32347,-21.70369 1.40585,-24.14113 -14.1041,-4.34193 -242.78193,-4.34193 -258.06815,0.8277 z"
       style="opacity:1;fill:#ffffff;fill-opacity:1;stroke:none;stroke-width:2;stroke-linecap:round;stroke-linejoin:round;stroke-miterlimit:4;stroke-dasharray:none;stroke-dashoffset:0;stroke-opacity:1" />
    <path
       sodipodi:nodetypes="sssss"
       inkscape:connector-curvature="0"
       id="path3440"
       d="m 102.75805,150.56373 c -21.197852,7.94418 -25.924721,70.07327 -1.56569,83.68521 23.51187,13.13853 153.39919,11.98988 184.46075,-2.57022 10.34176,-4.8477 23.71829,-69.4368 2.86546,-78.89055 -24.37593,-11.05096 -155.64995,-13.50879 -185.76052,-2.22444 z"
       style="opacity:1;fill:#ffffff;fill-opacity:1;stroke:none;stroke-width:2;stroke-linecap:round;stroke-linejoin:round;stroke-miterlimit:4;stroke-dasharray:none;stroke-dashoffset:0;stroke-opacity:1" />
    <path
       style="opacity:1;fill:#ffffff;fill-opacity:1;stroke:none;stroke-width:2;stroke-linecap:round;stroke-linejoin:round;stroke-miterlimit:4;stroke-dasharray:none;stroke-dashoffset:0;stroke-opacity:1"
       d="m 31.58523,531.53771 c -13.453898,7.97461 -6.538933,62.99376 2.775357,73.28714 10.951656,12.10286 123.289693,17.09257 152.579753,-1.11893 12.86148,-7.9968 17.82756,-64.32571 -2.35237,-70.91803 C 145.30549,519.95521 56.081552,517.01786 31.58523,531.53771 Z"
       id="path3480"
       inkscape:connector-curvature="0"
       sodipodi:nodetypes="sssss" />
    <path
       sodipodi:nodetypes="ssscs"
       inkscape:connector-curvature="0"
       id="path3542"
       d="m 219.70745,716.72654 c 20.3722,6.64718 87.21496,11.35069 105.97103,3.10197 6.69676,-2.94516 5.43054,-12.07753 -3.62922,-14.63041 -24.44139,-6.88716 -79.70719,-13.07548 -98.42109,-5.00302 -18.71389,8.07246 -11.41623,14.08577 -3.92072,16.53146 z"
       style="opacity:1;fill:#ffffff;fill-opacity:1;stroke:none;stroke-width:2;stroke-linecap:round;stroke-linejoin:round;stroke-miterlimit:4;stroke-dasharray:none;stroke-dashoffset:0;stroke-opacity:1" />
    <path
       sodipodi:nodetypes="sssss"
       inkscape:connector-curvature="0"
       id="path3544"
       d="m 364.33255,605.1432 c -10.07056,3.49674 -8.25623,11.27277 -0.85522,13.89049 18.63707,6.5919 86.64046,9.869 103.71106,1.73084 6.60285,-3.14781 5.31836,-12.55336 -3.34797,-15.20053 -22.41912,-6.84803 -70.76896,-10.39965 -99.50787,-0.4208 z"
       style="opacity:1;fill:#ffffff;fill-opacity:1;stroke:none;stroke-width:2;stroke-linecap:round;stroke-linejoin:round;stroke-miterlimit:4;stroke-dasharray:none;stroke-dashoffset:0;stroke-opacity:1" />
    <path
       style="opacity:1;fill:#ffffff;fill-opacity:1;stroke:none;stroke-width:2;stroke-linecap:round;stroke-linejoin:round;stroke-miterlimit:4;stroke-dasharray:none;stroke-dashoffset:0;stroke-opacity:1"
       d="m 299.5161,546.28045 c -10.29691,2.55236 -8.27546,13.2299 -0.89837,15.89184 18.22696,6.577 64.60078,7.15718 81.27295,-0.95151 6.57785,-3.1992 2.34926,-8.98542 -6.22522,-11.65742 -21.94149,-6.83745 -55.17577,-7.98602 -74.14936,-3.28291 z"
       id="path4245"
       inkscape:connector-curvature="0"
       sodipodi:nodetypes="sssss" />
    <path
       style="opacity:1;fill:#ffffff;fill-opacity:1;stroke:none;stroke-width:2;stroke-linecap:round;stroke-linejoin:round;stroke-miterlimit:4;stroke-dasharray:none;stroke-dashoffset:0;stroke-opacity:1"
       d="m 287.79058,737.87787 c -9.538,3.87893 0.14002,28.74532 7.3436,31.7295 15.59331,6.45973 64.32624,7.38159 78.44127,-0.49981 6.38531,-3.56536 10.94704,-25.67256 2.95348,-28.53233 -18.87769,-6.75367 -64.63111,-12.50132 -88.73835,-2.69736 z"
       id="path3484"
       inkscape:connector-curvature="0"
       sodipodi:nodetypes="sssss" />
    <flowRoot
       xml:space="preserve"
       id="flowRoot3413"
       style="color:#000000;font-style:normal;font-variant:normal;font-weight:500;font-stretch:normal;line-height:0.01%;font-family:Comili;-inkscape-font-specification:'Comili Medium';text-indent:0;text-align:center;text-decoration:none;text-decoration-line:none;text-decoration-style:solid;text-decoration-color:#000000;letter-spacing:0px;word-spacing:0px;text-transform:none;writing-mode:lr-tb;direction:ltr;baseline-shift:baseline;text-anchor:middle;white-space:normal;clip-rule:nonzero;display:inline;overflow:visible;visibility:visible;opacity:1;isolation:auto;mix-blend-mode:normal;color-interpolation:sRGB;color-interpolation-filters:linearRGB;solid-color:#000000;solid-opacity:1;fill:#000000;fill-opacity:1;fill-rule:nonzero;stroke:none;stroke-width:0.99999976px;stroke-linecap:butt;stroke-linejoin:miter;stroke-miterlimit:4;stroke-dasharray:none;stroke-dashoffset:0;stroke-opacity:1;color-rendering:auto;image-rendering:auto;shape-rendering:auto;text-rendering:auto;enable-background:accumulate"><flowRegion
         id="flowRegion3415"><rect
           id="rect3417"
           width="190.30734"
           height="78.925911"
           x="618.13007"
           y="72.855423" /></flowRegion><flowPara
         id="flowPara3419"
         style="font-size:15px;line-height:1"> </flowPara></flowRoot>  </g>
  <g
     transform="translate(0,-70.866142)"
     inkscape:label="text"
     id="layer3"
     inkscape:groupmode="layer"
     style="display:inline">
    <flowRoot
       xml:space="preserve"
       id="flowRoot3498"
       style="color:#000000;font-style:normal;font-variant:normal;font-weight:normal;font-stretch:normal;line-height:0.01%;font-family:Cantarell;-inkscape-font-specification:Cantarell;text-indent:0;text-align:start;text-decoration:none;text-decoration-line:none;text-decoration-style:solid;text-decoration-color:#000000;letter-spacing:0px;word-spacing:0px;text-transform:none;writing-mode:tb-rl;direction:ltr;baseline-shift:baseline;text-anchor:start;white-space:normal;clip-rule:nonzero;display:inline;overflow:visible;visibility:visible;opacity:1;isolation:auto;mix-blend-mode:normal;color-interpolation:sRGB;color-interpolation-filters:linearRGB;solid-color:#000000;solid-opacity:1;fill:#000000;fill-opacity:1;fill-rule:nonzero;stroke:none;stroke-width:1px;stroke-linecap:butt;stroke-linejoin:miter;stroke-miterlimit:4;stroke-dasharray:none;stroke-dashoffset:0;stroke-opacity:1;color-rendering:auto;image-rendering:auto;shape-rendering:auto;text-rendering:auto;enable-background:accumulate"
       transform="translate(0,70.866111)"><flowRegion
         id="flowRegion3500"><rect
           id="rect3502"
           width="91.20208"
           height="18.119617"
           x="393.19571"
           y="513.97534" /></flowRegion><flowPara
         id="flowPara3504"
         style="font-size:17.5px;line-height:1.25"> </flowPara></flowRoot>    <flowRoot
       xml:space="preserve"
       id="flowRoot3421"
       style="color:#000000;font-style:normal;font-variant:normal;font-weight:normal;font-stretch:normal;line-height:0.01%;font-family:Comili;-inkscape-font-specification:Comili;text-indent:0;text-align:center;text-decoration:none;text-decoration-line:none;text-decoration-style:solid;text-decoration-color:#000000;letter-spacing:0px;word-spacing:0px;text-transform:none;writing-mode:lr-tb;direction:ltr;baseline-shift:baseline;text-anchor:middle;white-space:normal;clip-rule:nonzero;display:inline;overflow:visible;visibility:visible;opacity:1;isolation:auto;mix-blend-mode:normal;color-interpolation:sRGB;color-interpolation-filters:linearRGB;solid-color:#000000;solid-opacity:1;fill:#000000;fill-opacity:1;fill-rule:nonzero;stroke:none;stroke-width:0.99999976px;stroke-linecap:butt;stroke-linejoin:miter;stroke-miterlimit:4;stroke-dasharray:none;stroke-dashoffset:0;stroke-opacity:1;color-rendering:auto;image-rendering:auto;shape-rendering:auto;text-rendering:auto;enable-background:accumulate"
       transform="translate(-369.1522,55.83856)"><flowRegion
         id="flowRegion3423"><rect
           id="rect3425"
           width="263.94531"
           height="79.162209"
           x="601.90228"
           y="61.053413"
           style="font-style:normal;font-variant:normal;font-weight:normal;font-stretch:normal;font-size:16.25000191px;font-family:Comili;-inkscape-font-specification:Comili" /></flowRegion><flowPara
         id="flowPara3427"
         style="font-size:16.25000191px;line-height:1">Mexico, Mexico, 27 de noviembre 2015</flowPara></flowRoot>    <flowRoot
       xml:space="preserve"
       id="flowRoot3429"
       style="color:#000000;font-style:normal;font-variant:normal;font-weight:normal;font-stretch:normal;line-height:0.01%;font-family:Comili;-inkscape-font-specification:Comili;text-indent:0;text-align:center;text-decoration:none;text-decoration-line:none;text-decoration-style:solid;text-decoration-color:#000000;letter-spacing:0px;word-spacing:0px;text-transform:none;writing-mode:lr-tb;direction:ltr;baseline-shift:baseline;text-anchor:middle;white-space:normal;clip-rule:nonzero;display:inline;overflow:visible;visibility:visible;opacity:1;isolation:auto;mix-blend-mode:normal;color-interpolation:sRGB;color-interpolation-filters:linearRGB;solid-color:#000000;solid-opacity:1;fill:#000000;fill-opacity:1;fill-rule:nonzero;stroke:none;stroke-width:0.99999976px;stroke-linecap:butt;stroke-linejoin:miter;stroke-miterlimit:4;stroke-dasharray:none;stroke-dashoffset:0;stroke-opacity:1;color-rendering:auto;image-rendering:auto;shape-rendering:auto;text-rendering:auto;enable-background:accumulate"
       transform="translate(-585.74548,-79.727109)"><flowRegion
         id="flowRegion3431"><rect
           id="rect3433"
           width="206.31442"
           height="91.86792"
           x="674.92725"
           y="234.39536"
           style="font-style:normal;font-variant:normal;font-weight:normal;font-stretch:normal;font-size:16.25000191px;font-family:Comili;-inkscape-font-specification:Comili;text-align:center;text-anchor:middle" /></flowRegion><flowPara
         id="flowPara3439"
         style="font-size:16.25000191px;line-height:1">Cuando yo tenía 17 años, al final del siglo XX, mi madre me dijo que yo hacía parte de la generación que no podía creer mas en nada.</flowPara></flowRoot>    <flowRoot
       xml:space="preserve"
       id="flowRoot3441"
       style="color:#000000;font-style:normal;font-variant:normal;font-weight:normal;font-stretch:normal;line-height:0.01%;font-family:Comili;-inkscape-font-specification:Comili;text-indent:0;text-align:center;text-decoration:none;text-decoration-line:none;text-decoration-style:solid;text-decoration-color:#000000;letter-spacing:0px;word-spacing:0px;text-transform:none;writing-mode:lr-tb;direction:ltr;baseline-shift:baseline;text-anchor:middle;white-space:normal;clip-rule:nonzero;display:inline;overflow:visible;visibility:visible;opacity:1;isolation:auto;mix-blend-mode:normal;color-interpolation:sRGB;color-interpolation-filters:linearRGB;solid-color:#000000;solid-opacity:1;fill:#000000;fill-opacity:1;fill-rule:nonzero;stroke:none;stroke-width:0.99999976px;stroke-linecap:butt;stroke-linejoin:miter;stroke-miterlimit:4;stroke-dasharray:none;stroke-dashoffset:0;stroke-opacity:1;color-rendering:auto;image-rendering:auto;shape-rendering:auto;text-rendering:auto;enable-background:accumulate"
       transform="translate(208.7175,38.666873)"><flowRegion
         id="flowRegion3443"><rect
           id="rect3445"
           width="163.22147"
           height="98.400497"
           x="-179.24297"
           y="497.72763"
           style="font-style:normal;font-variant:normal;font-weight:normal;font-stretch:normal;font-size:16.25000191px;font-family:Comili;-inkscape-font-specification:Comili;text-align:center;text-anchor:middle" /></flowRegion><flowPara
         id="flowPara3451"
         style="font-size:16.25000191px;line-height:1">Malas o buenas, las grandes ideologías del siglo XX han colapsado o lo estaban haciendo :</flowPara></flowRoot>    <flowRoot
       transform="translate(-264.07155,106.05866)"
       style="color:#000000;font-style:normal;font-variant:normal;font-weight:normal;font-stretch:normal;line-height:0.01%;font-family:Comili;-inkscape-font-specification:Comili;text-indent:0;text-align:center;text-decoration:none;text-decoration-line:none;text-decoration-style:solid;text-decoration-color:#000000;letter-spacing:0px;word-spacing:0px;text-transform:none;writing-mode:lr-tb;direction:ltr;baseline-shift:baseline;text-anchor:middle;white-space:normal;clip-rule:nonzero;display:inline;overflow:visible;visibility:visible;opacity:1;isolation:auto;mix-blend-mode:normal;color-interpolation:sRGB;color-interpolation-filters:linearRGB;solid-color:#000000;solid-opacity:1;fill:#000000;fill-opacity:1;fill-rule:nonzero;stroke:none;stroke-width:0.99999976px;stroke-linecap:butt;stroke-linejoin:miter;stroke-miterlimit:4;stroke-dasharray:none;stroke-dashoffset:0;stroke-opacity:1;color-rendering:auto;image-rendering:auto;shape-rendering:auto;text-rendering:auto;enable-background:accumulate"
       id="flowRoot4231"
       xml:space="preserve"><flowRegion
         id="flowRegion4233"><rect
           style="font-style:normal;font-variant:normal;font-weight:normal;font-stretch:normal;font-size:16.25000191px;font-family:Comili;-inkscape-font-specification:Comili"
           y="443.88098"
           x="558.38239"
           height="19.915922"
           width="88.515121"
           id="rect4235" /></flowRegion><flowPara
         id="flowPara4237"
         style="font-size:16.25000191px;line-height:1">el nazismo, </flowPara></flowRoot>    <flowRoot
       xml:space="preserve"
       id="flowRoot3457"
       style="color:#000000;font-style:normal;font-variant:normal;font-weight:normal;font-stretch:normal;line-height:0.01%;font-family:Comili;-inkscape-font-specification:Comili;text-indent:0;text-align:center;text-decoration:none;text-decoration-line:none;text-decoration-style:solid;text-decoration-color:#000000;letter-spacing:0px;word-spacing:0px;text-transform:none;writing-mode:lr-tb;direction:ltr;baseline-shift:baseline;text-anchor:middle;white-space:normal;clip-rule:nonzero;display:inline;overflow:visible;visibility:visible;opacity:1;isolation:auto;mix-blend-mode:normal;color-interpolation:sRGB;color-interpolation-filters:linearRGB;solid-color:#000000;solid-opacity:1;fill:#000000;fill-opacity:1;fill-rule:nonzero;stroke:#000000;stroke-width:0.40854749;stroke-linecap:butt;stroke-linejoin:miter;stroke-miterlimit:4;stroke-dasharray:none;stroke-dashoffset:0;stroke-opacity:1;color-rendering:auto;image-rendering:auto;shape-rendering:auto;text-rendering:auto;enable-background:accumulate"
       transform="matrix(0.42483717,0.0869657,-0.08696571,0.42483717,62.779882,182.92754)"><flowRegion
         id="flowRegion3459"><rect
           id="rect3461"
           width="88.515121"
           height="19.915922"
           x="558.38239"
           y="443.88098"
           style="font-style:normal;font-variant:normal;font-weight:normal;font-stretch:normal;font-size:16.25000191px;font-family:Comili;-inkscape-font-specification:Comili;stroke:#000000;stroke-width:0.40854749;stroke-miterlimit:4;stroke-dasharray:none" /></flowRegion><flowPara
         id="flowPara3463"
         style="font-size:16.25000191px;line-height:1">DZZZ</flowPara></flowRoot>    <flowRoot
       xml:space="preserve"
       id="flowRoot3465"
       style="color:#000000;font-style:normal;font-variant:normal;font-weight:normal;font-stretch:normal;line-height:0.01%;font-family:Comili;-inkscape-font-specification:Comili;text-indent:0;text-align:center;text-decoration:none;text-decoration-line:none;text-decoration-style:solid;text-decoration-color:#000000;letter-spacing:0px;word-spacing:0px;text-transform:none;writing-mode:lr-tb;direction:ltr;baseline-shift:baseline;text-anchor:middle;white-space:normal;clip-rule:nonzero;display:inline;overflow:visible;visibility:visible;opacity:1;isolation:auto;mix-blend-mode:normal;color-interpolation:sRGB;color-interpolation-filters:linearRGB;solid-color:#000000;solid-opacity:1;fill:#000000;fill-opacity:1;fill-rule:nonzero;stroke:none;stroke-width:0.99999976px;stroke-linecap:butt;stroke-linejoin:miter;stroke-miterlimit:4;stroke-dasharray:none;stroke-dashoffset:0;stroke-opacity:1;color-rendering:auto;image-rendering:auto;shape-rendering:auto;text-rendering:auto;enable-background:accumulate"
       transform="translate(-213.43906,90.572337)"><flowRegion
         id="flowRegion3467"><rect
           id="rect3469"
           width="122.44581"
           height="43.519897"
           x="566.49628"
           y="516.16827"
           style="font-style:normal;font-variant:normal;font-weight:normal;font-stretch:normal;font-size:16.25000191px;font-family:Comili;-inkscape-font-specification:Comili" /></flowRegion><flowPara
         id="flowPara3471"
         style="font-size:16.25000191px;line-height:1">el comunismo, </flowPara></flowRoot>    <flowRoot
       xml:space="preserve"
       id="flowRoot3473"
       style="color:#000000;font-style:normal;font-variant:normal;font-weight:normal;font-stretch:normal;line-height:0.01%;font-family:Comili;-inkscape-font-specification:Comili;text-indent:0;text-align:center;text-decoration:none;text-decoration-line:none;text-decoration-style:solid;text-decoration-color:#000000;letter-spacing:0px;word-spacing:0px;text-transform:none;writing-mode:lr-tb;direction:ltr;baseline-shift:baseline;text-anchor:middle;white-space:normal;clip-rule:nonzero;display:inline;overflow:visible;visibility:visible;opacity:1;isolation:auto;mix-blend-mode:normal;color-interpolation:sRGB;color-interpolation-filters:linearRGB;solid-color:#000000;solid-opacity:1;fill:#000000;fill-opacity:1;fill-rule:nonzero;stroke:none;stroke-width:0.99999976px;stroke-linecap:butt;stroke-linejoin:miter;stroke-miterlimit:4;stroke-dasharray:none;stroke-dashoffset:0;stroke-opacity:1;color-rendering:auto;image-rendering:auto;shape-rendering:auto;text-rendering:auto;enable-background:accumulate"
       transform="translate(-352.50283,151.77483)"><flowRegion
         id="flowRegion3475"><rect
           id="rect3477"
           width="142.39883"
           height="22.836311"
           x="554.69427"
           y="552.31189"
           style="font-style:normal;font-variant:normal;font-weight:normal;font-stretch:normal;font-size:16.25000191px;font-family:Comili;-inkscape-font-specification:Comili" /></flowRegion><flowPara
         id="flowPara3479"
         style="font-size:16.25000191px;line-height:1">los anarquistas </flowPara></flowRoot>    <flowRoot
       xml:space="preserve"
       id="flowRoot3481"
       style="color:#000000;font-style:normal;font-variant:normal;font-weight:normal;font-stretch:normal;line-height:0.01%;font-family:Comili;-inkscape-font-specification:Comili;text-indent:0;text-align:center;text-decoration:none;text-decoration-line:none;text-decoration-style:solid;text-decoration-color:#000000;letter-spacing:0px;word-spacing:0px;text-transform:none;writing-mode:lr-tb;direction:ltr;baseline-shift:baseline;text-anchor:middle;white-space:normal;clip-rule:nonzero;display:inline;overflow:visible;visibility:visible;opacity:1;isolation:auto;mix-blend-mode:normal;color-interpolation:sRGB;color-interpolation-filters:linearRGB;solid-color:#000000;solid-opacity:1;fill:#000000;fill-opacity:1;fill-rule:nonzero;stroke:none;stroke-width:0.99999976px;stroke-linecap:butt;stroke-linejoin:miter;stroke-miterlimit:4;stroke-dasharray:none;stroke-dashoffset:0;stroke-opacity:1;color-rendering:auto;image-rendering:auto;shape-rendering:auto;text-rendering:auto;enable-background:accumulate"
       transform="translate(-308.69189,125.42076)"><flowRegion
         id="flowRegion3483"><rect
           id="rect3485"
           width="101.07124"
           height="38.274158"
           x="589.03717"
           y="616.48529"
           style="font-style:normal;font-variant:normal;font-weight:normal;font-stretch:normal;font-size:16.25000191px;font-family:Comili;-inkscape-font-specification:Comili" /></flowRegion><flowPara
         id="flowPara3487"
         style="font-size:16.25000191px;line-height:1">las religiones del livro</flowPara></flowRoot>    <flowRoot
       xml:space="preserve"
       id="flowRoot3489"
       style="color:#000000;font-style:normal;font-variant:normal;font-weight:500;font-stretch:normal;line-height:0.01%;font-family:Comili;-inkscape-font-specification:'Comili Medium';text-indent:0;text-align:center;text-decoration:none;text-decoration-line:none;text-decoration-style:solid;text-decoration-color:#000000;letter-spacing:0px;word-spacing:0px;text-transform:none;writing-mode:lr-tb;direction:ltr;baseline-shift:baseline;text-anchor:middle;white-space:normal;clip-rule:nonzero;display:inline;overflow:visible;visibility:visible;opacity:1;isolation:auto;mix-blend-mode:normal;color-interpolation:sRGB;color-interpolation-filters:linearRGB;solid-color:#000000;solid-opacity:1;fill:#000000;fill-opacity:1;fill-rule:nonzero;stroke:none;stroke-width:0.99999976px;stroke-linecap:butt;stroke-linejoin:miter;stroke-miterlimit:4;stroke-dasharray:none;stroke-dashoffset:0;stroke-opacity:1;color-rendering:auto;image-rendering:auto;shape-rendering:auto;text-rendering:auto;enable-background:accumulate"><flowRegion
         id="flowRegion3491"><rect
           id="rect3493"
           width="17.703009"
           height="47.208023"
           x="254.48074"
           y="561.16339" /></flowRegion><flowPara
         id="flowPara3495"
         style="font-size:15px;line-height:1"> </flowPara></flowRoot>  </g>
  <g
     sodipodi:insensitive="true"
     inkscape:groupmode="layer"
     inkscape:label="printing marks"
     id="printing-marks">
    <g
       inkscape:label="CropMarks"
       id="CropMarks">
      <path
         style="stroke:#000000;stroke-width:0.25;fill:none"
         id="cropTL1"
         d="M 0,-7.0866141732 L 0,-42.5196850392" />
      <path
         style="stroke:#000000;stroke-width:0.25;fill:none"
         id="cropTL2"
         d="M -7.0866141732,0 L -42.5196850392,0" />
      <path
         style="stroke:#000000;stroke-width:0.25;fill:none"
         id="cropTR1"
         d="M 524.409448817,-7.0866141732 L 524.409448817,-42.5196850392" />
      <path
         style="stroke:#000000;stroke-width:0.25;fill:none"
         id="cropTR2"
         d="M 531.49606299,0 L 566.929133856,0" />
      <path
         style="stroke:#000000;stroke-width:0.25;fill:none"
         id="cropBL1"
         d="M 0,751.181102359 L 0,786.614173225" />
      <path
         style="stroke:#000000;stroke-width:0.25;fill:none"
         id="cropBL2"
         d="M -7.0866141732,744.094488186 L -42.5196850392,744.094488186" />
      <path
         style="stroke:#000000;stroke-width:0.25;fill:none"
         id="cropBR1"
         d="M 524.409448817,751.181102359 L 524.409448817,786.614173225" />
      <path
         style="stroke:#000000;stroke-width:0.25;fill:none"
         id="cropBR2"
         d="M 531.49606299,744.094488186 L 566.929133856,744.094488186" />
    </g>
    <g
       inkscape:label="RegistrationMarks"
       id="RegistrationMarks">
      <g
         id="regMarkL">
        <path
           id="path3448"
           transform="translate(-35.433070866,318.897637794) rotate(0)"
           style="stroke:none;fill-opacity:1;fill:#000000"
           d="m -0.0,17.716535433 -3.5433070866,0 17.716535433,-17.716535433 -17.716535433,-17.716535433 3.5433070866,0 17.716535433,17.716535433 -17.716535433,17.716535433 z" />
        <path
           id="path3450"
           transform="translate(-35.433070866,318.897637794) rotate(0)"
           style="stroke:none;fill-opacity:1;fill:#00ffff"
           d="m -3.5433070866,17.716535433 -3.5433070866,0 17.716535433,-17.716535433 -17.716535433,-17.716535433 3.5433070866,0 17.716535433,17.716535433 -17.716535433,17.716535433 z" />
        <path
           id="path3452"
           transform="translate(-35.433070866,318.897637794) rotate(0)"
           style="stroke:none;fill-opacity:1;fill:#ff00ff"
           d="m -7.0866141732,17.716535433 -3.5433070866,0 17.716535433,-17.716535433 -17.716535433,-17.716535433 3.5433070866,0 17.716535433,17.716535433 -17.716535433,17.716535433 z" />
        <path
           id="path3454"
           transform="translate(-35.433070866,318.897637794) rotate(0)"
           style="stroke:none;fill-opacity:1;fill:#ffff00"
           d="m -10.6299212598,17.716535433 -3.5433070866,0 17.716535433,-17.716535433 -17.716535433,-17.716535433 3.5433070866,0 17.716535433,17.716535433 -17.716535433,17.716535433 z" />
        <path
           id="path3456"
           transform="translate(-35.433070866,318.897637794) rotate(0)"
           style="stroke:none;fill-opacity:1;fill:#000000"
           d="m -14.1732283464,17.716535433 -3.5433070866,0 17.716535433,-17.716535433 -17.716535433,-17.716535433 3.5433070866,0 17.716535433,17.716535433 -17.716535433,17.716535433 z" />
      </g>
      <g
         id="regMarkR">
        <path
           id="path3459"
           transform="translate(559.842519683,318.897637794) rotate(180)"
           style="stroke:none;fill-opacity:1;fill:#000000"
           d="m -0.0,17.716535433 -3.5433070866,0 17.716535433,-17.716535433 -17.716535433,-17.716535433 3.5433070866,0 17.716535433,17.716535433 -17.716535433,17.716535433 z" />
        <path
           id="path3461"
           transform="translate(559.842519683,318.897637794) rotate(180)"
           style="stroke:none;fill-opacity:1;fill:#00ffff"
           d="m -3.5433070866,17.716535433 -3.5433070866,0 17.716535433,-17.716535433 -17.716535433,-17.716535433 3.5433070866,0 17.716535433,17.716535433 -17.716535433,17.716535433 z" />
        <path
           id="path3463"
           transform="translate(559.842519683,318.897637794) rotate(180)"
           style="stroke:none;fill-opacity:1;fill:#ff00ff"
           d="m -7.0866141732,17.716535433 -3.5433070866,0 17.716535433,-17.716535433 -17.716535433,-17.716535433 3.5433070866,0 17.716535433,17.716535433 -17.716535433,17.716535433 z" />
        <path
           id="path3465"
           transform="translate(559.842519683,318.897637794) rotate(180)"
           style="stroke:none;fill-opacity:1;fill:#ffff00"
           d="m -10.6299212598,17.716535433 -3.5433070866,0 17.716535433,-17.716535433 -17.716535433,-17.716535433 3.5433070866,0 17.716535433,17.716535433 -17.716535433,17.716535433 z" />
        <path
           id="path3467"
           transform="translate(559.842519683,318.897637794) rotate(180)"
           style="stroke:none;fill-opacity:1;fill:#000000"
           d="m -14.1732283464,17.716535433 -3.5433070866,0 17.716535433,-17.716535433 -17.716535433,-17.716535433 3.5433070866,0 17.716535433,17.716535433 -17.716535433,17.716535433 z" />
      </g>
      <g
         id="regMarkT">
        <path
           id="path3470"
           transform="translate(262.204724408,-35.433070866) rotate(90)"
           style="stroke:none;fill-opacity:1;fill:#000000"
           d="m -0.0,17.716535433 -3.5433070866,0 17.716535433,-17.716535433 -17.716535433,-17.716535433 3.5433070866,0 17.716535433,17.716535433 -17.716535433,17.716535433 z" />
        <path
           id="path3472"
           transform="translate(262.204724408,-35.433070866) rotate(90)"
           style="stroke:none;fill-opacity:1;fill:#00ffff"
           d="m -3.5433070866,17.716535433 -3.5433070866,0 17.716535433,-17.716535433 -17.716535433,-17.716535433 3.5433070866,0 17.716535433,17.716535433 -17.716535433,17.716535433 z" />
        <path
           id="path3474"
           transform="translate(262.204724408,-35.433070866) rotate(90)"
           style="stroke:none;fill-opacity:1;fill:#ff00ff"
           d="m -7.0866141732,17.716535433 -3.5433070866,0 17.716535433,-17.716535433 -17.716535433,-17.716535433 3.5433070866,0 17.716535433,17.716535433 -17.716535433,17.716535433 z" />
        <path
           id="path3476"
           transform="translate(262.204724408,-35.433070866) rotate(90)"
           style="stroke:none;fill-opacity:1;fill:#ffff00"
           d="m -10.6299212598,17.716535433 -3.5433070866,0 17.716535433,-17.716535433 -17.716535433,-17.716535433 3.5433070866,0 17.716535433,17.716535433 -17.716535433,17.716535433 z" />
        <path
           id="path3478"
           transform="translate(262.204724408,-35.433070866) rotate(90)"
           style="stroke:none;fill-opacity:1;fill:#000000"
           d="m -14.1732283464,17.716535433 -3.5433070866,0 17.716535433,-17.716535433 -17.716535433,-17.716535433 3.5433070866,0 17.716535433,17.716535433 -17.716535433,17.716535433 z" />
      </g>
      <g
         id="regMarkB">
        <path
           id="path3481"
           transform="translate(262.204724408,779.527559052) rotate(-90)"
           style="stroke:none;fill-opacity:1;fill:#000000"
           d="m -0.0,17.716535433 -3.5433070866,0 17.716535433,-17.716535433 -17.716535433,-17.716535433 3.5433070866,0 17.716535433,17.716535433 -17.716535433,17.716535433 z" />
        <path
           id="path3483"
           transform="translate(262.204724408,779.527559052) rotate(-90)"
           style="stroke:none;fill-opacity:1;fill:#00ffff"
           d="m -3.5433070866,17.716535433 -3.5433070866,0 17.716535433,-17.716535433 -17.716535433,-17.716535433 3.5433070866,0 17.716535433,17.716535433 -17.716535433,17.716535433 z" />
        <path
           id="path3485"
           transform="translate(262.204724408,779.527559052) rotate(-90)"
           style="stroke:none;fill-opacity:1;fill:#ff00ff"
           d="m -7.0866141732,17.716535433 -3.5433070866,0 17.716535433,-17.716535433 -17.716535433,-17.716535433 3.5433070866,0 17.716535433,17.716535433 -17.716535433,17.716535433 z" />
        <path
           id="path3487"
           transform="translate(262.204724408,779.527559052) rotate(-90)"
           style="stroke:none;fill-opacity:1;fill:#ffff00"
           d="m -10.6299212598,17.716535433 -3.5433070866,0 17.716535433,-17.716535433 -17.716535433,-17.716535433 3.5433070866,0 17.716535433,17.716535433 -17.716535433,17.716535433 z" />
        <path
           id="path3489"
           transform="translate(262.204724408,779.527559052) rotate(-90)"
           style="stroke:none;fill-opacity:1;fill:#000000"
           d="m -14.1732283464,17.716535433 -3.5433070866,0 17.716535433,-17.716535433 -17.716535433,-17.716535433 3.5433070866,0 17.716535433,17.716535433 -17.716535433,17.716535433 z" />
      </g>
    </g>
  </g>
</svg>
