<?xml version="1.0" encoding="UTF-8" standalone="no"?>
<!-- Created with Inkscape (http://www.inkscape.org/) -->

<svg
   xmlns:dc="http://purl.org/dc/elements/1.1/"
   xmlns:cc="http://creativecommons.org/ns#"
   xmlns:rdf="http://www.w3.org/1999/02/22-rdf-syntax-ns#"
   xmlns:svg="http://www.w3.org/2000/svg"
   xmlns="http://www.w3.org/2000/svg"
   xmlns:xlink="http://www.w3.org/1999/xlink"
   xmlns:sodipodi="http://sodipodi.sourceforge.net/DTD/sodipodi-0.dtd"
   xmlns:inkscape="http://www.inkscape.org/namespaces/inkscape"
   width="148mm"
   height="210mm"
   viewBox="0 0 524.40946 744.09448"
   id="svg2"
   version="1.1"
   inkscape:version="0.92.1 r15371"
   sodipodi:docname="08.svg">
  <sodipodi:namedview
     id="base"
     pagecolor="#ffffff"
     bordercolor="#666666"
     borderopacity="1.0"
     inkscape:pageopacity="1"
     inkscape:pageshadow="2"
     inkscape:zoom="1.92"
     inkscape:cx="260.92647"
     inkscape:cy="63.04738"
     inkscape:document-units="mm"
     inkscape:current-layer="layer3"
     showgrid="false"
     units="mm"
     inkscape:window-width="1920"
     inkscape:window-height="1016"
     inkscape:window-x="0"
     inkscape:window-y="27"
     inkscape:window-maximized="1"
     showguides="false"
     inkscape:guide-bbox="true"
     inkscape:snap-bbox="true"
     inkscape:bbox-paths="false"
     inkscape:bbox-nodes="true"
     borderlayer="true"
     inkscape:snap-global="false"
     inkscape:snap-intersection-paths="true"
     inkscape:object-nodes="true">
    <sodipodi:guide
       inkscape:color="rgb(0,0,255)"
       inkscape:label=""
       id="guide7382"
       orientation="1,0"
       position="-7.0866147,0"
       inkscape:locked="false" />
    <sodipodi:guide
       inkscape:color="rgb(0,0,255)"
       inkscape:label=""
       id="guide7384"
       orientation="1,0"
       position="531.4961,0"
       inkscape:locked="false" />
    <sodipodi:guide
       inkscape:color="rgb(0,0,255)"
       inkscape:label=""
       id="guide7386"
       orientation="0,1"
       position="0,-7.0866142"
       inkscape:locked="false" />
    <sodipodi:guide
       inkscape:color="rgb(0,0,255)"
       inkscape:label=""
       id="guide7388"
       orientation="0,1"
       position="0,751.1811"
       inkscape:locked="false" />
    <sodipodi:guide
       inkscape:color="rgb(0,0,255)"
       inkscape:label=""
       id="guide7390"
       orientation="1,0"
       position="35.433073,0"
       inkscape:locked="false" />
    <sodipodi:guide
       inkscape:color="rgb(0,0,255)"
       inkscape:label=""
       id="guide7392"
       orientation="0,1"
       position="0,708.66142"
       inkscape:locked="false" />
    <sodipodi:guide
       inkscape:color="rgb(0,0,255)"
       inkscape:label=""
       id="guide7394"
       orientation="1,0"
       position="488.97641,0"
       inkscape:locked="false" />
    <sodipodi:guide
       inkscape:color="rgb(0,0,255)"
       inkscape:label=""
       id="guide7396"
       orientation="0,1"
       position="50.734933,35.635248"
       inkscape:locked="false" />
  </sodipodi:namedview>
  <defs
     id="defs4">
    <clipPath
       clipPathUnits="userSpaceOnUse"
       id="clipPath4435">
      <path
         sodipodi:nodetypes="cccc"
         inkscape:connector-curvature="0"
         id="path4437"
         d="m 35.433075,343.70065 420.577325,0 -420.577325,230.30351 z"
         style="opacity:0.5;fill:#ececec;fill-opacity:1;stroke:none;stroke-width:2;stroke-linecap:round;stroke-linejoin:round;stroke-miterlimit:4;stroke-dasharray:none;stroke-dashoffset:0;stroke-opacity:1" />
    </clipPath>
    <clipPath
       clipPathUnits="userSpaceOnUse"
       id="clipPath4451">
      <path
         style="opacity:0.5;fill:#ececec;fill-opacity:1;stroke:none;stroke-width:2;stroke-linecap:round;stroke-linejoin:round;stroke-miterlimit:4;stroke-dasharray:none;stroke-dashoffset:0;stroke-opacity:1"
         d="m 488.97643,797.17746 -230.32131,0 230.32131,-227.65763 z"
         id="path4453"
         inkscape:connector-curvature="0"
         sodipodi:nodetypes="cccc" />
    </clipPath>
  </defs>
  <metadata
     id="metadata7">
    <rdf:RDF>
      <cc:Work
         rdf:about="">
        <dc:format>image/svg+xml</dc:format>
        <dc:type
           rdf:resource="http://purl.org/dc/dcmitype/StillImage" />
        <dc:title />
      </cc:Work>
    </rdf:RDF>
  </metadata>
  <g
     style="display:inline"
     inkscape:label="artwork"
     inkscape:groupmode="layer"
     id="layer1"
     transform="translate(0,-308.26761)"
     sodipodi:insensitive="true">
    <image
       sodipodi:absref="/home/elisa/Perso/graphisme/Nylnook/mokatori/layout/ep0 ebook-es/../p08.png"
       xlink:href="../p08.png"
       y="301.18097"
       x="-7.1539588"
       id="image3425"
       preserveAspectRatio="none"
       height="758.25006"
       width="538.65009" />
  </g>
  <g
     transform="translate(0,-70.866142)"
     inkscape:label="bubbles"
     id="layer2"
     inkscape:groupmode="layer"
     style="display:inline">
    <path
       sodipodi:nodetypes="ssscs"
       inkscape:connector-curvature="0"
       id="path3440"
       d="m 412.09748,526.9935 c -12.07732,9.62867 -242.56602,11.98054 -253.6087,2.10934 -13.53217,-12.09657 -3.97654,-35.78298 4.6343,-37.26382 11.10265,-1.90936 226.74159,-4.43637 243.65882,-0.44587 16.91723,3.99049 13.59741,28.99764 5.31558,35.60035 z"
       style="opacity:1;fill:#ffffff;fill-opacity:1;stroke:none;stroke-width:2;stroke-linecap:round;stroke-linejoin:round;stroke-miterlimit:4;stroke-dasharray:none;stroke-dashoffset:0;stroke-opacity:1" />
    <path
       style="opacity:1;fill:#ffffff;fill-opacity:1;stroke:none;stroke-width:2;stroke-linecap:round;stroke-linejoin:round;stroke-miterlimit:4;stroke-dasharray:none;stroke-dashoffset:0;stroke-opacity:1"
       d="m 223.18874,743.18338 c 8.90028,6.45922 -1.06322,24.98125 -8.18301,27.19083 -30.57906,9.49001 -148.032622,0.59649 -154.292501,-3.89511 -9.792424,-7.02627 -15.825293,-19.51348 -6.38602,-28.10914 9.761636,-8.88922 157.842701,-3.18332 168.861531,4.81342 z"
       id="path3480"
       inkscape:connector-curvature="0"
       sodipodi:nodetypes="sssss" />
    <path
       sodipodi:nodetypes="sssss"
       inkscape:connector-curvature="0"
       id="path3546"
       d="m 417.70217,750.22581 c 7.88687,-6.97586 8.88933,-21.44496 -3.19772,-29.72299 C 398.36523,709.44959 297.4268,708.1311 277.82576,715.761 c -15.64386,6.08952 -14.66614,19.96168 -9.6436,31.8845 7.97802,18.93876 138.29709,12.50686 149.52001,2.58031 z"
       style="opacity:1;fill:#ffffff;fill-opacity:1;stroke:none;stroke-width:2;stroke-linecap:round;stroke-linejoin:round;stroke-miterlimit:4;stroke-dasharray:none;stroke-dashoffset:0;stroke-opacity:1" />
    <path
       style="display:inline;opacity:1;fill:#ffffff;fill-opacity:1;stroke:none;stroke-width:10.62992096;stroke-linecap:round;stroke-linejoin:miter;stroke-miterlimit:4;stroke-dasharray:none;stroke-dashoffset:0;stroke-opacity:1"
       d="m 75.889718,603.67088 c -3.938618,-14.41778 4.961426,-29.1468 16.524923,-37.18792 5.606142,-3.89843 11.720279,-7.89725 18.551489,-9.14876 32.01678,-5.86573 53.5082,25.75384 38.0722,53.67491 -14.0529,25.41929 -40.38158,24.57193 -61.09335,9.27698 -5.692655,-4.20384 -11.476262,-9.42501 -12.055262,-16.61521 z"
       id="path4249"
       inkscape:connector-curvature="0" />
    <path
       style="display:inline;opacity:1;fill:#ffffff;fill-opacity:1;stroke:none;stroke-width:10.62992096;stroke-linecap:round;stroke-linejoin:miter;stroke-miterlimit:4;stroke-dasharray:none;stroke-dashoffset:0;stroke-opacity:1"
       d="m 100.94992,588.49799 c -4.929401,5.85036 -9.725051,7.26491 -13.435709,13.93158 -3.593553,6.45628 -12.478,8.78135 -19.31283,12.0281 -0.719269,0.34167 -18.801175,7.34697 -28.257849,7.80574 6.656469,0.01 11.371837,-1.0744 19.185512,-2.71232 8.865693,-1.63308 17.492124,-3.96697 25.849118,-7.39283 13.835729,-5.67184 14.741116,-9.58514 15.971758,-23.6603 z"
       id="path4251"
       inkscape:connector-curvature="0"
       sodipodi:nodetypes="cssccscc" />
  </g>
  <g
     transform="translate(0,-70.866142)"
     inkscape:label="text"
     id="layer3"
     inkscape:groupmode="layer"
     style="display:inline">
    <text
       xml:space="preserve"
       style="color:#000000;font-style:normal;font-variant:normal;font-weight:normal;font-stretch:normal;line-height:0%;font-family:Comili;-inkscape-font-specification:Comili;text-indent:0;text-align:center;text-decoration:none;text-decoration-line:none;text-decoration-style:solid;text-decoration-color:#000000;letter-spacing:0px;word-spacing:0px;text-transform:none;writing-mode:tb-rl;direction:ltr;baseline-shift:baseline;text-anchor:middle;white-space:normal;clip-rule:nonzero;display:inline;overflow:visible;visibility:visible;opacity:1;isolation:auto;mix-blend-mode:normal;color-interpolation:sRGB;color-interpolation-filters:linearRGB;solid-color:#000000;solid-opacity:1;fill:#000000;fill-opacity:1;fill-rule:nonzero;stroke:none;stroke-width:1px;stroke-linecap:butt;stroke-linejoin:miter;stroke-miterlimit:4;stroke-dasharray:none;stroke-dashoffset:0;stroke-opacity:1;color-rendering:auto;image-rendering:auto;shape-rendering:auto;text-rendering:auto;enable-background:accumulate"
       x="140.77582"
       y="766.73297"
       id="text4474"><tspan
         sodipodi:role="line"
         x="770.08923"
         y="140.77582"
         id="tspan3402"
         style="font-size:18.75000191px;line-height:1"> </tspan></text>
    <text
       id="text3442"
       y="767.87769"
       x="372.98804"
       style="color:#000000;font-style:normal;font-variant:normal;font-weight:normal;font-stretch:normal;line-height:0%;font-family:Comili;-inkscape-font-specification:Comili;text-indent:0;text-align:center;text-decoration:none;text-decoration-line:none;text-decoration-style:solid;text-decoration-color:#000000;letter-spacing:0px;word-spacing:0px;text-transform:none;writing-mode:tb-rl;direction:ltr;baseline-shift:baseline;text-anchor:middle;white-space:normal;clip-rule:nonzero;display:inline;overflow:visible;visibility:visible;opacity:1;isolation:auto;mix-blend-mode:normal;color-interpolation:sRGB;color-interpolation-filters:linearRGB;solid-color:#000000;solid-opacity:1;fill:#000000;fill-opacity:1;fill-rule:nonzero;stroke:none;stroke-width:1px;stroke-linecap:butt;stroke-linejoin:miter;stroke-miterlimit:4;stroke-dasharray:none;stroke-dashoffset:0;stroke-opacity:1;color-rendering:auto;image-rendering:auto;shape-rendering:auto;text-rendering:auto;enable-background:accumulate"
       xml:space="preserve"><tspan
         y="372.98804"
         x="771.23395"
         sodipodi:role="line"
         id="tspan4626"
         style="font-size:18.75000191px;line-height:1.10000002"> </tspan></text>
    <text
       id="text3461"
       y="421.06879"
       x="145.36908"
       style="color:#000000;font-style:normal;font-variant:normal;font-weight:normal;font-stretch:normal;line-height:0%;font-family:Comili;-inkscape-font-specification:Comili;text-indent:0;text-align:center;text-decoration:none;text-decoration-line:none;text-decoration-style:solid;text-decoration-color:#000000;letter-spacing:0px;word-spacing:0px;text-transform:none;writing-mode:tb-rl;direction:ltr;baseline-shift:baseline;text-anchor:middle;white-space:normal;clip-rule:nonzero;display:inline;overflow:visible;visibility:visible;opacity:1;isolation:auto;mix-blend-mode:normal;color-interpolation:sRGB;color-interpolation-filters:linearRGB;solid-color:#000000;solid-opacity:1;fill:#000000;fill-opacity:1;fill-rule:nonzero;stroke:none;stroke-width:1px;stroke-linecap:butt;stroke-linejoin:miter;stroke-miterlimit:4;stroke-dasharray:none;stroke-dashoffset:0;stroke-opacity:1;color-rendering:auto;image-rendering:auto;shape-rendering:auto;text-rendering:auto;enable-background:accumulate"
       xml:space="preserve"><tspan
         y="145.36908"
         x="424.42505"
         sodipodi:role="line"
         id="tspan4697"
         style="font-size:18.75000191px;line-height:1"> </tspan></text>
    <flowRoot
       xml:space="preserve"
       id="flowRoot3498"
       style="color:#000000;font-style:normal;font-variant:normal;font-weight:normal;font-stretch:normal;line-height:0.01%;font-family:Cantarell;-inkscape-font-specification:Cantarell;text-indent:0;text-align:start;text-decoration:none;text-decoration-line:none;text-decoration-style:solid;text-decoration-color:#000000;letter-spacing:0px;word-spacing:0px;text-transform:none;writing-mode:tb-rl;direction:ltr;baseline-shift:baseline;text-anchor:start;white-space:normal;clip-rule:nonzero;display:inline;overflow:visible;visibility:visible;opacity:1;isolation:auto;mix-blend-mode:normal;color-interpolation:sRGB;color-interpolation-filters:linearRGB;solid-color:#000000;solid-opacity:1;fill:#000000;fill-opacity:1;fill-rule:nonzero;stroke:none;stroke-width:1px;stroke-linecap:butt;stroke-linejoin:miter;stroke-miterlimit:4;stroke-dasharray:none;stroke-dashoffset:0;stroke-opacity:1;color-rendering:auto;image-rendering:auto;shape-rendering:auto;text-rendering:auto;enable-background:accumulate"
       transform="translate(0,70.866111)"><flowRegion
         id="flowRegion3500"><rect
           id="rect3502"
           width="91.20208"
           height="18.119617"
           x="393.19571"
           y="513.97534" /></flowRegion><flowPara
         id="flowPara3504"
         style="font-size:17.5px;line-height:1.25"> </flowPara></flowRoot>    <flowRoot
       xml:space="preserve"
       id="flowRoot3405"
       style="color:#000000;font-style:normal;font-variant:normal;font-weight:normal;font-stretch:normal;line-height:0.01%;font-family:Comili;-inkscape-font-specification:Comili;text-indent:0;text-align:center;text-decoration:none;text-decoration-line:none;text-decoration-style:solid;text-decoration-color:#000000;letter-spacing:0px;word-spacing:0px;text-transform:none;writing-mode:lr-tb;direction:ltr;baseline-shift:baseline;text-anchor:middle;white-space:normal;clip-rule:nonzero;display:inline;overflow:visible;visibility:visible;opacity:1;isolation:auto;mix-blend-mode:normal;color-interpolation:sRGB;color-interpolation-filters:linearRGB;solid-color:#000000;solid-opacity:1;fill:#000000;fill-opacity:1;fill-rule:nonzero;stroke:none;stroke-width:0.99999964px;stroke-linecap:butt;stroke-linejoin:miter;stroke-miterlimit:4;stroke-dasharray:none;stroke-dashoffset:0;stroke-opacity:1;color-rendering:auto;image-rendering:auto;shape-rendering:auto;text-rendering:auto;enable-background:accumulate"
       transform="translate(394.45724,150.25895)"><flowRegion
         id="flowRegion3407"><rect
           id="rect3409"
           width="250.70056"
           height="44.621094"
           x="-233.82722"
           y="347.98969"
           style="font-size:16.25000191px" /></flowRegion><flowPara
         id="flowPara3413"
         style="font-size:16.25000191px;line-height:1">Todavía no estoy seguro, pero siento que llega el fin de un mundo.</flowPara></flowRoot>    <flowRoot
       transform="translate(244.154,92.070373)"
       style="color:#000000;font-style:normal;font-variant:normal;font-weight:normal;font-stretch:normal;line-height:0.01%;font-family:Comili;-inkscape-font-specification:Comili;text-indent:0;text-align:center;text-decoration:none;text-decoration-line:none;text-decoration-style:solid;text-decoration-color:#000000;letter-spacing:0px;word-spacing:0px;text-transform:none;writing-mode:lr-tb;direction:ltr;baseline-shift:baseline;text-anchor:middle;white-space:normal;clip-rule:nonzero;display:inline;overflow:visible;visibility:visible;opacity:1;isolation:auto;mix-blend-mode:normal;color-interpolation:sRGB;color-interpolation-filters:linearRGB;solid-color:#000000;solid-opacity:1;fill:#000000;fill-opacity:1;fill-rule:nonzero;stroke:none;stroke-width:0.99999964px;stroke-linecap:butt;stroke-linejoin:miter;stroke-miterlimit:4;stroke-dasharray:none;stroke-dashoffset:0;stroke-opacity:1;color-rendering:auto;image-rendering:auto;shape-rendering:auto;text-rendering:auto;enable-background:accumulate"
       id="flowRoot4211"
       xml:space="preserve"><flowRegion
         id="flowRegion4213"><rect
           style="font-size:16.25000191px"
           y="648.20319"
           x="-193.99545"
           height="36.02597"
           width="174.8172"
           id="rect4215" /></flowRegion><flowPara
         id="flowPara4217"
         style="font-size:16.25000191px;line-height:1">Hay que cambiar de lógica.</flowPara></flowRoot>    <flowRoot
       xml:space="preserve"
       id="flowRoot3417"
       style="color:#000000;font-style:normal;font-variant:normal;font-weight:normal;font-stretch:normal;line-height:0.01%;font-family:Comili;-inkscape-font-specification:Comili;text-indent:0;text-align:center;text-decoration:none;text-decoration-line:none;text-decoration-style:solid;text-decoration-color:#000000;letter-spacing:0px;word-spacing:0px;text-transform:none;writing-mode:lr-tb;direction:ltr;baseline-shift:baseline;text-anchor:middle;white-space:normal;clip-rule:nonzero;display:inline;overflow:visible;visibility:visible;opacity:1;isolation:auto;mix-blend-mode:normal;color-interpolation:sRGB;color-interpolation-filters:linearRGB;solid-color:#000000;solid-opacity:1;fill:#000000;fill-opacity:1;fill-rule:nonzero;stroke:none;stroke-width:0.99999964px;stroke-linecap:butt;stroke-linejoin:miter;stroke-miterlimit:4;stroke-dasharray:none;stroke-dashoffset:0;stroke-opacity:1;color-rendering:auto;image-rendering:auto;shape-rendering:auto;text-rendering:auto;enable-background:accumulate"
       transform="translate(224.08358,-70.407493)"><flowRegion
         id="flowRegion3419"><rect
           id="rect3421"
           width="167.3251"
           height="54.39204"
           x="-193.99545"
           y="648.20319"
           style="font-size:16.25000191px" /></flowRegion><flowPara
         id="flowPara4223"
         style="font-size:20.00000191px;line-height:1"><flowSpan
           id="flowSpan721"
           style="font-size:16.25000191px;line-height:1">Estas </flowSpan></flowPara><flowPara
         style="font-size:20.00000191px;line-height:1"
         id="flowPara723"><flowSpan
   style="font-size:16.25000191px;line-height:1"
   id="flowSpan725">despedido </flowSpan>!</flowPara></flowRoot>    <flowRoot
       xml:space="preserve"
       id="flowRoot3425"
       style="color:#000000;font-style:normal;font-variant:normal;font-weight:normal;font-stretch:normal;line-height:0.01%;font-family:Comili;-inkscape-font-specification:Comili;text-indent:0;text-align:center;text-decoration:none;text-decoration-line:none;text-decoration-style:solid;text-decoration-color:#000000;letter-spacing:0px;word-spacing:0px;text-transform:none;writing-mode:lr-tb;direction:ltr;baseline-shift:baseline;text-anchor:middle;white-space:normal;clip-rule:nonzero;display:inline;overflow:visible;visibility:visible;opacity:1;isolation:auto;mix-blend-mode:normal;color-interpolation:sRGB;color-interpolation-filters:linearRGB;solid-color:#000000;solid-opacity:1;fill:#000000;fill-opacity:1;fill-rule:nonzero;stroke:none;stroke-width:0.99999964px;stroke-linecap:butt;stroke-linejoin:miter;stroke-miterlimit:4;stroke-dasharray:none;stroke-dashoffset:0;stroke-opacity:1;color-rendering:auto;image-rendering:auto;shape-rendering:auto;text-rendering:auto;enable-background:accumulate"
       transform="translate(-300.41688,60.449422)"><flowRegion
         id="flowRegion3427"><rect
           id="rect3429"
           width="145.52766"
           height="50.974609"
           x="570.922"
           y="660.74286"
           style="font-size:16.25000191px" /></flowRegion><flowPara
         id="flowPara3431"
         style="font-size:16.25000191px;line-height:1">Y un hallazgo me obligará a hacerlo…</flowPara></flowRoot>  </g>
  <g
     sodipodi:insensitive="true"
     inkscape:groupmode="layer"
     inkscape:label="printing marks"
     id="printing-marks">
    <g
       inkscape:label="CropMarks"
       id="CropMarks">
      <path
         style="stroke:#000000;stroke-width:0.25;fill:none"
         id="cropTL1"
         d="M 0,-7.0866141732 L 0,-42.5196850392" />
      <path
         style="stroke:#000000;stroke-width:0.25;fill:none"
         id="cropTL2"
         d="M -7.0866141732,0 L -42.5196850392,0" />
      <path
         style="stroke:#000000;stroke-width:0.25;fill:none"
         id="cropTR1"
         d="M 524.409448817,-7.0866141732 L 524.409448817,-42.5196850392" />
      <path
         style="stroke:#000000;stroke-width:0.25;fill:none"
         id="cropTR2"
         d="M 531.49606299,0 L 566.929133856,0" />
      <path
         style="stroke:#000000;stroke-width:0.25;fill:none"
         id="cropBL1"
         d="M 0,751.181102359 L 0,786.614173225" />
      <path
         style="stroke:#000000;stroke-width:0.25;fill:none"
         id="cropBL2"
         d="M -7.0866141732,744.094488186 L -42.5196850392,744.094488186" />
      <path
         style="stroke:#000000;stroke-width:0.25;fill:none"
         id="cropBR1"
         d="M 524.409448817,751.181102359 L 524.409448817,786.614173225" />
      <path
         style="stroke:#000000;stroke-width:0.25;fill:none"
         id="cropBR2"
         d="M 531.49606299,744.094488186 L 566.929133856,744.094488186" />
    </g>
    <g
       inkscape:label="RegistrationMarks"
       id="RegistrationMarks">
      <g
         id="regMarkL">
        <path
           id="path3448"
           transform="translate(-35.433070866,318.897637794) rotate(0)"
           style="stroke:none;fill-opacity:1;fill:#000000"
           d="m -0.0,17.716535433 -3.5433070866,0 17.716535433,-17.716535433 -17.716535433,-17.716535433 3.5433070866,0 17.716535433,17.716535433 -17.716535433,17.716535433 z" />
        <path
           id="path3450"
           transform="translate(-35.433070866,318.897637794) rotate(0)"
           style="stroke:none;fill-opacity:1;fill:#00ffff"
           d="m -3.5433070866,17.716535433 -3.5433070866,0 17.716535433,-17.716535433 -17.716535433,-17.716535433 3.5433070866,0 17.716535433,17.716535433 -17.716535433,17.716535433 z" />
        <path
           id="path3452"
           transform="translate(-35.433070866,318.897637794) rotate(0)"
           style="stroke:none;fill-opacity:1;fill:#ff00ff"
           d="m -7.0866141732,17.716535433 -3.5433070866,0 17.716535433,-17.716535433 -17.716535433,-17.716535433 3.5433070866,0 17.716535433,17.716535433 -17.716535433,17.716535433 z" />
        <path
           id="path3454"
           transform="translate(-35.433070866,318.897637794) rotate(0)"
           style="stroke:none;fill-opacity:1;fill:#ffff00"
           d="m -10.6299212598,17.716535433 -3.5433070866,0 17.716535433,-17.716535433 -17.716535433,-17.716535433 3.5433070866,0 17.716535433,17.716535433 -17.716535433,17.716535433 z" />
        <path
           id="path3456"
           transform="translate(-35.433070866,318.897637794) rotate(0)"
           style="stroke:none;fill-opacity:1;fill:#000000"
           d="m -14.1732283464,17.716535433 -3.5433070866,0 17.716535433,-17.716535433 -17.716535433,-17.716535433 3.5433070866,0 17.716535433,17.716535433 -17.716535433,17.716535433 z" />
      </g>
      <g
         id="regMarkR">
        <path
           id="path3459"
           transform="translate(559.842519683,318.897637794) rotate(180)"
           style="stroke:none;fill-opacity:1;fill:#000000"
           d="m -0.0,17.716535433 -3.5433070866,0 17.716535433,-17.716535433 -17.716535433,-17.716535433 3.5433070866,0 17.716535433,17.716535433 -17.716535433,17.716535433 z" />
        <path
           id="path3461"
           transform="translate(559.842519683,318.897637794) rotate(180)"
           style="stroke:none;fill-opacity:1;fill:#00ffff"
           d="m -3.5433070866,17.716535433 -3.5433070866,0 17.716535433,-17.716535433 -17.716535433,-17.716535433 3.5433070866,0 17.716535433,17.716535433 -17.716535433,17.716535433 z" />
        <path
           id="path3463"
           transform="translate(559.842519683,318.897637794) rotate(180)"
           style="stroke:none;fill-opacity:1;fill:#ff00ff"
           d="m -7.0866141732,17.716535433 -3.5433070866,0 17.716535433,-17.716535433 -17.716535433,-17.716535433 3.5433070866,0 17.716535433,17.716535433 -17.716535433,17.716535433 z" />
        <path
           id="path3465"
           transform="translate(559.842519683,318.897637794) rotate(180)"
           style="stroke:none;fill-opacity:1;fill:#ffff00"
           d="m -10.6299212598,17.716535433 -3.5433070866,0 17.716535433,-17.716535433 -17.716535433,-17.716535433 3.5433070866,0 17.716535433,17.716535433 -17.716535433,17.716535433 z" />
        <path
           id="path3467"
           transform="translate(559.842519683,318.897637794) rotate(180)"
           style="stroke:none;fill-opacity:1;fill:#000000"
           d="m -14.1732283464,17.716535433 -3.5433070866,0 17.716535433,-17.716535433 -17.716535433,-17.716535433 3.5433070866,0 17.716535433,17.716535433 -17.716535433,17.716535433 z" />
      </g>
      <g
         id="regMarkT">
        <path
           id="path3470"
           transform="translate(262.204724408,-35.433070866) rotate(90)"
           style="stroke:none;fill-opacity:1;fill:#000000"
           d="m -0.0,17.716535433 -3.5433070866,0 17.716535433,-17.716535433 -17.716535433,-17.716535433 3.5433070866,0 17.716535433,17.716535433 -17.716535433,17.716535433 z" />
        <path
           id="path3472"
           transform="translate(262.204724408,-35.433070866) rotate(90)"
           style="stroke:none;fill-opacity:1;fill:#00ffff"
           d="m -3.5433070866,17.716535433 -3.5433070866,0 17.716535433,-17.716535433 -17.716535433,-17.716535433 3.5433070866,0 17.716535433,17.716535433 -17.716535433,17.716535433 z" />
        <path
           id="path3474"
           transform="translate(262.204724408,-35.433070866) rotate(90)"
           style="stroke:none;fill-opacity:1;fill:#ff00ff"
           d="m -7.0866141732,17.716535433 -3.5433070866,0 17.716535433,-17.716535433 -17.716535433,-17.716535433 3.5433070866,0 17.716535433,17.716535433 -17.716535433,17.716535433 z" />
        <path
           id="path3476"
           transform="translate(262.204724408,-35.433070866) rotate(90)"
           style="stroke:none;fill-opacity:1;fill:#ffff00"
           d="m -10.6299212598,17.716535433 -3.5433070866,0 17.716535433,-17.716535433 -17.716535433,-17.716535433 3.5433070866,0 17.716535433,17.716535433 -17.716535433,17.716535433 z" />
        <path
           id="path3478"
           transform="translate(262.204724408,-35.433070866) rotate(90)"
           style="stroke:none;fill-opacity:1;fill:#000000"
           d="m -14.1732283464,17.716535433 -3.5433070866,0 17.716535433,-17.716535433 -17.716535433,-17.716535433 3.5433070866,0 17.716535433,17.716535433 -17.716535433,17.716535433 z" />
      </g>
      <g
         id="regMarkB">
        <path
           id="path3481"
           transform="translate(262.204724408,779.527559052) rotate(-90)"
           style="stroke:none;fill-opacity:1;fill:#000000"
           d="m -0.0,17.716535433 -3.5433070866,0 17.716535433,-17.716535433 -17.716535433,-17.716535433 3.5433070866,0 17.716535433,17.716535433 -17.716535433,17.716535433 z" />
        <path
           id="path3483"
           transform="translate(262.204724408,779.527559052) rotate(-90)"
           style="stroke:none;fill-opacity:1;fill:#00ffff"
           d="m -3.5433070866,17.716535433 -3.5433070866,0 17.716535433,-17.716535433 -17.716535433,-17.716535433 3.5433070866,0 17.716535433,17.716535433 -17.716535433,17.716535433 z" />
        <path
           id="path3485"
           transform="translate(262.204724408,779.527559052) rotate(-90)"
           style="stroke:none;fill-opacity:1;fill:#ff00ff"
           d="m -7.0866141732,17.716535433 -3.5433070866,0 17.716535433,-17.716535433 -17.716535433,-17.716535433 3.5433070866,0 17.716535433,17.716535433 -17.716535433,17.716535433 z" />
        <path
           id="path3487"
           transform="translate(262.204724408,779.527559052) rotate(-90)"
           style="stroke:none;fill-opacity:1;fill:#ffff00"
           d="m -10.6299212598,17.716535433 -3.5433070866,0 17.716535433,-17.716535433 -17.716535433,-17.716535433 3.5433070866,0 17.716535433,17.716535433 -17.716535433,17.716535433 z" />
        <path
           id="path3489"
           transform="translate(262.204724408,779.527559052) rotate(-90)"
           style="stroke:none;fill-opacity:1;fill:#000000"
           d="m -14.1732283464,17.716535433 -3.5433070866,0 17.716535433,-17.716535433 -17.716535433,-17.716535433 3.5433070866,0 17.716535433,17.716535433 -17.716535433,17.716535433 z" />
      </g>
    </g>
  </g>
</svg>
