<?xml version="1.0" encoding="UTF-8" standalone="no"?>
<!-- Created with Inkscape (http://www.inkscape.org/) -->

<svg
   xmlns:dc="http://purl.org/dc/elements/1.1/"
   xmlns:cc="http://creativecommons.org/ns#"
   xmlns:rdf="http://www.w3.org/1999/02/22-rdf-syntax-ns#"
   xmlns:svg="http://www.w3.org/2000/svg"
   xmlns="http://www.w3.org/2000/svg"
   xmlns:xlink="http://www.w3.org/1999/xlink"
   xmlns:sodipodi="http://sodipodi.sourceforge.net/DTD/sodipodi-0.dtd"
   xmlns:inkscape="http://www.inkscape.org/namespaces/inkscape"
   width="148mm"
   height="210mm"
   viewBox="0 0 524.40946 744.09448"
   id="svg2"
   version="1.1"
   inkscape:version="0.92.1 r"
   sodipodi:docname="03.svg">
  <sodipodi:namedview
     id="base"
     pagecolor="#ffffff"
     bordercolor="#666666"
     borderopacity="1.0"
     inkscape:pageopacity="1"
     inkscape:pageshadow="2"
     inkscape:zoom="0.8264268"
     inkscape:cx="277.40716"
     inkscape:cy="292.30737"
     inkscape:document-units="mm"
     inkscape:current-layer="layer1"
     showgrid="false"
     units="mm"
     inkscape:window-width="1280"
     inkscape:window-height="1371"
     inkscape:window-x="1280"
     inkscape:window-y="27"
     inkscape:window-maximized="0"
     showguides="true"
     inkscape:guide-bbox="true"
     inkscape:snap-bbox="true"
     inkscape:bbox-paths="false"
     inkscape:bbox-nodes="true"
     borderlayer="true"
     inkscape:snap-global="true"
     inkscape:snap-page="false">
    <sodipodi:guide
       inkscape:locked="false"
       position="-7.0866147,0"
       orientation="1,0"
       id="guide7382"
       inkscape:label=""
       inkscape:color="rgb(0,0,255)" />
    <sodipodi:guide
       inkscape:locked="false"
       position="531.4961,0"
       orientation="1,0"
       id="guide7384"
       inkscape:label=""
       inkscape:color="rgb(0,0,255)" />
    <sodipodi:guide
       inkscape:locked="false"
       position="0,-7.0866142"
       orientation="0,1"
       id="guide7386"
       inkscape:label=""
       inkscape:color="rgb(0,0,255)" />
    <sodipodi:guide
       inkscape:locked="false"
       position="0,751.1811"
       orientation="0,1"
       id="guide7388"
       inkscape:label=""
       inkscape:color="rgb(0,0,255)" />
    <sodipodi:guide
       inkscape:locked="false"
       position="35.049405,-280.39522"
       orientation="1,0"
       id="guide7390"
       inkscape:label=""
       inkscape:color="rgb(0,0,255)" />
    <sodipodi:guide
       inkscape:locked="false"
       position="0,708.66142"
       orientation="0,1"
       id="guide7392"
       inkscape:label=""
       inkscape:color="rgb(0,0,255)" />
    <sodipodi:guide
       inkscape:locked="false"
       position="488.97641,0"
       orientation="1,0"
       id="guide7394"
       inkscape:label=""
       inkscape:color="rgb(0,0,255)" />
    <sodipodi:guide
       inkscape:locked="false"
       position="0,35.433071"
       orientation="0,1"
       id="guide7396"
       inkscape:label=""
       inkscape:color="rgb(0,0,255)" />
  </sodipodi:namedview>
  <defs
     id="defs4" />
  <metadata
     id="metadata7">
    <rdf:RDF>
      <cc:Work
         rdf:about="">
        <dc:format>image/svg+xml</dc:format>
        <dc:type
           rdf:resource="http://purl.org/dc/dcmitype/StillImage" />
        <dc:title />
      </cc:Work>
    </rdf:RDF>
  </metadata>
  <g
     transform="translate(0,-308.26761)"
     id="layer1"
     inkscape:groupmode="layer"
     inkscape:label="artwork"
     style="display:inline">
    <image
       sodipodi:absref="/home/nylnook/Crea/BD/Mokatori/layout/ep1 ebook-en/../p11.png"
       xlink:href="../p11.png"
       width="758.26776"
       height="758.26776"
       preserveAspectRatio="none"
       id="image4219"
       x="-98.063957"
       y="301.18097" />
  </g>
  <g
     inkscape:groupmode="layer"
     id="layer2"
     inkscape:label="bubbles"
     transform="translate(0,-70.866142)">
    <flowRoot
       style="color:#000000;font-style:normal;font-variant:normal;font-weight:normal;font-stretch:normal;font-size:15px;line-height:110.00000238%;font-family:Cantarell;-inkscape-font-specification:Cantarell;text-indent:0;text-align:start;text-decoration:none;text-decoration-line:none;text-decoration-style:solid;text-decoration-color:#000000;letter-spacing:0px;word-spacing:0px;text-transform:none;writing-mode:tb-rl;direction:ltr;baseline-shift:baseline;text-anchor:start;white-space:normal;clip-rule:nonzero;display:inline;overflow:visible;visibility:visible;opacity:1;isolation:auto;mix-blend-mode:normal;color-interpolation:sRGB;color-interpolation-filters:linearRGB;solid-color:#000000;solid-opacity:1;fill:#000000;fill-opacity:1;fill-rule:nonzero;stroke:none;stroke-width:1px;stroke-linecap:butt;stroke-linejoin:miter;stroke-miterlimit:4;stroke-dasharray:none;stroke-dashoffset:0;stroke-opacity:1;color-rendering:auto;image-rendering:auto;shape-rendering:auto;text-rendering:auto;enable-background:accumulate"
       id="flowRoot3385"
       xml:space="preserve"><flowRegion
         id="flowRegion3387"><rect
           y="265.74335"
           x="-431.64597"
           height="177.78088"
           width="252.35847"
           id="rect3389" /></flowRegion><flowPara
         id="flowPara3391" /></flowRoot>    <flowRoot
       style="color:#000000;font-style:normal;font-variant:normal;font-weight:normal;font-stretch:normal;font-size:15px;line-height:110.00000238%;font-family:Cantarell;-inkscape-font-specification:Cantarell;text-indent:0;text-align:start;text-decoration:none;text-decoration-line:none;text-decoration-style:solid;text-decoration-color:#000000;letter-spacing:0px;word-spacing:0px;text-transform:none;writing-mode:tb-rl;direction:ltr;baseline-shift:baseline;text-anchor:start;white-space:normal;clip-rule:nonzero;display:inline;overflow:visible;visibility:visible;opacity:1;isolation:auto;mix-blend-mode:normal;color-interpolation:sRGB;color-interpolation-filters:linearRGB;solid-color:#000000;solid-opacity:1;fill:#000000;fill-opacity:1;fill-rule:nonzero;stroke:none;stroke-width:1px;stroke-linecap:butt;stroke-linejoin:miter;stroke-miterlimit:4;stroke-dasharray:none;stroke-dashoffset:0;stroke-opacity:1;color-rendering:auto;image-rendering:auto;shape-rendering:auto;text-rendering:auto;enable-background:accumulate"
       id="flowRoot3393"
       xml:space="preserve"><flowRegion
         id="flowRegion3395"><rect
           y="423.18491"
           x="-445.95883"
           height="109.22978"
           width="357.82172"
           id="rect3397" /></flowRegion><flowPara
         id="flowPara3399" /></flowRoot>    <flowRoot
       style="color:#000000;font-style:normal;font-variant:normal;font-weight:normal;font-stretch:normal;font-size:15px;line-height:110.00000238%;font-family:Cantarell;-inkscape-font-specification:Cantarell;text-indent:0;text-align:start;text-decoration:none;text-decoration-line:none;text-decoration-style:solid;text-decoration-color:#000000;letter-spacing:0px;word-spacing:0px;text-transform:none;writing-mode:tb-rl;direction:ltr;baseline-shift:baseline;text-anchor:start;white-space:normal;clip-rule:nonzero;display:inline;overflow:visible;visibility:visible;opacity:1;isolation:auto;mix-blend-mode:normal;color-interpolation:sRGB;color-interpolation-filters:linearRGB;solid-color:#000000;solid-opacity:1;fill:#000000;fill-opacity:1;fill-rule:nonzero;stroke:none;stroke-width:1px;stroke-linecap:butt;stroke-linejoin:miter;stroke-miterlimit:4;stroke-dasharray:none;stroke-dashoffset:0;stroke-opacity:1;color-rendering:auto;image-rendering:auto;shape-rendering:auto;text-rendering:auto;enable-background:accumulate"
       id="flowRoot3417"
       xml:space="preserve"><flowRegion
         id="flowRegion3419"><rect
           y="669.51691"
           x="45.951839"
           height="31.638971"
           width="425.61951"
           id="rect3421" /></flowRegion><flowPara
         id="flowPara3423" /></flowRoot>    <flowRoot
       transform="matrix(0.35736176,0,0,0.35736176,205.92179,349.60212)"
       style="color:#000000;font-style:normal;font-variant:normal;font-weight:normal;font-stretch:normal;line-height:0.01%;font-family:Comili;-inkscape-font-specification:Comili;text-indent:0;text-align:start;text-decoration:none;text-decoration-line:none;text-decoration-style:solid;text-decoration-color:#000000;letter-spacing:0px;word-spacing:0px;text-transform:none;writing-mode:lr-tb;direction:ltr;baseline-shift:baseline;text-anchor:start;white-space:normal;clip-rule:nonzero;display:inline;overflow:visible;visibility:visible;opacity:1;isolation:auto;mix-blend-mode:normal;color-interpolation:sRGB;color-interpolation-filters:linearRGB;solid-color:#000000;solid-opacity:1;fill:#000000;fill-opacity:1;fill-rule:nonzero;stroke:#000000;stroke-width:0.45822582;stroke-linecap:butt;stroke-linejoin:miter;stroke-miterlimit:4;stroke-dasharray:none;stroke-dashoffset:0;stroke-opacity:1;color-rendering:auto;image-rendering:auto;shape-rendering:auto;text-rendering:auto;enable-background:accumulate"
       id="flowRoot3425"
       xml:space="preserve"><flowRegion
         id="flowRegion3427"
         style="writing-mode:lr-tb"><rect
           style="font-style:normal;font-variant:normal;font-weight:normal;font-stretch:normal;font-size:16.25000191px;font-family:Comili;-inkscape-font-specification:Comili;writing-mode:lr-tb;fill:#000000;stroke:#000000;stroke-width:0.45822582;stroke-miterlimit:4;stroke-dasharray:none"
           y="670.2702"
           x="43.691914"
           height="59.810406"
           width="307.27515"
           id="rect3429" /></flowRegion><flowPara
         id="flowPara3420"
         style="font-style:normal;font-variant:normal;font-weight:normal;font-stretch:normal;font-size:16.25000191px;line-height:100%;font-family:Comili;-inkscape-font-specification:Comili;text-align:center;writing-mode:lr-tb;text-anchor:middle;fill:#000000;stroke:#000000;stroke-width:0.45822582;stroke-miterlimit:4;stroke-dasharray:none">IN MEMORY OF</flowPara><flowPara
         style="font-style:normal;font-variant:normal;font-weight:normal;font-stretch:normal;font-size:16.25000191px;line-height:100%;font-family:Comili;-inkscape-font-specification:Comili;text-align:center;writing-mode:lr-tb;text-anchor:middle;fill:#000000;stroke:#000000;stroke-width:0.45822582;stroke-miterlimit:4;stroke-dasharray:none"
         id="flowPara4576">FUKUSHIMA DAI SHI VICTIMS </flowPara></flowRoot>    <flowRoot
       style="color:#000000;clip-rule:nonzero;display:inline;overflow:visible;visibility:visible;opacity:1;isolation:auto;mix-blend-mode:normal;color-interpolation:sRGB;color-interpolation-filters:linearRGB;solid-color:#000000;solid-opacity:1;fill:#000000;fill-opacity:1;fill-rule:nonzero;stroke:none;stroke-width:0.99999988px;stroke-linecap:butt;stroke-linejoin:miter;stroke-miterlimit:4;stroke-dasharray:none;stroke-dashoffset:0;stroke-opacity:1;color-rendering:auto;image-rendering:auto;shape-rendering:auto;text-rendering:auto;enable-background:accumulate"
       id="flowRoot3435"
       xml:space="preserve"><flowRegion
         id="flowRegion3437"><rect
           y="300.39557"
           x="-470.81802"
           height="149.90846"
           width="213.1864"
           id="rect3439" /></flowRegion><flowPara
         id="flowPara3441" /></flowRoot>    <flowRoot
       style="color:#000000;clip-rule:nonzero;display:inline;overflow:visible;visibility:visible;opacity:1;isolation:auto;mix-blend-mode:normal;color-interpolation:sRGB;color-interpolation-filters:linearRGB;solid-color:#000000;solid-opacity:1;fill:#000000;fill-opacity:1;fill-rule:nonzero;stroke:none;stroke-width:0.99999988px;stroke-linecap:butt;stroke-linejoin:miter;stroke-miterlimit:4;stroke-dasharray:none;stroke-dashoffset:0;stroke-opacity:1;color-rendering:auto;image-rendering:auto;shape-rendering:auto;text-rendering:auto;enable-background:accumulate"
       id="flowRoot3443"
       xml:space="preserve"><flowRegion
         id="flowRegion3445"><rect
           y="211.50513"
           x="-497.93716"
           height="63.277943"
           width="195.10699"
           id="rect3447" /></flowRegion><flowPara
         id="flowPara3449" /></flowRoot>    <flowRoot
       style="color:#000000;clip-rule:nonzero;display:inline;overflow:visible;visibility:visible;opacity:1;isolation:auto;mix-blend-mode:normal;color-interpolation:sRGB;color-interpolation-filters:linearRGB;solid-color:#000000;solid-opacity:1;fill:#000000;fill-opacity:1;fill-rule:nonzero;stroke:none;stroke-width:0.99999988px;stroke-linecap:butt;stroke-linejoin:miter;stroke-miterlimit:4;stroke-dasharray:none;stroke-dashoffset:0;stroke-opacity:1;color-rendering:auto;image-rendering:auto;shape-rendering:auto;text-rendering:auto;enable-background:accumulate"
       id="flowRoot3451"
       xml:space="preserve"><flowRegion
         id="flowRegion3453"><rect
           y="424.69153"
           x="-418.83972"
           height="23.352575"
           width="99.436768"
           id="rect3455" /></flowRegion><flowPara
         id="flowPara3457" /></flowRoot>    <path
       sodipodi:nodetypes="sssss"
       inkscape:connector-curvature="0"
       id="path4217"
       d="m 138.59968,754.15412 c 8.81409,-7.61996 228.8778,-22.86287 268.49737,0.0136 14.82425,8.55955 14.74894,43.13794 2.27051,46.27581 -35.31717,8.88097 -270.17326,4.73188 -276.75901,1.08993 -12.00866,-6.64083 -7.50001,-35.71594 5.99113,-47.37929 z"
       style="opacity:0.5;fill:#000000;fill-opacity:1;stroke:none;stroke-width:0.17716534;stroke-linecap:round;stroke-linejoin:round;stroke-miterlimit:4;stroke-dasharray:none;stroke-dashoffset:0;stroke-opacity:1" />
  </g>
  <g
     inkscape:groupmode="layer"
     id="layer3"
     inkscape:label="text"
     transform="translate(0,-70.866142)">
    <flowRoot
       xml:space="preserve"
       id="flowRoot3408"
       style="color:#000000;font-style:normal;font-variant:normal;font-weight:normal;font-stretch:normal;font-size:16.25000191px;line-height:110.00000238%;font-family:Comili;-inkscape-font-specification:Comili;text-indent:0;text-align:start;text-decoration:none;text-decoration-line:none;text-decoration-style:solid;text-decoration-color:#000000;letter-spacing:0px;word-spacing:0px;text-transform:none;direction:ltr;block-progression:tb;writing-mode:tb-rl;baseline-shift:baseline;text-anchor:start;white-space:normal;clip-rule:nonzero;display:inline;overflow:visible;visibility:visible;opacity:1;isolation:auto;mix-blend-mode:normal;color-interpolation:sRGB;color-interpolation-filters:linearRGB;solid-color:#000000;solid-opacity:1;fill:#ffffff;fill-opacity:1;fill-rule:nonzero;stroke:none;stroke-width:1px;stroke-linecap:butt;stroke-linejoin:miter;stroke-miterlimit:4;stroke-dasharray:none;stroke-dashoffset:0;stroke-opacity:1;color-rendering:auto;image-rendering:auto;shape-rendering:auto;text-rendering:auto;enable-background:accumulate"
       transform="translate(70.426915,83.447491)"><flowRegion
         id="flowRegion3410"><rect
           id="rect3412"
           width="307.27515"
           height="59.810406"
           x="43.691914"
           y="670.2702"
           style="font-style:normal;font-variant:normal;font-weight:normal;font-stretch:normal;font-size:16.25000191px;font-family:Comili;-inkscape-font-specification:Comili;fill:#ffffff" /></flowRegion><flowPara
         id="flowPara3414"
         style="font-style:normal;font-variant:normal;font-weight:normal;font-stretch:normal;font-size:16.25000191px;line-height:100%;font-family:Comili;-inkscape-font-specification:Comili;text-align:center;text-anchor:middle;fill:#ffffff">Fukushima, le 11 mars 2057</flowPara><flowPara
         id="flowPara3416"
         style="font-style:normal;font-variant:normal;font-weight:normal;font-stretch:normal;font-size:16.25000191px;line-height:100%;font-family:Comili;-inkscape-font-specification:Comili;text-align:center;text-anchor:middle;fill:#ffffff">Cérémonie qui marque la fin du démantèlement de la centrale nucléaire</flowPara></flowRoot>    <text
       xml:space="preserve"
       style="color:#000000;font-style:normal;font-variant:normal;font-weight:normal;font-stretch:normal;font-size:15.234375px;line-height:18.75px;font-family:Comili;-inkscape-font-specification:Comili;text-indent:0;text-align:center;text-decoration:none;text-decoration-line:none;text-decoration-style:solid;text-decoration-color:#000000;letter-spacing:0px;word-spacing:0px;text-transform:none;writing-mode:lr-tb;direction:ltr;baseline-shift:baseline;text-anchor:middle;white-space:normal;clip-rule:nonzero;display:inline;overflow:visible;visibility:visible;opacity:1;isolation:auto;mix-blend-mode:normal;color-interpolation:sRGB;color-interpolation-filters:linearRGB;solid-color:#000000;solid-opacity:1;fill:#ffffff;fill-opacity:1;fill-rule:nonzero;stroke:none;stroke-width:0.93749934px;stroke-linecap:butt;stroke-linejoin:miter;stroke-miterlimit:4;stroke-dasharray:none;stroke-dashoffset:0;stroke-opacity:1;color-rendering:auto;image-rendering:auto;shape-rendering:auto;text-rendering:auto;enable-background:accumulate"
       x="216.52332"
       y="755.68048"
       id="text4735"><tspan
         sodipodi:role="line"
         x="216.52332"
         y="767.34064"
         style="fill:#ffffff;stroke-width:0.93749934px"
         id="tspan4737" /></text>
    <flowRoot
       xml:space="preserve"
       id="flowRoot4741"
       style="color:#000000;font-style:normal;font-variant:normal;font-weight:normal;font-stretch:normal;font-size:17.33333397px;line-height:1em;font-family:Comili;-inkscape-font-specification:Comili;text-indent:0;text-align:center;text-decoration:none;text-decoration-line:none;text-decoration-style:solid;text-decoration-color:#000000;letter-spacing:0px;word-spacing:0px;text-transform:none;writing-mode:lr-tb;direction:ltr;baseline-shift:baseline;text-anchor:middle;white-space:normal;clip-rule:nonzero;display:inline;overflow:visible;visibility:visible;opacity:1;isolation:auto;mix-blend-mode:normal;color-interpolation:sRGB;color-interpolation-filters:linearRGB;solid-color:#000000;solid-opacity:1;fill:#ffffff;fill-opacity:1;fill-rule:nonzero;stroke:none;stroke-width:0.99999928px;stroke-linecap:butt;stroke-linejoin:miter;stroke-miterlimit:4;stroke-dasharray:none;stroke-dashoffset:0;stroke-opacity:1;color-rendering:auto;image-rendering:auto;shape-rendering:auto;text-rendering:auto;enable-background:accumulate"
       transform="matrix(0.93750001,0,0,0.93750001,-2.5161327,72.741142)"><flowRegion
         id="flowRegion4743"
         style="font-size:17.33333397px;line-height:1em;fill:#ffffff"><rect
           id="rect4745"
           width="300.63495"
           height="62.836094"
           x="141.7787"
           y="723.46783"
           style="font-size:17.33333397px;line-height:1em;fill:#ffffff" /></flowRegion><flowPara
         id="flowPara4749">Fukushima, March 11, 2057</flowPara><flowPara
         id="flowPara4572">Ceremony for celebrating the end of the nuclear power plant decommissioning</flowPara></flowRoot>  </g>
  <g
     id="printing-marks"
     inkscape:label="printing marks"
     inkscape:groupmode="layer"
     sodipodi:insensitive="true">
    <g
       id="CropMarks"
       inkscape:label="CropMarks">
      <path
         d="M 0,-7.0866141732 L 0,-42.5196850392"
         id="cropTL1"
         style="stroke:#000000;stroke-width:0.25;fill:none" />
      <path
         d="M -7.0866141732,0 L -42.5196850392,0"
         id="cropTL2"
         style="stroke:#000000;stroke-width:0.25;fill:none" />
      <path
         d="M 524.409448817,-7.0866141732 L 524.409448817,-42.5196850392"
         id="cropTR1"
         style="stroke:#000000;stroke-width:0.25;fill:none" />
      <path
         d="M 531.49606299,0 L 566.929133856,0"
         id="cropTR2"
         style="stroke:#000000;stroke-width:0.25;fill:none" />
      <path
         d="M 0,751.181102359 L 0,786.614173225"
         id="cropBL1"
         style="stroke:#000000;stroke-width:0.25;fill:none" />
      <path
         d="M -7.0866141732,744.094488186 L -42.5196850392,744.094488186"
         id="cropBL2"
         style="stroke:#000000;stroke-width:0.25;fill:none" />
      <path
         d="M 524.409448817,751.181102359 L 524.409448817,786.614173225"
         id="cropBR1"
         style="stroke:#000000;stroke-width:0.25;fill:none" />
      <path
         d="M 531.49606299,744.094488186 L 566.929133856,744.094488186"
         id="cropBR2"
         style="stroke:#000000;stroke-width:0.25;fill:none" />
    </g>
    <g
       id="RegistrationMarks"
       inkscape:label="RegistrationMarks">
      <g
         id="regMarkL">
        <path
           d="m -0.0,17.716535433 -3.5433070866,0 17.716535433,-17.716535433 -17.716535433,-17.716535433 3.5433070866,0 17.716535433,17.716535433 -17.716535433,17.716535433 z"
           style="stroke:none;fill-opacity:1;fill:#000000"
           transform="translate(-35.433070866,318.897637794) rotate(0)"
           id="path3448" />
        <path
           d="m -3.5433070866,17.716535433 -3.5433070866,0 17.716535433,-17.716535433 -17.716535433,-17.716535433 3.5433070866,0 17.716535433,17.716535433 -17.716535433,17.716535433 z"
           style="stroke:none;fill-opacity:1;fill:#00ffff"
           transform="translate(-35.433070866,318.897637794) rotate(0)"
           id="path3450" />
        <path
           d="m -7.0866141732,17.716535433 -3.5433070866,0 17.716535433,-17.716535433 -17.716535433,-17.716535433 3.5433070866,0 17.716535433,17.716535433 -17.716535433,17.716535433 z"
           style="stroke:none;fill-opacity:1;fill:#ff00ff"
           transform="translate(-35.433070866,318.897637794) rotate(0)"
           id="path3452" />
        <path
           d="m -10.6299212598,17.716535433 -3.5433070866,0 17.716535433,-17.716535433 -17.716535433,-17.716535433 3.5433070866,0 17.716535433,17.716535433 -17.716535433,17.716535433 z"
           style="stroke:none;fill-opacity:1;fill:#ffff00"
           transform="translate(-35.433070866,318.897637794) rotate(0)"
           id="path3454" />
        <path
           d="m -14.1732283464,17.716535433 -3.5433070866,0 17.716535433,-17.716535433 -17.716535433,-17.716535433 3.5433070866,0 17.716535433,17.716535433 -17.716535433,17.716535433 z"
           style="stroke:none;fill-opacity:1;fill:#000000"
           transform="translate(-35.433070866,318.897637794) rotate(0)"
           id="path3456" />
      </g>
      <g
         id="regMarkR">
        <path
           d="m -0.0,17.716535433 -3.5433070866,0 17.716535433,-17.716535433 -17.716535433,-17.716535433 3.5433070866,0 17.716535433,17.716535433 -17.716535433,17.716535433 z"
           style="stroke:none;fill-opacity:1;fill:#000000"
           transform="translate(559.842519683,318.897637794) rotate(180)"
           id="path3459" />
        <path
           d="m -3.5433070866,17.716535433 -3.5433070866,0 17.716535433,-17.716535433 -17.716535433,-17.716535433 3.5433070866,0 17.716535433,17.716535433 -17.716535433,17.716535433 z"
           style="stroke:none;fill-opacity:1;fill:#00ffff"
           transform="translate(559.842519683,318.897637794) rotate(180)"
           id="path3461" />
        <path
           d="m -7.0866141732,17.716535433 -3.5433070866,0 17.716535433,-17.716535433 -17.716535433,-17.716535433 3.5433070866,0 17.716535433,17.716535433 -17.716535433,17.716535433 z"
           style="stroke:none;fill-opacity:1;fill:#ff00ff"
           transform="translate(559.842519683,318.897637794) rotate(180)"
           id="path3463" />
        <path
           d="m -10.6299212598,17.716535433 -3.5433070866,0 17.716535433,-17.716535433 -17.716535433,-17.716535433 3.5433070866,0 17.716535433,17.716535433 -17.716535433,17.716535433 z"
           style="stroke:none;fill-opacity:1;fill:#ffff00"
           transform="translate(559.842519683,318.897637794) rotate(180)"
           id="path3465" />
        <path
           d="m -14.1732283464,17.716535433 -3.5433070866,0 17.716535433,-17.716535433 -17.716535433,-17.716535433 3.5433070866,0 17.716535433,17.716535433 -17.716535433,17.716535433 z"
           style="stroke:none;fill-opacity:1;fill:#000000"
           transform="translate(559.842519683,318.897637794) rotate(180)"
           id="path3467" />
      </g>
      <g
         id="regMarkT">
        <path
           d="m -0.0,17.716535433 -3.5433070866,0 17.716535433,-17.716535433 -17.716535433,-17.716535433 3.5433070866,0 17.716535433,17.716535433 -17.716535433,17.716535433 z"
           style="stroke:none;fill-opacity:1;fill:#000000"
           transform="translate(262.204724408,-35.433070866) rotate(90)"
           id="path3470" />
        <path
           d="m -3.5433070866,17.716535433 -3.5433070866,0 17.716535433,-17.716535433 -17.716535433,-17.716535433 3.5433070866,0 17.716535433,17.716535433 -17.716535433,17.716535433 z"
           style="stroke:none;fill-opacity:1;fill:#00ffff"
           transform="translate(262.204724408,-35.433070866) rotate(90)"
           id="path3472" />
        <path
           d="m -7.0866141732,17.716535433 -3.5433070866,0 17.716535433,-17.716535433 -17.716535433,-17.716535433 3.5433070866,0 17.716535433,17.716535433 -17.716535433,17.716535433 z"
           style="stroke:none;fill-opacity:1;fill:#ff00ff"
           transform="translate(262.204724408,-35.433070866) rotate(90)"
           id="path3474" />
        <path
           d="m -10.6299212598,17.716535433 -3.5433070866,0 17.716535433,-17.716535433 -17.716535433,-17.716535433 3.5433070866,0 17.716535433,17.716535433 -17.716535433,17.716535433 z"
           style="stroke:none;fill-opacity:1;fill:#ffff00"
           transform="translate(262.204724408,-35.433070866) rotate(90)"
           id="path3476" />
        <path
           d="m -14.1732283464,17.716535433 -3.5433070866,0 17.716535433,-17.716535433 -17.716535433,-17.716535433 3.5433070866,0 17.716535433,17.716535433 -17.716535433,17.716535433 z"
           style="stroke:none;fill-opacity:1;fill:#000000"
           transform="translate(262.204724408,-35.433070866) rotate(90)"
           id="path3478" />
      </g>
      <g
         id="regMarkB">
        <path
           d="m -0.0,17.716535433 -3.5433070866,0 17.716535433,-17.716535433 -17.716535433,-17.716535433 3.5433070866,0 17.716535433,17.716535433 -17.716535433,17.716535433 z"
           style="stroke:none;fill-opacity:1;fill:#000000"
           transform="translate(262.204724408,779.527559052) rotate(-90)"
           id="path3481" />
        <path
           d="m -3.5433070866,17.716535433 -3.5433070866,0 17.716535433,-17.716535433 -17.716535433,-17.716535433 3.5433070866,0 17.716535433,17.716535433 -17.716535433,17.716535433 z"
           style="stroke:none;fill-opacity:1;fill:#00ffff"
           transform="translate(262.204724408,779.527559052) rotate(-90)"
           id="path3483" />
        <path
           d="m -7.0866141732,17.716535433 -3.5433070866,0 17.716535433,-17.716535433 -17.716535433,-17.716535433 3.5433070866,0 17.716535433,17.716535433 -17.716535433,17.716535433 z"
           style="stroke:none;fill-opacity:1;fill:#ff00ff"
           transform="translate(262.204724408,779.527559052) rotate(-90)"
           id="path3485" />
        <path
           d="m -10.6299212598,17.716535433 -3.5433070866,0 17.716535433,-17.716535433 -17.716535433,-17.716535433 3.5433070866,0 17.716535433,17.716535433 -17.716535433,17.716535433 z"
           style="stroke:none;fill-opacity:1;fill:#ffff00"
           transform="translate(262.204724408,779.527559052) rotate(-90)"
           id="path3487" />
        <path
           d="m -14.1732283464,17.716535433 -3.5433070866,0 17.716535433,-17.716535433 -17.716535433,-17.716535433 3.5433070866,0 17.716535433,17.716535433 -17.716535433,17.716535433 z"
           style="stroke:none;fill-opacity:1;fill:#000000"
           transform="translate(262.204724408,779.527559052) rotate(-90)"
           id="path3489" />
      </g>
    </g>
  </g>
</svg>
