<?xml version="1.0" encoding="UTF-8" standalone="no"?>
<!-- Created with Inkscape (http://www.inkscape.org/) -->

<svg
   xmlns:dc="http://purl.org/dc/elements/1.1/"
   xmlns:cc="http://creativecommons.org/ns#"
   xmlns:rdf="http://www.w3.org/1999/02/22-rdf-syntax-ns#"
   xmlns:svg="http://www.w3.org/2000/svg"
   xmlns="http://www.w3.org/2000/svg"
   xmlns:xlink="http://www.w3.org/1999/xlink"
   xmlns:sodipodi="http://sodipodi.sourceforge.net/DTD/sodipodi-0.dtd"
   xmlns:inkscape="http://www.inkscape.org/namespaces/inkscape"
   width="148mm"
   height="210mm"
   viewBox="0 0 524.40946 744.09448"
   id="svg2"
   version="1.1"
   inkscape:version="0.92.0 r"
   sodipodi:docname="13.svg">
  <sodipodi:namedview
     id="base"
     pagecolor="#ffffff"
     bordercolor="#666666"
     borderopacity="1.0"
     inkscape:pageopacity="1"
     inkscape:pageshadow="2"
     inkscape:zoom="0.73745248"
     inkscape:cx="324.36199"
     inkscape:cy="311.83975"
     inkscape:document-units="mm"
     inkscape:current-layer="layer1"
     showgrid="false"
     units="mm"
     inkscape:window-width="1920"
     inkscape:window-height="1004"
     inkscape:window-x="0"
     inkscape:window-y="34"
     inkscape:window-maximized="1"
     showguides="true"
     inkscape:guide-bbox="true"
     inkscape:snap-bbox="true"
     inkscape:bbox-paths="true"
     inkscape:bbox-nodes="true"
     borderlayer="true"
     inkscape:snap-global="false"
     inkscape:snap-bbox-midpoints="false"
     inkscape:snap-bbox-edge-midpoints="true">
    <sodipodi:guide
       inkscape:color="rgb(0,0,255)"
       inkscape:label=""
       id="guide7382"
       orientation="1,0"
       position="-7.0866147,0"
       inkscape:locked="false" />
    <sodipodi:guide
       inkscape:color="rgb(0,0,255)"
       inkscape:label=""
       id="guide7384"
       orientation="1,0"
       position="531.4961,0"
       inkscape:locked="false" />
    <sodipodi:guide
       inkscape:color="rgb(0,0,255)"
       inkscape:label=""
       id="guide7386"
       orientation="0,1"
       position="0,-7.0866142"
       inkscape:locked="false" />
    <sodipodi:guide
       inkscape:color="rgb(0,0,255)"
       inkscape:label=""
       id="guide7388"
       orientation="0,1"
       position="0,751.1811"
       inkscape:locked="false" />
    <sodipodi:guide
       inkscape:color="rgb(0,0,255)"
       inkscape:label=""
       id="guide7390"
       orientation="1,0"
       position="35.433073,0"
       inkscape:locked="false" />
    <sodipodi:guide
       inkscape:color="rgb(0,0,255)"
       inkscape:label=""
       id="guide7392"
       orientation="0,1"
       position="0,708.66142"
       inkscape:locked="false" />
    <sodipodi:guide
       inkscape:color="rgb(0,0,255)"
       inkscape:label=""
       id="guide7394"
       orientation="1,0"
       position="488.97641,0"
       inkscape:locked="false" />
    <sodipodi:guide
       inkscape:color="rgb(0,0,255)"
       inkscape:label=""
       id="guide7396"
       orientation="0,1"
       position="0,35.433071"
       inkscape:locked="false" />
  </sodipodi:namedview>
  <defs
     id="defs4">
    <clipPath
       clipPathUnits="userSpaceOnUse"
       id="clipPath4363">
      <rect
         style="opacity:1;fill:#191919;fill-opacity:0.8;stroke:none;stroke-width:7.08661413;stroke-linecap:round;stroke-linejoin:round;stroke-miterlimit:10;stroke-dasharray:none;stroke-dashoffset:0;stroke-opacity:1"
         id="rect4365"
         width="217.33749"
         height="185.95108"
         x="-259.85718"
         y="658.55035" />
    </clipPath>
    <clipPath
       clipPathUnits="userSpaceOnUse"
       id="clipPath4392">
      <path
         style="opacity:1;fill:#191919;fill-opacity:0.8;stroke:none;stroke-width:7.08661413;stroke-linecap:round;stroke-linejoin:round;stroke-miterlimit:10;stroke-dasharray:none;stroke-dashoffset:0;stroke-opacity:1"
         d="m 92.962987,512.15196 c -0.731992,-2.92797 57.095373,-5.85594 57.095373,-5.85594 l 71.73522,-75.39518 c 0,0 71.73522,68.07526 88.57104,67.34327 16.83581,-0.73199 32.20765,-62.95132 32.20765,-62.95132 l 146.40411,-15.37183 c 0,0 0.72628,325.00446 -18.30551,318.41653 -19.03179,-6.58793 -75.39518,-40.99155 -81.25111,-40.99155 -5.85594,0 -196.17387,-5.12395 -196.17387,-5.12395 0,0 -94.426967,4.39196 -96.622943,1.46399 -2.195976,-2.92797 -5.123944,-46.1155 -5.123944,-46.1155 z"
         id="path4394"
         inkscape:connector-curvature="0" />
    </clipPath>
    <clipPath
       clipPathUnits="userSpaceOnUse"
       id="clipPath4187">
      <path
         d="M 0,792 612,792 612,0 0,0 0,792 Z"
         id="path4189"
         inkscape:connector-curvature="0" />
    </clipPath>
    <clipPath
       clipPathUnits="userSpaceOnUse"
       id="clipPath4203">
      <path
         d="M 0,0 612,0 612,792 0,792 0,0 Z"
         id="path4205"
         inkscape:connector-curvature="0" />
    </clipPath>
    <clipPath
       clipPathUnits="userSpaceOnUse"
       id="clipPath4257">
      <path
         d="m 113.527,130.8 348.946,0 0,589.2 -348.946,0 0,-589.2 z"
         id="path4259"
         inkscape:connector-curvature="0" />
    </clipPath>
    <clipPath
       clipPathUnits="userSpaceOnUse"
       id="clipPath4531">
      <path
         d="m 113.527,130.8 348.946,0 0,589.2 -348.946,0 0,-589.2 z"
         id="path4533"
         inkscape:connector-curvature="0" />
    </clipPath>
    <clipPath
       clipPathUnits="userSpaceOnUse"
       id="clipPath4583">
      <path
         d="m 113.527,130.8 348.946,0 0,589.2 -348.946,0 0,-589.2 z"
         id="path4585"
         inkscape:connector-curvature="0" />
    </clipPath>
    <clipPath
       clipPathUnits="userSpaceOnUse"
       id="clipPath4599">
      <path
         d="m 113.527,130.8 348.946,0 0,589.2 -348.946,0 0,-589.2 z"
         id="path4601"
         inkscape:connector-curvature="0" />
    </clipPath>
    <clipPath
       clipPathUnits="userSpaceOnUse"
       id="clipPath4615">
      <path
         d="m 113.527,130.8 348.946,0 0,589.2 -348.946,0 0,-589.2 z"
         id="path4617"
         inkscape:connector-curvature="0" />
    </clipPath>
    <clipPath
       clipPathUnits="userSpaceOnUse"
       id="clipPath4631">
      <path
         d="m 113.527,130.8 348.946,0 0,589.2 -348.946,0 0,-589.2 z"
         id="path4633"
         inkscape:connector-curvature="0" />
    </clipPath>
    <clipPath
       clipPathUnits="userSpaceOnUse"
       id="clipPath4647">
      <path
         d="m 113.527,130.8 348.946,0 0,589.2 -348.946,0 0,-589.2 z"
         id="path4649"
         inkscape:connector-curvature="0" />
    </clipPath>
    <clipPath
       clipPathUnits="userSpaceOnUse"
       id="clipPath4663">
      <path
         d="m 113.527,130.8 348.946,0 0,589.2 -348.946,0 0,-589.2 z"
         id="path4665"
         inkscape:connector-curvature="0" />
    </clipPath>
    <clipPath
       clipPathUnits="userSpaceOnUse"
       id="clipPath4679">
      <path
         d="m 113.527,130.8 348.946,0 0,589.2 -348.946,0 0,-589.2 z"
         id="path4681"
         inkscape:connector-curvature="0" />
    </clipPath>
    <clipPath
       clipPathUnits="userSpaceOnUse"
       id="clipPath4695">
      <path
         d="m 113.527,130.8 348.946,0 0,589.2 -348.946,0 0,-589.2 z"
         id="path4697"
         inkscape:connector-curvature="0" />
    </clipPath>
    <clipPath
       clipPathUnits="userSpaceOnUse"
       id="clipPath4711">
      <path
         d="m 113.527,130.8 348.946,0 0,589.2 -348.946,0 0,-589.2 z"
         id="path4713"
         inkscape:connector-curvature="0" />
    </clipPath>
    <clipPath
       clipPathUnits="userSpaceOnUse"
       id="clipPath4727">
      <path
         d="m 113.527,130.8 348.946,0 0,589.2 -348.946,0 0,-589.2 z"
         id="path4729"
         inkscape:connector-curvature="0" />
    </clipPath>
    <clipPath
       clipPathUnits="userSpaceOnUse"
       id="clipPath4743">
      <path
         d="m 113.527,130.8 348.946,0 0,589.2 -348.946,0 0,-589.2 z"
         id="path4745"
         inkscape:connector-curvature="0" />
    </clipPath>
    <clipPath
       clipPathUnits="userSpaceOnUse"
       id="clipPath4759">
      <path
         d="m 113.527,130.8 348.946,0 0,589.2 -348.946,0 0,-589.2 z"
         id="path4761"
         inkscape:connector-curvature="0" />
    </clipPath>
    <clipPath
       clipPathUnits="userSpaceOnUse"
       id="clipPath4775">
      <path
         d="m 113.527,130.8 348.946,0 0,589.2 -348.946,0 0,-589.2 z"
         id="path4777"
         inkscape:connector-curvature="0" />
    </clipPath>
    <clipPath
       clipPathUnits="userSpaceOnUse"
       id="clipPath4791">
      <path
         d="m 113.527,130.8 348.946,0 0,589.2 -348.946,0 0,-589.2 z"
         id="path4793"
         inkscape:connector-curvature="0" />
    </clipPath>
    <clipPath
       clipPathUnits="userSpaceOnUse"
       id="clipPath4807">
      <path
         d="m 113.527,130.8 348.946,0 0,589.2 -348.946,0 0,-589.2 z"
         id="path4809"
         inkscape:connector-curvature="0" />
    </clipPath>
    <clipPath
       clipPathUnits="userSpaceOnUse"
       id="clipPath4823">
      <path
         d="m 113.527,130.8 348.946,0 0,589.2 -348.946,0 0,-589.2 z"
         id="path4825"
         inkscape:connector-curvature="0" />
    </clipPath>
    <clipPath
       clipPathUnits="userSpaceOnUse"
       id="clipPath4839">
      <path
         d="m 113.527,130.8 348.946,0 0,589.2 -348.946,0 0,-589.2 z"
         id="path4841"
         inkscape:connector-curvature="0" />
    </clipPath>
    <clipPath
       clipPathUnits="userSpaceOnUse"
       id="clipPath4855">
      <path
         d="m 113.527,130.8 348.946,0 0,589.2 -348.946,0 0,-589.2 z"
         id="path4857"
         inkscape:connector-curvature="0" />
    </clipPath>
    <clipPath
       clipPathUnits="userSpaceOnUse"
       id="clipPath4871">
      <path
         d="m 113.527,130.8 348.946,0 0,589.2 -348.946,0 0,-589.2 z"
         id="path4873"
         inkscape:connector-curvature="0" />
    </clipPath>
    <clipPath
       clipPathUnits="userSpaceOnUse"
       id="clipPath15043">
      <path
         d="M 0,792 612,792 612,0 0,0 0,792 Z"
         id="path15045"
         inkscape:connector-curvature="0" />
    </clipPath>
    <clipPath
       clipPathUnits="userSpaceOnUse"
       id="clipPath15059">
      <path
         d="M 0,0 612,0 612,792 0,792 0,0 Z"
         id="path15061"
         inkscape:connector-curvature="0" />
    </clipPath>
    <clipPath
       clipPathUnits="userSpaceOnUse"
       id="clipPath15209">
      <path
         d="m 142.6,203 354.001,0 0,522 -354.001,0 0,-522 z"
         id="path15211"
         inkscape:connector-curvature="0" />
    </clipPath>
    <clipPath
       clipPathUnits="userSpaceOnUse"
       id="clipPath15385">
      <path
         d="m 142.6,203 354.001,0 0,522 -354.001,0 0,-522 z"
         id="path15387"
         inkscape:connector-curvature="0" />
    </clipPath>
    <clipPath
       clipPathUnits="userSpaceOnUse"
       id="clipPath15413">
      <path
         d="m 142.6,203 354.001,0 0,522 -354.001,0 0,-522 z"
         id="path15415"
         inkscape:connector-curvature="0" />
    </clipPath>
    <clipPath
       clipPathUnits="userSpaceOnUse"
       id="clipPath15437">
      <path
         d="m 151.8,218.238 335.277,0 0,500.762 -335.277,0 0,-500.762 z"
         id="path15439"
         inkscape:connector-curvature="0" />
    </clipPath>
    <clipPath
       clipPathUnits="userSpaceOnUse"
       id="clipPath15499">
      <path
         d="m 142.6,203 354.001,0 0,522 -354.001,0 0,-522 z"
         id="path15501"
         inkscape:connector-curvature="0" />
    </clipPath>
    <clipPath
       clipPathUnits="userSpaceOnUse"
       id="clipPath15607">
      <path
         d="m 142.6,203 354.001,0 0,522 -354.001,0 0,-522 z"
         id="path15609"
         inkscape:connector-curvature="0" />
    </clipPath>
    <clipPath
       clipPathUnits="userSpaceOnUse"
       id="clipPath15833">
      <path
         d="m 142.6,203 354.001,0 0,522 -354.001,0 0,-522 z"
         id="path15835"
         inkscape:connector-curvature="0" />
    </clipPath>
    <clipPath
       clipPathUnits="userSpaceOnUse"
       id="clipPath15873">
      <path
         d="m 189.312,242.966 233.452,0 0,116.725 -233.452,0 0,-116.725 z"
         id="path15875"
         inkscape:connector-curvature="0" />
    </clipPath>
    <clipPath
       clipPathUnits="userSpaceOnUse"
       id="clipPath15885">
      <path
         d="m 142.6,203 354.001,0 0,522 -354.001,0 0,-522 z"
         id="path15887"
         inkscape:connector-curvature="0" />
    </clipPath>
    <clipPath
       clipPathUnits="userSpaceOnUse"
       id="clipPath15967">
      <path
         d="m 142.6,203 354.001,0 0,522 -354.001,0 0,-522 z"
         id="path15969"
         inkscape:connector-curvature="0" />
    </clipPath>
    <clipPath
       clipPathUnits="userSpaceOnUse"
       id="clipPath4648">
      <path
         style="opacity:0.5;fill:#c0c0c0;fill-opacity:1;stroke:none;stroke-width:0.53149605;stroke-linecap:round;stroke-linejoin:round;stroke-miterlimit:4;stroke-dasharray:1.59448814, 1.59448814;stroke-dashoffset:0;stroke-opacity:1"
         d="m 11.114238,392.17636 51.681204,-49.45836 53.348338,-10.55853 23.89561,17.78278 3.88999,58.90546 26.67417,20.56134 13.89279,72.24255 -9.4471,17.22706 32.23129,21.11706 0,10.55852 -31.67558,1.66714 -42.2341,28.3413 -130.0365787,0 -2.2228475,-175.04924 z"
         id="path4650"
         inkscape:connector-curvature="0" />
    </clipPath>
    <clipPath
       clipPathUnits="userSpaceOnUse"
       id="clipPath4659">
      <path
         inkscape:connector-curvature="0"
         id="path4661"
         d="m -234.19679,907.75734 11.78843,-102.95228 160.322636,-35.36529 4.078046,221.28279 -122.748232,-0.44622 z"
         style="opacity:0.5;fill:#c0c0c0;fill-opacity:1;stroke:none;stroke-width:0.53149605;stroke-linecap:round;stroke-linejoin:round;stroke-miterlimit:4;stroke-dasharray:1.59448814, 1.59448814;stroke-dashoffset:0;stroke-opacity:1"
         sodipodi:nodetypes="cccccc" />
    </clipPath>
    <clipPath
       clipPathUnits="userSpaceOnUse"
       id="clipPath4450">
      <rect
         style="opacity:1;fill:none;fill-opacity:1;stroke:#000000;stroke-width:0.53149605;stroke-linecap:round;stroke-linejoin:round;stroke-miterlimit:4;stroke-dasharray:1.59448814, 1.59448814;stroke-dashoffset:0;stroke-opacity:1"
         id="rect4452"
         width="352.05161"
         height="219.32414"
         x="666.87476"
         y="368.4917" />
    </clipPath>
    <clipPath
       clipPathUnits="userSpaceOnUse"
       id="clipPath4471">
      <path
         style="opacity:1;fill:none;fill-opacity:1;stroke:#000000;stroke-width:0.53149605;stroke-linecap:round;stroke-linejoin:round;stroke-miterlimit:4;stroke-dasharray:1.59448814, 1.59448814;stroke-dashoffset:0;stroke-opacity:1"
         d="m 190.5664,596.26171 c 15.45133,-36.62538 29.75812,-85.26845 64.0944,-86.98527 34.33629,-1.71681 94.4248,12.0177 124.18291,21.17405 29.75812,9.15634 43.49264,24.60767 48.64308,-2.86136 5.15044,-27.46903 -4.0059,-45.20945 5.15044,-56.65488 9.15635,-11.44543 62.94986,-16.59586 64.0944,13.73452 1.14455,30.33039 -36.0531,242.07083 -63.52213,254.08853 -27.46903,12.0177 -90.41889,41.77582 -157.94692,39.48673 -67.52804,-2.28908 -90.4189,-105.87022 -84.69618,-181.98232 z"
         id="path4473"
         inkscape:connector-curvature="0"
         sodipodi:nodetypes="csssssssc" />
    </clipPath>
    <clipPath
       clipPathUnits="userSpaceOnUse"
       id="clipPath4490">
      <rect
         style="opacity:1;fill:none;fill-opacity:1;stroke:#000000;stroke-width:0.53149605;stroke-linecap:round;stroke-linejoin:round;stroke-miterlimit:4;stroke-dasharray:1.59448814, 1.59448814;stroke-dashoffset:0;stroke-opacity:1"
         id="rect4492"
         width="194.19943"
         height="91.45591"
         x="35.690769"
         y="599.99207" />
    </clipPath>
    <clipPath
       clipPathUnits="userSpaceOnUse"
       id="clipPath4496">
      <ellipse
         style="opacity:1;fill:none;fill-opacity:1;stroke:#000000;stroke-width:0.53149605;stroke-linecap:round;stroke-linejoin:round;stroke-miterlimit:4;stroke-dasharray:1.59448814, 1.59448814;stroke-dashoffset:0;stroke-opacity:1"
         id="ellipse4498"
         cx="-489.72131"
         cy="697.69684"
         rx="50.789093"
         ry="52.505909" />
    </clipPath>
    <clipPath
       clipPathUnits="userSpaceOnUse"
       id="clipPath4616">
      <rect
         style="opacity:1;fill:none;fill-opacity:1;stroke:#000000;stroke-width:0.53149605;stroke-linecap:round;stroke-linejoin:round;stroke-miterlimit:4;stroke-dasharray:1.59448814, 1.59448814;stroke-dashoffset:0;stroke-opacity:1"
         id="rect4618"
         width="28.687952"
         height="59.903057"
         x="-319.98599"
         y="727.52026" />
    </clipPath>
    <clipPath
       clipPathUnits="userSpaceOnUse"
       id="clipPath4657">
      <rect
         y="541.68488"
         x="636.93018"
         height="123.01574"
         width="550.44434"
         id="rect4659"
         style="opacity:1;fill:none;fill-opacity:1;stroke:#000000;stroke-width:0.53149605;stroke-linecap:round;stroke-linejoin:round;stroke-miterlimit:4;stroke-dasharray:1.59448816, 1.59448816;stroke-dashoffset:0;stroke-opacity:1" />
    </clipPath>
    <clipPath
       clipPathUnits="userSpaceOnUse"
       id="clipPath4669">
      <rect
         y="874.37225"
         x="583.80524"
         height="103.53692"
         width="471.68845"
         id="rect4671"
         style="opacity:1;fill:none;fill-opacity:1;stroke:#000000;stroke-width:0.53149605;stroke-linecap:round;stroke-linejoin:round;stroke-miterlimit:4;stroke-dasharray:1.59448813, 1.59448813;stroke-dashoffset:0;stroke-opacity:1" />
    </clipPath>
    <clipPath
       clipPathUnits="userSpaceOnUse"
       id="clipPath4674">
      <rect
         y="668.37964"
         x="595.65515"
         height="144.72769"
         width="621.55316"
         id="rect4676"
         style="opacity:1;fill:none;fill-opacity:1;stroke:#000000;stroke-width:0.53149605;stroke-linecap:round;stroke-linejoin:round;stroke-miterlimit:4;stroke-dasharray:1.59448812, 1.59448812;stroke-dashoffset:0;stroke-opacity:1" />
    </clipPath>
    <clipPath
       clipPathUnits="userSpaceOnUse"
       id="clipPath4748">
      <rect
         style="opacity:1;fill:none;fill-opacity:1;stroke:#000000;stroke-width:0.53149605;stroke-linecap:round;stroke-linejoin:round;stroke-miterlimit:4;stroke-dasharray:1.59448816, 1.59448816;stroke-dashoffset:0;stroke-opacity:1"
         id="rect4750"
         width="49.352051"
         height="64.050186"
         x="991.83478"
         y="874.37225"
         clip-path="none" />
    </clipPath>
    <clipPath
       clipPathUnits="userSpaceOnUse"
       id="clipPath4481">
      <rect
         style="opacity:1;fill:none;fill-opacity:1;stroke:#449dd5;stroke-width:0.53149605;stroke-linecap:round;stroke-linejoin:round;stroke-miterlimit:4;stroke-dasharray:none;stroke-dashoffset:0;stroke-opacity:1"
         id="rect4483"
         width="453.54337"
         height="136.2659"
         x="35.433071"
         y="606.47662" />
    </clipPath>
    <clipPath
       clipPathUnits="userSpaceOnUse"
       id="clipPath4485">
      <rect
         style="opacity:1;fill:none;fill-opacity:1;stroke:#449dd5;stroke-width:0.53149605;stroke-linecap:round;stroke-linejoin:round;stroke-miterlimit:4;stroke-dasharray:none;stroke-dashoffset:0;stroke-opacity:1"
         id="rect4487"
         width="453.54337"
         height="136.2659"
         x="35.433071"
         y="606.47662" />
    </clipPath>
    <clipPath
       clipPathUnits="userSpaceOnUse"
       id="clipPath4489">
      <rect
         style="opacity:1;fill:none;fill-opacity:1;stroke:#449dd5;stroke-width:0.53149605;stroke-linecap:round;stroke-linejoin:round;stroke-miterlimit:4;stroke-dasharray:none;stroke-dashoffset:0;stroke-opacity:1"
         id="rect4491"
         width="453.54337"
         height="136.2659"
         x="35.433071"
         y="606.47662" />
    </clipPath>
    <clipPath
       clipPathUnits="userSpaceOnUse"
       id="clipPath4601">
      <rect
         style="display:inline;opacity:1;fill:#ffffff;fill-opacity:1;stroke:none;stroke-width:0.53149605;stroke-linecap:round;stroke-linejoin:round;stroke-miterlimit:4;stroke-dasharray:none;stroke-dashoffset:0;stroke-opacity:1"
         id="rect4603"
         width="239.49985"
         height="167.62334"
         x="701.82446"
         y="255.7495" />
    </clipPath>
    <clipPath
       clipPathUnits="userSpaceOnUse"
       id="clipPath4605">
      <rect
         y="255.7495"
         x="701.82446"
         height="167.62334"
         width="239.49985"
         id="rect4607"
         style="display:inline;opacity:1;fill:#ffffff;fill-opacity:1;stroke:none;stroke-width:0.53149605;stroke-linecap:round;stroke-linejoin:round;stroke-miterlimit:4;stroke-dasharray:none;stroke-dashoffset:0;stroke-opacity:1" />
    </clipPath>
    <clipPath
       clipPathUnits="userSpaceOnUse"
       id="clipPath4609">
      <rect
         style="display:inline;opacity:1;fill:#ffffff;fill-opacity:1;stroke:none;stroke-width:0.53149605;stroke-linecap:round;stroke-linejoin:round;stroke-miterlimit:4;stroke-dasharray:none;stroke-dashoffset:0;stroke-opacity:1"
         id="rect4611"
         width="239.49985"
         height="167.62334"
         x="701.82446"
         y="255.7495" />
    </clipPath>
  </defs>
  <metadata
     id="metadata7">
    <rdf:RDF>
      <cc:Work
         rdf:about="">
        <dc:format>image/svg+xml</dc:format>
        <dc:type
           rdf:resource="http://purl.org/dc/dcmitype/StillImage" />
        <dc:title />
      </cc:Work>
    </rdf:RDF>
  </metadata>
  <g
     style="display:inline"
     inkscape:label="artwork"
     inkscape:groupmode="layer"
     id="layer1"
     transform="translate(0,-308.26761)">
    <image
       sodipodi:absref="/run/media/nylnook/0123-4567/BD/Mokatori/storyboard/layout/storyboard-ep1-fr/../c_034.jpg"
       xlink:href="../c_034.jpg"
       width="675.66241"
       height="675.66241"
       preserveAspectRatio="none"
       id="image4406"
       x="-74.403137"
       y="342.36218" />
    <rect
       y="280.60519"
       x="-89.836082"
       height="771.75684"
       width="125.26915"
       id="rect4471"
       style="display:inline;opacity:1;fill:#ffffff;fill-opacity:1;stroke:none;stroke-width:0.53149605;stroke-linecap:round;stroke-linejoin:round;stroke-miterlimit:4;stroke-dasharray:1.59448814, 1.59448814;stroke-dashoffset:0;stroke-opacity:1" />
    <rect
       y="280.60529"
       x="488.97644"
       height="771.75684"
       width="107.94154"
       id="rect4463"
       style="display:inline;opacity:1;fill:#ffffff;fill-opacity:1;stroke:none;stroke-width:0.53149605;stroke-linecap:round;stroke-linejoin:round;stroke-miterlimit:4;stroke-dasharray:1.59448814, 1.59448814;stroke-dashoffset:0;stroke-opacity:1" />
    <rect
       style="display:inline;opacity:1;fill:#ffffff;fill-opacity:1;stroke:none;stroke-width:0.53149605;stroke-linecap:round;stroke-linejoin:round;stroke-miterlimit:4;stroke-dasharray:1.59448814, 1.59448814;stroke-dashoffset:0;stroke-opacity:1"
       id="rect4469"
       width="724.68036"
       height="98.344757"
       x="-132.5155"
       y="245.3559" />
    <rect
       transform="translate(0,308.26761)"
       style="display:inline;opacity:1;fill:#ffffff;fill-opacity:1;stroke:none;stroke-width:0.53149605;stroke-linecap:round;stroke-linejoin:round;stroke-miterlimit:4;stroke-dasharray:1.59448814, 1.59448814;stroke-dashoffset:0;stroke-opacity:1"
       id="rect4341"
       width="94.45491"
       height="713.0827"
       x="488.97638"
       y="15.689327" />
    <rect
       y="1016.929"
       x="-88.343666"
       height="98.344757"
       width="724.68036"
       id="rect4465"
       style="display:inline;opacity:1;fill:#ffffff;fill-opacity:1;stroke:none;stroke-width:0.53149605;stroke-linecap:round;stroke-linejoin:round;stroke-miterlimit:4;stroke-dasharray:1.59448814, 1.59448814;stroke-dashoffset:0;stroke-opacity:1" />
  </g>
  <g
     sodipodi:insensitive="true"
     transform="translate(0,-70.866142)"
     inkscape:label="bubbles"
     id="layer2"
     inkscape:groupmode="layer"
     style="display:inline">
    <path
       sodipodi:nodetypes="sssss"
       inkscape:connector-curvature="0"
       id="path4392"
       d="m 107.41997,125.63676 c -12.379744,9.45327 -14.431251,31.68299 7.59484,37.33694 20.26491,5.20183 119.05726,4.44397 136.86951,-2.4466 12.33294,-4.77096 17.82522,-31.07394 2.1544,-34.15412 -56.27635,-11.0614 -135.07017,-9.55479 -146.61875,-0.73622 z"
       style="opacity:1;fill:#c0c0c0;fill-opacity:1;stroke:none;stroke-width:7.08661413;stroke-linecap:round;stroke-linejoin:round;stroke-miterlimit:10;stroke-dasharray:none;stroke-dashoffset:0;stroke-opacity:1" />
    <path
       sodipodi:nodetypes="sssss"
       inkscape:connector-curvature="0"
       id="path4413"
       d="m 241.32785,713.49365 c -14.73357,11.31953 -20.60352,37.65699 10.99344,41.57162 24.79268,3.07161 161.24396,3.45443 187.23982,-2.75288 17.95027,-4.28622 24.93142,-36.10209 2.94728,-38.42919 -77.65482,-8.22011 -196.72466,-3.81293 -201.18054,-0.38955 z"
       style="opacity:1;fill:#c0c0c0;fill-opacity:1;stroke:none;stroke-width:7.08661413;stroke-linecap:round;stroke-linejoin:round;stroke-miterlimit:10;stroke-dasharray:none;stroke-dashoffset:0;stroke-opacity:1" />
    <g
       id="g4441"
       transform="matrix(0.41822819,0,0,0.41861007,729.19628,223.51764)"
       style="stroke-width:1.7753098;stroke-miterlimit:4;stroke-dasharray:none">
      <path
         inkscape:connector-curvature="0"
         d="m -860.97578,608.55673 c -10e-6,11.84199 -19.19967,21.44181 -42.88364,21.44181 -23.68397,0 -42.88362,-9.59983 -42.88363,-21.44181 m 85.76727,40.50073 c 0,11.84199 -19.19966,21.44182 -42.88364,21.44182 -23.68398,0 -42.88363,-9.59983 -42.88363,-21.44182 m 85.76727,-73.04636 a 42.883636,21.441818 0 0 1 -42.88364,21.44182 42.883636,21.441818 0 0 1 -42.88363,-21.44182 42.883636,21.441818 0 0 1 42.88363,-21.44182 42.883636,21.441818 0 0 1 42.88364,21.44182 z m -85.76727,0.95723 c 0,0 -1.14872,107.78343 0,108.54921 0,11.84199 19.19965,21.44182 42.88363,21.44182 23.68398,0 42.88364,-9.59983 42.88364,-21.44182 V 577.73411"
         style="opacity:1;fill:none;fill-opacity:1;stroke:#000000;stroke-width:2.54049659;stroke-linecap:round;stroke-linejoin:round;stroke-miterlimit:4;stroke-dasharray:none;stroke-dashoffset:0;stroke-opacity:1"
         id="path4422" />
      <path
         sodipodi:nodetypes="ssscs"
         inkscape:connector-curvature="0"
         id="path4430"
         d="m -892.73443,671.62033 c 0,6.2851 -5.09507,11.38018 -11.38017,11.38018 -6.2851,0 -11.38018,-5.09508 -11.38018,-11.38018 0,-6.2851 8.34401,-18.41952 11.38018,-30.60299 2.49469,13.94331 11.38017,24.31789 11.38017,30.60299 z"
         style="opacity:1;fill:#000000;fill-opacity:1;stroke:none;stroke-width:1.7753098;stroke-linecap:round;stroke-linejoin:round;stroke-miterlimit:4;stroke-dasharray:none;stroke-dashoffset:0;stroke-opacity:1" />
      <ellipse
         ry="17.327604"
         rx="34.655209"
         cy="575.75842"
         cx="-904.11462"
         id="path4439"
         style="opacity:1;fill:#000000;fill-opacity:1;stroke:none;stroke-width:1.7753098;stroke-linecap:round;stroke-linejoin:round;stroke-miterlimit:4;stroke-dasharray:none;stroke-dashoffset:0;stroke-opacity:1" />
    </g>
    <path
       style="opacity:1;fill:#000000;fill-opacity:1;stroke:none;stroke-width:3.54330707;stroke-linecap:round;stroke-linejoin:round;stroke-miterlimit:4;stroke-dasharray:none;stroke-dashoffset:0;stroke-opacity:1"
       d="m 372.89539,492.06086 c 4.96419,-5.60985 12.7234,-14.62284 14.64502,-19.75184 -3.52297,0 -5.04495,1.42142 -5.04495,1.42142 0,0 7.93571,-7.46684 10.90696,-11.49027 0.81038,6.48904 -1.61107,17.79958 -1.61107,17.79958 0,0 0.0372,-4.79872 -1.08376,-6.72209 -2.7223,4.80844 -10.36022,14.87534 -17.8122,18.7432 z"
       id="path4446"
       inkscape:connector-curvature="0"
       sodipodi:nodetypes="ccccccc" />
  </g>
  <g
     transform="translate(0,-70.866142)"
     inkscape:label="text"
     id="layer3"
     inkscape:groupmode="layer"
     style="display:inline">
    <text
       id="text3477"
       y="138.59998"
       x="344.76828"
       style="stroke-linejoin:miter;baseline-shift:baseline;color-rendering:auto;text-decoration-color:#000000;color:#000000;letter-spacing:0px;shape-rendering:auto;word-spacing:0px;stroke:none;text-decoration-line:none;text-rendering:auto;stroke-width:0.99999964px;color-interpolation-filters:linearRGB;fill:#000000;solid-opacity:1;line-height:0%;fill-rule:nonzero;mix-blend-mode:normal;fill-opacity:1;font-style:normal;block-progression:tb;font-stretch:normal;stroke-miterlimit:4;font-variant:normal;font-weight:normal;opacity:1;direction:ltr;-inkscape-font-specification:'Comili, Normal';visibility:visible;text-indent:0;clip-rule:nonzero;image-rendering:auto;white-space:normal;overflow:visible;font-family:Comili;text-decoration-style:solid;text-align:center;solid-color:#000000;writing-mode:lr-tb;stroke-opacity:1;isolation:auto;stroke-dashoffset:0;text-anchor:middle;text-decoration:none;stroke-linecap:butt;stroke-dasharray:none;enable-background:accumulate;text-transform:none;display:inline;color-interpolation:sRGB"
       xml:space="preserve"><tspan
         style="font-size:16.25000191px;line-height:100%"
         y="138.59998"
         x="344.76828"
         id="tspan3479"
         sodipodi:role="line"> </tspan></text>
    <text
       xml:space="preserve"
       style="stroke-linejoin:miter;baseline-shift:baseline;color-rendering:auto;text-decoration-color:#000000;color:#000000;letter-spacing:0px;shape-rendering:auto;word-spacing:0px;stroke:none;text-decoration-line:none;text-rendering:auto;stroke-width:0.99999964px;color-interpolation-filters:linearRGB;fill:#000000;solid-opacity:1;line-height:0%;fill-rule:nonzero;mix-blend-mode:normal;fill-opacity:1;font-style:normal;block-progression:tb;font-stretch:normal;stroke-miterlimit:4;font-variant:normal;font-weight:normal;opacity:1;direction:ltr;-inkscape-font-specification:'Comili, Normal';visibility:visible;text-indent:0;clip-rule:nonzero;image-rendering:auto;white-space:normal;overflow:visible;font-family:Comili;text-decoration-style:solid;text-align:center;solid-color:#000000;writing-mode:lr-tb;stroke-opacity:1;isolation:auto;stroke-dashoffset:0;text-anchor:middle;text-decoration:none;stroke-linecap:butt;stroke-dasharray:none;enable-background:accumulate;text-transform:none;display:inline;color-interpolation:sRGB"
       x="376.14102"
       y="304.03015"
       id="text3485"><tspan
         style="font-size:16.25000191px;line-height:100%"
         sodipodi:role="line"
         id="tspan3487"
         x="376.14102"
         y="304.03015"> </tspan></text>
    <text
       id="text3481"
       y="386.01328"
       x="205.58685"
       style="stroke-linejoin:miter;baseline-shift:baseline;color-rendering:auto;text-decoration-color:#000000;color:#000000;letter-spacing:0px;shape-rendering:auto;word-spacing:0px;stroke:none;text-decoration-line:none;text-rendering:auto;stroke-width:0.99999964px;color-interpolation-filters:linearRGB;fill:#000000;solid-opacity:1;line-height:0%;fill-rule:nonzero;mix-blend-mode:normal;fill-opacity:1;font-style:normal;block-progression:tb;font-stretch:normal;stroke-miterlimit:4;font-variant:normal;font-weight:normal;opacity:1;direction:ltr;-inkscape-font-specification:'Comili, Normal';visibility:visible;text-indent:0;clip-rule:nonzero;image-rendering:auto;white-space:normal;overflow:visible;font-family:Comili;text-decoration-style:solid;text-align:center;solid-color:#000000;writing-mode:lr-tb;stroke-opacity:1;isolation:auto;stroke-dashoffset:0;text-anchor:middle;text-decoration:none;stroke-linecap:butt;stroke-dasharray:none;enable-background:accumulate;text-transform:none;display:inline;color-interpolation:sRGB"
       xml:space="preserve"><tspan
         style="font-size:16.25000191px;line-height:100%"
         y="386.01328"
         x="205.58685"
         id="tspan3483"
         sodipodi:role="line"> </tspan></text>
    <text
       xml:space="preserve"
       style="stroke-linejoin:miter;baseline-shift:baseline;color-rendering:auto;text-decoration-color:#000000;color:#000000;letter-spacing:0px;shape-rendering:auto;word-spacing:0px;stroke:none;text-decoration-line:none;text-rendering:auto;stroke-width:0.99999964px;color-interpolation-filters:linearRGB;fill:#000000;solid-opacity:1;line-height:0%;fill-rule:nonzero;mix-blend-mode:normal;fill-opacity:1;font-style:normal;block-progression:tb;font-stretch:normal;stroke-miterlimit:4;font-variant:normal;font-weight:500;opacity:1;direction:ltr;-inkscape-font-specification:'LetsTrace Medium';visibility:visible;text-indent:0;clip-rule:nonzero;image-rendering:auto;white-space:normal;overflow:visible;font-family:LetsTrace;text-decoration-style:solid;text-align:center;solid-color:#000000;writing-mode:lr-tb;stroke-opacity:1;isolation:auto;stroke-dashoffset:0;text-anchor:middle;text-decoration:none;stroke-linecap:butt;stroke-dasharray:none;enable-background:accumulate;text-transform:none;display:inline;color-interpolation:sRGB"
       x="218.27101"
       y="221.93939"
       id="text3473"><tspan
         style="font-size:22.82893181px;line-height:100%"
         sodipodi:role="line"
         id="tspan3475"
         x="218.27101"
         y="221.93939"> </tspan></text>
    <flowRoot
       xml:space="preserve"
       id="flowRoot3505"
       style="stroke-linejoin:miter;baseline-shift:baseline;color-rendering:auto;text-decoration-color:#000000;color:#000000;letter-spacing:0px;shape-rendering:auto;word-spacing:0px;stroke:none;text-decoration-line:none;text-rendering:auto;stroke-width:0.99999964px;color-interpolation-filters:linearRGB;fill:#000000;solid-opacity:1;line-height:0.01%;fill-rule:nonzero;mix-blend-mode:normal;fill-opacity:1;font-style:normal;block-progression:tb;font-stretch:normal;stroke-miterlimit:4;font-variant:normal;font-weight:normal;opacity:1;direction:ltr;-inkscape-font-specification:'Comili, Normal';visibility:visible;text-indent:0;clip-rule:nonzero;image-rendering:auto;white-space:normal;overflow:visible;font-family:Comili;text-decoration-style:solid;text-align:center;solid-color:#000000;writing-mode:lr-tb;stroke-opacity:1;isolation:auto;stroke-dashoffset:0;text-anchor:middle;text-decoration:none;stroke-linecap:butt;stroke-dasharray:none;enable-background:accumulate;text-transform:none;display:inline;color-interpolation:sRGB"
       transform="translate(0,70.866111)"><flowRegion
         id="flowRegion3507"><rect
           id="rect3509"
           width="110.53079"
           height="62.951313"
           x="289.86884"
           y="140.93306" /></flowRegion><flowPara
         style="font-size:15px;line-height:100%"
         id="flowPara3511"> </flowPara></flowRoot>    <flowRoot
       xml:space="preserve"
       id="flowRoot3521"
       style="stroke-linejoin:miter;baseline-shift:baseline;color-rendering:auto;text-decoration-color:#000000;color:#000000;letter-spacing:0px;shape-rendering:auto;word-spacing:0px;stroke:none;text-decoration-line:none;text-rendering:auto;stroke-width:0.99999964px;color-interpolation-filters:linearRGB;fill:#000000;solid-opacity:1;line-height:0.01%;fill-rule:nonzero;mix-blend-mode:normal;fill-opacity:1;font-style:normal;block-progression:tb;font-stretch:normal;stroke-miterlimit:4;font-variant:normal;font-weight:normal;opacity:1;direction:ltr;-inkscape-font-specification:'Comili, Normal';visibility:visible;text-indent:0;clip-rule:nonzero;image-rendering:auto;white-space:normal;overflow:visible;font-family:Comili;text-decoration-style:solid;text-align:center;solid-color:#000000;writing-mode:lr-tb;stroke-opacity:1;isolation:auto;stroke-dashoffset:0;text-anchor:middle;text-decoration:none;stroke-linecap:butt;stroke-dasharray:none;enable-background:accumulate;text-transform:none;display:inline;color-interpolation:sRGB"
       transform="translate(0,70.866111)"><flowRegion
         id="flowRegion3523"><rect
           id="rect3525"
           width="195.44186"
           height="148.59438"
           x="96.622948"
           y="270.49564" /></flowRegion><flowPara
         style="font-size:15px;line-height:100%"
         id="flowPara3527"> </flowPara></flowRoot>    <flowRoot
       xml:space="preserve"
       id="flowRoot3545"
       style="stroke-linejoin:miter;baseline-shift:baseline;color-rendering:auto;text-decoration-color:#000000;color:#000000;letter-spacing:normal;shape-rendering:auto;word-spacing:normal;stroke:none;text-decoration-line:none;text-rendering:auto;stroke-width:0.9999994px;color-interpolation-filters:linearRGB;fill:#000000;solid-opacity:1;line-height:0.01%;fill-rule:nonzero;mix-blend-mode:normal;fill-opacity:1;font-style:normal;block-progression:tb;font-stretch:normal;stroke-miterlimit:4;font-variant:normal;font-weight:normal;opacity:1;direction:ltr;-inkscape-font-specification:Comili;visibility:visible;text-indent:0;clip-rule:nonzero;image-rendering:auto;white-space:normal;overflow:visible;font-family:Comili;text-decoration-style:solid;text-align:start;solid-color:#000000;writing-mode:lr-tb;stroke-opacity:1;isolation:auto;stroke-dashoffset:0;text-anchor:start;text-decoration:none;stroke-linecap:butt;stroke-dasharray:none;enable-background:accumulate;text-transform:none;display:inline;color-interpolation:sRGB"
       transform="translate(-26.351716,310.22752)"><flowRegion
         id="flowRegion3547"><rect
           id="rect3549"
           width="123.70665"
           height="68.807251"
           x="114.19076"
           y="395.66629"
           style="font-size:16.25000191px" /></flowRegion><flowPara
         style="font-size:16.25000191px;line-height:normal"
         id="flowPara3551"> </flowPara></flowRoot>    <flowRoot
       xml:space="preserve"
       id="flowRoot4367"
       style="stroke-linejoin:miter;baseline-shift:baseline;color-rendering:auto;text-decoration-color:#000000;color:#000000;letter-spacing:normal;shape-rendering:auto;word-spacing:normal;stroke:none;text-decoration-line:none;text-rendering:auto;stroke-width:0.9999994px;color-interpolation-filters:linearRGB;fill:#000000;solid-opacity:1;line-height:0.01%;fill-rule:nonzero;mix-blend-mode:normal;fill-opacity:1;font-style:normal;block-progression:tb;font-stretch:normal;stroke-miterlimit:4;font-variant:normal;font-weight:normal;opacity:1;direction:ltr;-inkscape-font-specification:Comili;visibility:visible;text-indent:0;clip-rule:nonzero;image-rendering:auto;white-space:normal;overflow:visible;font-family:Comili;text-decoration-style:solid;text-align:start;solid-color:#000000;writing-mode:lr-tb;stroke-opacity:1;isolation:auto;stroke-dashoffset:0;text-anchor:start;text-decoration:none;stroke-linecap:butt;stroke-dasharray:none;enable-background:accumulate;text-transform:none;display:inline;color-interpolation:sRGB"><flowRegion
         id="flowRegion4369"><rect
           id="rect4371"
           width="78.323143"
           height="125.60517"
           x="559.97388"
           y="583.05621" /></flowRegion><flowPara
         style="font-size:16.25px;line-height:normal"
         id="flowPara4373"> </flowPara></flowRoot>    <flowRoot
       transform="translate(36.118239,-128.91651)"
       style="stroke-linejoin:miter;letter-spacing:0px;baseline-shift:baseline;color-rendering:auto;text-decoration-color:#000000;color:#000000;shape-rendering:auto;word-spacing:0px;stroke:none;text-decoration-line:none;text-rendering:auto;stroke-width:1px;font-style:normal;fill:#000000;solid-opacity:1;fill-rule:nonzero;mix-blend-mode:normal;fill-opacity:1;color-interpolation-filters:linearRGB;block-progression:tb;font-stretch:normal;stroke-miterlimit:4;font-variant:normal;font-weight:normal;opacity:1;direction:ltr;-inkscape-font-specification:Frenchpress;visibility:visible;text-indent:0;display:inline;clip-rule:nonzero;image-rendering:auto;white-space:normal;overflow:visible;font-family:Frenchpress;text-decoration-style:solid;text-align:center;solid-color:#000000;writing-mode:lr-tb;stroke-opacity:1;isolation:auto;stroke-dashoffset:0;text-anchor:middle;text-decoration:none;stroke-linecap:butt;stroke-dasharray:none;enable-background:accumulate;text-transform:none;line-height:0.01%;color-interpolation:sRGB"
       id="flowRoot4394"
       xml:space="preserve"><flowRegion
         id="flowRegion4396"><rect
           style="font-style:normal;font-variant:normal;font-weight:normal;font-stretch:normal;font-size:16.25000191px;line-height:110.00000238%;font-family:Frenchpress;-inkscape-font-specification:Frenchpress;text-align:center;text-anchor:middle"
           y="259.24634"
           x="70.866142"
           height="48.909061"
           width="148.89464"
           id="rect4398" /></flowRegion><flowPara
         style="font-style:normal;font-variant:normal;font-weight:normal;font-stretch:normal;font-size:16.25000191px;line-height:100%;font-family:Comili;-inkscape-font-specification:Comili"
         id="flowPara4400">Bien sûr, on n'utilise plus de pétrole,</flowPara></flowRoot>    <flowRoot
       transform="translate(187.77756,452.01671)"
       style="stroke-linejoin:miter;letter-spacing:0px;baseline-shift:baseline;color-rendering:auto;text-decoration-color:#000000;color:#000000;shape-rendering:auto;word-spacing:0px;stroke:none;text-decoration-line:none;text-rendering:auto;stroke-width:1px;font-style:normal;fill:#000000;solid-opacity:1;fill-rule:nonzero;mix-blend-mode:normal;fill-opacity:1;color-interpolation-filters:linearRGB;block-progression:tb;font-stretch:normal;stroke-miterlimit:4;font-variant:normal;font-weight:normal;opacity:1;direction:ltr;-inkscape-font-specification:Frenchpress;visibility:visible;text-indent:0;display:inline;clip-rule:nonzero;image-rendering:auto;white-space:normal;overflow:visible;font-family:Frenchpress;text-decoration-style:solid;text-align:center;solid-color:#000000;writing-mode:lr-tb;stroke-opacity:1;isolation:auto;stroke-dashoffset:0;text-anchor:middle;text-decoration:none;stroke-linecap:butt;stroke-dasharray:none;enable-background:accumulate;text-transform:none;line-height:0.01%;color-interpolation:sRGB"
       id="flowRoot4380"
       xml:space="preserve"><flowRegion
         id="flowRegion4382"><rect
           style="font-style:normal;font-variant:normal;font-weight:normal;font-stretch:normal;font-size:16.25000191px;line-height:110.00000238%;font-family:Frenchpress;-inkscape-font-specification:Frenchpress;text-align:center;text-anchor:middle"
           y="269.26486"
           x="46.703835"
           height="51.171665"
           width="216.07698"
           id="rect4384" /></flowRegion><flowPara
         style="font-style:normal;font-variant:normal;font-weight:normal;font-stretch:normal;font-size:16.25000191px;line-height:100%;font-family:Comili;-inkscape-font-specification:Comili"
         id="flowPara4387">sauf pour les supers-cargos de transport internationaux.</flowPara></flowRoot>    <path
       sodipodi:nodetypes="cc"
       style="display:inline;opacity:1;fill:none;fill-opacity:1;stroke:#808080;stroke-width:1.06299222;stroke-linecap:round;stroke-linejoin:round;stroke-miterlimit:4;stroke-dasharray:3.18897659, 3.18897659;stroke-dashoffset:0;stroke-opacity:1"
       d="m 400.29928,288.0355 0,111.3859"
       id="path4651"
       inkscape:connector-curvature="0" />
    <path
       style="display:inline;opacity:1;fill:none;fill-opacity:1;stroke:#000000;stroke-width:1.06299222;stroke-linecap:round;stroke-linejoin:round;stroke-miterlimit:4;stroke-dasharray:none;stroke-dashoffset:0;stroke-opacity:1"
       d="m 334.25295,396.45809 c 11.39525,-2.60392 23.15665,-9.43253 28.91999,-20.18712 4.1092,-7.6679 7.61023,-29.10349 12.08176,-49.00444 2.22378,-9.89709 11.38575,-11.35037 14.28374,-18.60617 3.16866,-7.93346 7.60064,-21.22724 12.06129,-21.29254 3.1399,-0.046 8.42456,0.64794 10.76169,2.70836 12.31385,10.85594 15.11451,46.47837 25.57288,59.75929 15.43964,19.60656 24.24704,24.24683 32.45741,26.80489"
       id="path4615"
       inkscape:connector-curvature="0"
       sodipodi:nodetypes="cssssssc" />
    <path
       style="display:inline;opacity:1;fill:none;fill-opacity:1;stroke:#808080;stroke-width:1.06299222;stroke-linecap:round;stroke-linejoin:round;stroke-miterlimit:4;stroke-dasharray:3.18897659, 3.18897659;stroke-dashoffset:0;stroke-opacity:1"
       d="m 454.24073,367.86745 0,31.55395"
       id="path4637"
       inkscape:connector-curvature="0"
       sodipodi:nodetypes="cc" />
    <path
       style="display:inline;opacity:1;fill:none;fill-opacity:1;stroke:#808080;stroke-width:1.06299222;stroke-linecap:round;stroke-linejoin:round;stroke-miterlimit:4;stroke-dasharray:none;stroke-dashoffset:0;stroke-opacity:1"
       d="m 334.36367,270.204 0,128.82316"
       id="path4653"
       inkscape:connector-curvature="0" />
    <path
       style="display:inline;opacity:1;fill:none;fill-opacity:1;stroke:#808080;stroke-width:1.0629921;stroke-linecap:round;stroke-linejoin:round;stroke-miterlimit:4;stroke-dasharray:none;stroke-dashoffset:0;stroke-opacity:1"
       d="m 330.72401,399.07814 3.53515,0"
       id="path4659"
       inkscape:connector-curvature="0" />
    <path
       style="display:inline;opacity:1;fill:none;fill-opacity:1;stroke:#808080;stroke-width:1.0629921;stroke-linecap:round;stroke-linejoin:round;stroke-miterlimit:4;stroke-dasharray:none;stroke-dashoffset:0;stroke-opacity:1"
       d="m 330.72401,380.66252 3.53515,0"
       id="path4662"
       inkscape:connector-curvature="0" />
    <path
       style="display:inline;opacity:1;fill:none;fill-opacity:1;stroke:#808080;stroke-width:1.0629921;stroke-linecap:round;stroke-linejoin:round;stroke-miterlimit:4;stroke-dasharray:none;stroke-dashoffset:0;stroke-opacity:1"
       d="m 330.72401,362.24689 3.53515,0"
       id="path4664"
       inkscape:connector-curvature="0" />
    <path
       style="display:inline;opacity:1;fill:none;fill-opacity:1;stroke:#808080;stroke-width:1.0629921;stroke-linecap:round;stroke-linejoin:round;stroke-miterlimit:4;stroke-dasharray:none;stroke-dashoffset:0;stroke-opacity:1"
       d="m 330.72401,343.83129 3.53515,0"
       id="path4666"
       inkscape:connector-curvature="0" />
    <path
       style="display:inline;opacity:1;fill:none;fill-opacity:1;stroke:#808080;stroke-width:1.0629921;stroke-linecap:round;stroke-linejoin:round;stroke-miterlimit:4;stroke-dasharray:none;stroke-dashoffset:0;stroke-opacity:1"
       d="m 330.72401,325.41568 3.53515,0"
       id="path4668"
       inkscape:connector-curvature="0" />
    <path
       style="display:inline;opacity:1;fill:none;fill-opacity:1;stroke:#808080;stroke-width:1.0629921;stroke-linecap:round;stroke-linejoin:round;stroke-miterlimit:4;stroke-dasharray:none;stroke-dashoffset:0;stroke-opacity:1"
       d="m 330.72401,307.00005 3.53515,0"
       id="path4670"
       inkscape:connector-curvature="0" />
    <path
       style="display:inline;opacity:1;fill:none;fill-opacity:1;stroke:#808080;stroke-width:1.0629921;stroke-linecap:round;stroke-linejoin:round;stroke-miterlimit:4;stroke-dasharray:none;stroke-dashoffset:0;stroke-opacity:1"
       d="m 330.72401,288.58445 3.53515,0"
       id="path4672"
       inkscape:connector-curvature="0" />
    <path
       inkscape:connector-curvature="0"
       id="path4657"
       d="m 330.72401,270.16882 3.53515,0"
       style="display:inline;opacity:1;fill:none;fill-opacity:1;stroke:#808080;stroke-width:1.0629921;stroke-linecap:round;stroke-linejoin:round;stroke-miterlimit:4;stroke-dasharray:none;stroke-dashoffset:0;stroke-opacity:1" />
    <text
       xml:space="preserve"
       style="stroke-linejoin:miter;baseline-shift:baseline;color-rendering:auto;text-decoration-color:#000000;color:#000000;letter-spacing:0px;shape-rendering:auto;word-spacing:0px;stroke:none;text-decoration-line:none;text-rendering:auto;stroke-width:0.99999928px;color-interpolation-filters:linearRGB;fill:#000000;solid-opacity:1;line-height:0%;fill-rule:nonzero;mix-blend-mode:normal;fill-opacity:1;font-style:normal;block-progression:tb;font-stretch:normal;stroke-miterlimit:4;font-variant:normal;font-weight:500;opacity:1;direction:ltr;-inkscape-font-specification:'LetsTrace Medium';visibility:visible;text-indent:0;clip-rule:nonzero;image-rendering:auto;white-space:normal;overflow:visible;font-family:LetsTrace;text-decoration-style:solid;text-align:center;solid-color:#000000;writing-mode:lr-tb;stroke-opacity:1;isolation:auto;stroke-dashoffset:0;text-anchor:middle;text-decoration:none;stroke-linecap:butt;stroke-dasharray:none;enable-background:accumulate;text-transform:none;display:inline;color-interpolation:sRGB"
       x="334.92114"
       y="408.92615"
       id="text4674"><tspan
         style="font-size:12.72801781px;line-height:125%"
         sodipodi:role="line"
         id="tspan4676"
         x="334.92114"
         y="408.92615">1930</tspan></text>
    <text
       id="text4682"
       y="401.81064"
       x="327.83926"
       style="stroke-linejoin:miter;baseline-shift:baseline;color-rendering:auto;text-decoration-color:#000000;color:#000000;letter-spacing:0px;shape-rendering:auto;word-spacing:0px;stroke:none;text-decoration-line:none;text-rendering:auto;stroke-width:0.99999928px;color-interpolation-filters:linearRGB;fill:#000000;solid-opacity:1;line-height:0%;fill-rule:nonzero;mix-blend-mode:normal;fill-opacity:1;font-style:normal;block-progression:tb;font-stretch:normal;stroke-miterlimit:4;font-variant:normal;font-weight:500;opacity:1;direction:ltr;-inkscape-font-specification:'LetsTrace Medium';visibility:visible;text-indent:0;clip-rule:nonzero;image-rendering:auto;white-space:normal;overflow:visible;font-family:LetsTrace;text-decoration-style:solid;text-align:end;solid-color:#000000;writing-mode:lr-tb;stroke-opacity:1;isolation:auto;stroke-dashoffset:0;text-anchor:end;text-decoration:none;stroke-linecap:butt;stroke-dasharray:none;enable-background:accumulate;text-transform:none;display:inline;color-interpolation:sRGB"
       xml:space="preserve"><tspan
         style="font-size:12.72801781px;line-height:125%"
         y="401.81064"
         x="327.83926"
         id="tspan4684"
         sodipodi:role="line">0</tspan></text>
    <text
       id="text4686"
       y="384.61484"
       x="327.83926"
       style="stroke-linejoin:miter;baseline-shift:baseline;color-rendering:auto;text-decoration-color:#000000;color:#000000;letter-spacing:0px;shape-rendering:auto;word-spacing:0px;stroke:none;text-decoration-line:none;text-rendering:auto;stroke-width:0.99999928px;color-interpolation-filters:linearRGB;fill:#000000;solid-opacity:1;line-height:0%;fill-rule:nonzero;mix-blend-mode:normal;fill-opacity:1;font-style:normal;block-progression:tb;font-stretch:normal;stroke-miterlimit:4;font-variant:normal;font-weight:500;opacity:1;direction:ltr;-inkscape-font-specification:'LetsTrace Medium';visibility:visible;text-indent:0;clip-rule:nonzero;image-rendering:auto;white-space:normal;overflow:visible;font-family:LetsTrace;text-decoration-style:solid;text-align:end;solid-color:#000000;writing-mode:lr-tb;stroke-opacity:1;isolation:auto;stroke-dashoffset:0;text-anchor:end;text-decoration:none;stroke-linecap:butt;stroke-dasharray:none;enable-background:accumulate;text-transform:none;display:inline;color-interpolation:sRGB"
       xml:space="preserve"><tspan
         style="font-size:12.72801781px;line-height:125%"
         y="384.61484"
         x="327.83926"
         id="tspan4688"
         sodipodi:role="line">5</tspan></text>
    <text
       id="text4690"
       y="365.28439"
       x="327.83926"
       style="stroke-linejoin:miter;baseline-shift:baseline;color-rendering:auto;text-decoration-color:#000000;color:#000000;letter-spacing:0px;shape-rendering:auto;word-spacing:0px;stroke:none;text-decoration-line:none;text-rendering:auto;stroke-width:0.99999928px;color-interpolation-filters:linearRGB;fill:#000000;solid-opacity:1;line-height:0%;fill-rule:nonzero;mix-blend-mode:normal;fill-opacity:1;font-style:normal;block-progression:tb;font-stretch:normal;stroke-miterlimit:4;font-variant:normal;font-weight:500;opacity:1;direction:ltr;-inkscape-font-specification:'LetsTrace Medium';visibility:visible;text-indent:0;clip-rule:nonzero;image-rendering:auto;white-space:normal;overflow:visible;font-family:LetsTrace;text-decoration-style:solid;text-align:end;solid-color:#000000;writing-mode:lr-tb;stroke-opacity:1;isolation:auto;stroke-dashoffset:0;text-anchor:end;text-decoration:none;stroke-linecap:butt;stroke-dasharray:none;enable-background:accumulate;text-transform:none;display:inline;color-interpolation:sRGB"
       xml:space="preserve"><tspan
         style="font-size:12.72801781px;line-height:125%"
         y="365.28439"
         x="327.83926"
         id="tspan4692"
         sodipodi:role="line">10</tspan></text>
    <text
       id="text4694"
       y="347.25842"
       x="327.83926"
       style="stroke-linejoin:miter;baseline-shift:baseline;color-rendering:auto;text-decoration-color:#000000;color:#000000;letter-spacing:0px;shape-rendering:auto;word-spacing:0px;stroke:none;text-decoration-line:none;text-rendering:auto;stroke-width:0.99999928px;color-interpolation-filters:linearRGB;fill:#000000;solid-opacity:1;line-height:0%;fill-rule:nonzero;mix-blend-mode:normal;fill-opacity:1;font-style:normal;block-progression:tb;font-stretch:normal;stroke-miterlimit:4;font-variant:normal;font-weight:500;opacity:1;direction:ltr;-inkscape-font-specification:'LetsTrace Medium';visibility:visible;text-indent:0;clip-rule:nonzero;image-rendering:auto;white-space:normal;overflow:visible;font-family:LetsTrace;text-decoration-style:solid;text-align:end;solid-color:#000000;writing-mode:lr-tb;stroke-opacity:1;isolation:auto;stroke-dashoffset:0;text-anchor:end;text-decoration:none;stroke-linecap:butt;stroke-dasharray:none;enable-background:accumulate;text-transform:none;display:inline;color-interpolation:sRGB"
       xml:space="preserve"><tspan
         style="font-size:12.72801781px;line-height:125%"
         y="347.25842"
         x="327.83926"
         id="tspan4696"
         sodipodi:role="line">15</tspan></text>
    <text
       id="text4698"
       y="328.75812"
       x="327.83926"
       style="stroke-linejoin:miter;baseline-shift:baseline;color-rendering:auto;text-decoration-color:#000000;color:#000000;letter-spacing:0px;shape-rendering:auto;word-spacing:0px;stroke:none;text-decoration-line:none;text-rendering:auto;stroke-width:0.99999928px;color-interpolation-filters:linearRGB;fill:#000000;solid-opacity:1;line-height:0%;fill-rule:nonzero;mix-blend-mode:normal;fill-opacity:1;font-style:normal;block-progression:tb;font-stretch:normal;stroke-miterlimit:4;font-variant:normal;font-weight:500;opacity:1;direction:ltr;-inkscape-font-specification:'LetsTrace Medium';visibility:visible;text-indent:0;clip-rule:nonzero;image-rendering:auto;white-space:normal;overflow:visible;font-family:LetsTrace;text-decoration-style:solid;text-align:end;solid-color:#000000;writing-mode:lr-tb;stroke-opacity:1;isolation:auto;stroke-dashoffset:0;text-anchor:end;text-decoration:none;stroke-linecap:butt;stroke-dasharray:none;enable-background:accumulate;text-transform:none;display:inline;color-interpolation:sRGB"
       xml:space="preserve"><tspan
         style="font-size:12.72801781px;line-height:125%"
         y="328.75812"
         x="327.83926"
         id="tspan4700"
         sodipodi:role="line">20</tspan></text>
    <text
       id="text4702"
       y="310.3764"
       x="327.83926"
       style="stroke-linejoin:miter;baseline-shift:baseline;color-rendering:auto;text-decoration-color:#000000;color:#000000;letter-spacing:0px;shape-rendering:auto;word-spacing:0px;stroke:none;text-decoration-line:none;text-rendering:auto;stroke-width:0.99999928px;color-interpolation-filters:linearRGB;fill:#000000;solid-opacity:1;line-height:0%;fill-rule:nonzero;mix-blend-mode:normal;fill-opacity:1;font-style:normal;block-progression:tb;font-stretch:normal;stroke-miterlimit:4;font-variant:normal;font-weight:500;opacity:1;direction:ltr;-inkscape-font-specification:'LetsTrace Medium';visibility:visible;text-indent:0;clip-rule:nonzero;image-rendering:auto;white-space:normal;overflow:visible;font-family:LetsTrace;text-decoration-style:solid;text-align:end;solid-color:#000000;writing-mode:lr-tb;stroke-opacity:1;isolation:auto;stroke-dashoffset:0;text-anchor:end;text-decoration:none;stroke-linecap:butt;stroke-dasharray:none;enable-background:accumulate;text-transform:none;display:inline;color-interpolation:sRGB"
       xml:space="preserve"><tspan
         style="font-size:12.72801781px;line-height:125%"
         y="310.3764"
         x="327.83926"
         id="tspan4704"
         sodipodi:role="line">25</tspan></text>
    <text
       id="text4706"
       y="291.87607"
       x="327.83926"
       style="stroke-linejoin:miter;baseline-shift:baseline;color-rendering:auto;text-decoration-color:#000000;color:#000000;letter-spacing:0px;shape-rendering:auto;word-spacing:0px;stroke:none;text-decoration-line:none;text-rendering:auto;stroke-width:0.99999928px;color-interpolation-filters:linearRGB;fill:#000000;solid-opacity:1;line-height:0%;fill-rule:nonzero;mix-blend-mode:normal;fill-opacity:1;font-style:normal;block-progression:tb;font-stretch:normal;stroke-miterlimit:4;font-variant:normal;font-weight:500;opacity:1;direction:ltr;-inkscape-font-specification:'LetsTrace Medium';visibility:visible;text-indent:0;clip-rule:nonzero;image-rendering:auto;white-space:normal;overflow:visible;font-family:LetsTrace;text-decoration-style:solid;text-align:end;solid-color:#000000;writing-mode:lr-tb;stroke-opacity:1;isolation:auto;stroke-dashoffset:0;text-anchor:end;text-decoration:none;stroke-linecap:butt;stroke-dasharray:none;enable-background:accumulate;text-transform:none;display:inline;color-interpolation:sRGB"
       xml:space="preserve"><tspan
         style="font-size:12.72801781px;line-height:125%"
         y="291.87607"
         x="327.83926"
         id="tspan4708"
         sodipodi:role="line">30</tspan></text>
    <text
       xml:space="preserve"
       style="stroke-linejoin:miter;baseline-shift:baseline;color-rendering:auto;text-decoration-color:#000000;color:#000000;letter-spacing:0px;shape-rendering:auto;word-spacing:0px;stroke:none;text-decoration-line:none;text-rendering:auto;stroke-width:0.99999928px;color-interpolation-filters:linearRGB;fill:#000000;solid-opacity:1;line-height:0%;fill-rule:nonzero;mix-blend-mode:normal;fill-opacity:1;font-style:normal;block-progression:tb;font-stretch:normal;stroke-miterlimit:4;font-variant:normal;font-weight:500;opacity:1;direction:ltr;-inkscape-font-specification:'LetsTrace Medium';visibility:visible;text-indent:0;clip-rule:nonzero;image-rendering:auto;white-space:normal;overflow:visible;font-family:LetsTrace;text-decoration-style:solid;text-align:end;solid-color:#000000;writing-mode:lr-tb;stroke-opacity:1;isolation:auto;stroke-dashoffset:0;text-anchor:end;text-decoration:none;stroke-linecap:butt;stroke-dasharray:none;enable-background:accumulate;text-transform:none;display:inline;color-interpolation:sRGB"
       x="327.83926"
       y="273.49435"
       id="text4678"><tspan
         style="font-size:12.72801781px;line-height:125%"
         sodipodi:role="line"
         id="tspan4680"
         x="327.83926"
         y="273.49435">35</tspan></text>
    <text
       id="text4448"
       y="408.92615"
       x="400.12845"
       style="stroke-linejoin:miter;baseline-shift:baseline;color-rendering:auto;text-decoration-color:#000000;color:#000000;letter-spacing:0px;shape-rendering:auto;word-spacing:0px;stroke:none;text-decoration-line:none;text-rendering:auto;stroke-width:0.99999928px;color-interpolation-filters:linearRGB;fill:#000000;solid-opacity:1;line-height:0%;fill-rule:nonzero;mix-blend-mode:normal;fill-opacity:1;font-style:normal;block-progression:tb;font-stretch:normal;stroke-miterlimit:4;font-variant:normal;font-weight:500;opacity:1;direction:ltr;-inkscape-font-specification:'LetsTrace Medium';visibility:visible;text-indent:0;clip-rule:nonzero;image-rendering:auto;white-space:normal;overflow:visible;font-family:LetsTrace;text-decoration-style:solid;text-align:center;solid-color:#000000;writing-mode:lr-tb;stroke-opacity:1;isolation:auto;stroke-dashoffset:0;text-anchor:middle;text-decoration:none;stroke-linecap:butt;stroke-dasharray:none;enable-background:accumulate;text-transform:none;display:inline;color-interpolation:sRGB"
       xml:space="preserve"><tspan
         style="font-size:12.72801781px;line-height:125%"
         y="408.92615"
         x="400.12845"
         id="tspan4450"
         sodipodi:role="line">2007</tspan></text>
    <text
       xml:space="preserve"
       style="stroke-linejoin:miter;baseline-shift:baseline;color-rendering:auto;text-decoration-color:#000000;color:#000000;letter-spacing:0px;shape-rendering:auto;word-spacing:0px;stroke:none;text-decoration-line:none;text-rendering:auto;stroke-width:0.99999928px;color-interpolation-filters:linearRGB;fill:#000000;solid-opacity:1;line-height:0%;fill-rule:nonzero;mix-blend-mode:normal;fill-opacity:1;font-style:normal;block-progression:tb;font-stretch:normal;stroke-miterlimit:4;font-variant:normal;font-weight:500;opacity:1;direction:ltr;-inkscape-font-specification:'LetsTrace Medium';visibility:visible;text-indent:0;clip-rule:nonzero;image-rendering:auto;white-space:normal;overflow:visible;font-family:LetsTrace;text-decoration-style:solid;text-align:center;solid-color:#000000;writing-mode:lr-tb;stroke-opacity:1;isolation:auto;stroke-dashoffset:0;text-anchor:middle;text-decoration:none;stroke-linecap:butt;stroke-dasharray:none;enable-background:accumulate;text-transform:none;display:inline;color-interpolation:sRGB"
       x="424.55783"
       y="482.19263"
       id="text4631"><tspan
         style="font-size:25.97589302px;line-height:125%"
         sodipodi:role="line"
         id="tspan4633"
         x="424.55783"
         y="482.19263">$3127</tspan></text>
    <text
       id="text4452"
       y="423.16052"
       x="398.20761"
       style="color:#000000;font-style:normal;font-variant:normal;font-weight:500;font-stretch:normal;line-height:9.60000014px;font-family:LetsTrace;-inkscape-font-specification:'LetsTrace Medium';text-indent:0;text-align:center;text-decoration:none;text-decoration-line:none;text-decoration-style:solid;text-decoration-color:#000000;letter-spacing:0px;word-spacing:-2.77702212px;text-transform:none;writing-mode:lr-tb;direction:ltr;baseline-shift:baseline;text-anchor:middle;white-space:normal;clip-rule:nonzero;display:inline;overflow:visible;visibility:visible;opacity:1;isolation:auto;mix-blend-mode:normal;color-interpolation:sRGB;color-interpolation-filters:linearRGB;solid-color:#000000;solid-opacity:1;fill:#000000;fill-opacity:1;fill-rule:nonzero;stroke:none;stroke-width:0.99999928px;stroke-linecap:butt;stroke-linejoin:miter;stroke-miterlimit:4;stroke-dasharray:none;stroke-dashoffset:0;stroke-opacity:1;color-rendering:auto;image-rendering:auto;shape-rendering:auto;text-rendering:auto;enable-background:accumulate;"
       xml:space="preserve"><tspan
         style="font-size:12.72801781px;line-height:9.60000014px;"
         y="423.16052"
         x="398.20761"
         sodipodi:role="line"
         id="tspan4454">Production de pétrole en milliard de barils par an (Gb/a)</tspan></text>
    <text
       xml:space="preserve"
       style="stroke-linejoin:miter;baseline-shift:baseline;color-rendering:auto;text-decoration-color:#000000;color:#000000;letter-spacing:0px;shape-rendering:auto;word-spacing:-2.77702212px;stroke:none;text-decoration-line:none;text-rendering:auto;stroke-width:0.99999928px;color-interpolation-filters:linearRGB;fill:#000000;solid-opacity:1;line-height:0%;fill-rule:nonzero;mix-blend-mode:normal;fill-opacity:1;font-style:normal;block-progression:tb;font-stretch:normal;stroke-miterlimit:4;font-variant:normal;font-weight:500;opacity:1;direction:ltr;-inkscape-font-specification:'LetsTrace Medium';visibility:visible;text-indent:0;clip-rule:nonzero;image-rendering:auto;white-space:normal;overflow:visible;font-family:LetsTrace;text-decoration-style:solid;text-align:center;solid-color:#000000;writing-mode:lr-tb;stroke-opacity:1;isolation:auto;stroke-dashoffset:0;text-anchor:middle;text-decoration:none;stroke-linecap:butt;stroke-dasharray:none;enable-background:accumulate;text-transform:none;display:inline;color-interpolation:sRGB"
       x="415.45807"
       y="504.04254"
       id="text4641"><tspan
         style="font-size:12.72801781px;line-height:80.00000119%"
         id="tspan4645"
         sodipodi:role="line"
         x="415.45807"
         y="504.04254">Cours du baril de pétrole</tspan><tspan
         style="font-size:12.72801781px;line-height:80.00000119%"
         sodipodi:role="line"
         x="415.45807"
         y="514.22498"
         id="tspan4456">au 20 mars 2054</tspan></text>
    <text
       xml:space="preserve"
       style="stroke-linejoin:miter;baseline-shift:baseline;color-rendering:auto;text-decoration-color:#000000;color:#000000;letter-spacing:0px;shape-rendering:auto;word-spacing:-2.77702212px;stroke:none;text-decoration-line:none;text-rendering:auto;stroke-width:0.99999928px;color-interpolation-filters:linearRGB;fill:#000000;solid-opacity:1;line-height:0%;fill-rule:nonzero;mix-blend-mode:normal;fill-opacity:1;font-style:normal;block-progression:tb;font-stretch:normal;stroke-miterlimit:4;font-variant:normal;font-weight:500;opacity:1;direction:ltr;-inkscape-font-specification:'LetsTrace Medium';visibility:visible;text-indent:0;clip-rule:nonzero;image-rendering:auto;white-space:normal;overflow:visible;font-family:LetsTrace;text-decoration-style:solid;text-align:center;solid-color:#000000;writing-mode:lr-tb;stroke-opacity:1;isolation:auto;stroke-dashoffset:0;text-anchor:middle;text-decoration:none;stroke-linecap:butt;stroke-dasharray:none;enable-background:accumulate;text-transform:none;display:inline;color-interpolation:sRGB"
       x="395.09702"
       y="278.91037"
       id="text4389"><tspan
         style="font-size:12.72801781px;line-height:80.00000119%"
         id="tspan4391"
         sodipodi:role="line"
         x="395.09702"
         y="278.91037">Pic pétrolier</tspan></text>
    <text
       xml:space="preserve"
       style="stroke-linejoin:miter;baseline-shift:baseline;color-rendering:auto;text-decoration-color:#000000;color:#000000;letter-spacing:0px;shape-rendering:auto;word-spacing:0px;stroke:none;text-decoration-line:none;text-rendering:auto;stroke-width:0.99999928px;color-interpolation-filters:linearRGB;fill:#000000;solid-opacity:1;line-height:0%;fill-rule:nonzero;mix-blend-mode:normal;fill-opacity:1;font-style:normal;block-progression:tb;font-stretch:normal;stroke-miterlimit:4;font-variant:normal;font-weight:500;opacity:1;direction:ltr;-inkscape-font-specification:'LetsTrace Medium';visibility:visible;text-indent:0;clip-rule:nonzero;image-rendering:auto;white-space:normal;overflow:visible;font-family:LetsTrace;text-decoration-style:solid;text-align:center;solid-color:#000000;writing-mode:lr-tb;stroke-opacity:1;isolation:auto;stroke-dashoffset:0;text-anchor:middle;text-decoration:none;stroke-linecap:butt;stroke-dasharray:none;enable-background:accumulate;text-transform:none;display:inline;color-interpolation:sRGB"
       x="454.6188"
       y="408.92615"
       id="text4617"><tspan
         style="font-size:12.72801781px;line-height:125%"
         sodipodi:role="line"
         id="tspan4619"
         x="454.6188"
         y="408.92615">2054</tspan></text>
  </g>
  <g
     sodipodi:insensitive="true"
     inkscape:groupmode="layer"
     inkscape:label="printing marks"
     id="printing-marks">
    <g
       inkscape:label="CropMarks"
       id="CropMarks">
      <path
         style="stroke:#000000;stroke-width:0.25;fill:none"
         id="cropTL1"
         d="M 0,-7.0866141732 L 0,-42.5196850392" />
      <path
         style="stroke:#000000;stroke-width:0.25;fill:none"
         id="cropTL2"
         d="M -7.0866141732,0 L -42.5196850392,0" />
      <path
         style="stroke:#000000;stroke-width:0.25;fill:none"
         id="cropTR1"
         d="M 524.409448817,-7.0866141732 L 524.409448817,-42.5196850392" />
      <path
         style="stroke:#000000;stroke-width:0.25;fill:none"
         id="cropTR2"
         d="M 531.49606299,0 L 566.929133856,0" />
      <path
         style="stroke:#000000;stroke-width:0.25;fill:none"
         id="cropBL1"
         d="M 0,751.181102359 L 0,786.614173225" />
      <path
         style="stroke:#000000;stroke-width:0.25;fill:none"
         id="cropBL2"
         d="M -7.0866141732,744.094488186 L -42.5196850392,744.094488186" />
      <path
         style="stroke:#000000;stroke-width:0.25;fill:none"
         id="cropBR1"
         d="M 524.409448817,751.181102359 L 524.409448817,786.614173225" />
      <path
         style="stroke:#000000;stroke-width:0.25;fill:none"
         id="cropBR2"
         d="M 531.49606299,744.094488186 L 566.929133856,744.094488186" />
    </g>
    <g
       inkscape:label="RegistrationMarks"
       id="RegistrationMarks">
      <g
         id="regMarkL">
        <path
           id="path3448"
           transform="translate(-35.433070866,318.897637794) rotate(0)"
           style="stroke:none;fill-opacity:1;fill:#000000"
           d="m -0.0,17.716535433 -3.5433070866,0 17.716535433,-17.716535433 -17.716535433,-17.716535433 3.5433070866,0 17.716535433,17.716535433 -17.716535433,17.716535433 z" />
        <path
           id="path3450"
           transform="translate(-35.433070866,318.897637794) rotate(0)"
           style="stroke:none;fill-opacity:1;fill:#00ffff"
           d="m -3.5433070866,17.716535433 -3.5433070866,0 17.716535433,-17.716535433 -17.716535433,-17.716535433 3.5433070866,0 17.716535433,17.716535433 -17.716535433,17.716535433 z" />
        <path
           id="path3452"
           transform="translate(-35.433070866,318.897637794) rotate(0)"
           style="stroke:none;fill-opacity:1;fill:#ff00ff"
           d="m -7.0866141732,17.716535433 -3.5433070866,0 17.716535433,-17.716535433 -17.716535433,-17.716535433 3.5433070866,0 17.716535433,17.716535433 -17.716535433,17.716535433 z" />
        <path
           id="path3454"
           transform="translate(-35.433070866,318.897637794) rotate(0)"
           style="stroke:none;fill-opacity:1;fill:#ffff00"
           d="m -10.6299212598,17.716535433 -3.5433070866,0 17.716535433,-17.716535433 -17.716535433,-17.716535433 3.5433070866,0 17.716535433,17.716535433 -17.716535433,17.716535433 z" />
        <path
           id="path3456"
           transform="translate(-35.433070866,318.897637794) rotate(0)"
           style="stroke:none;fill-opacity:1;fill:#000000"
           d="m -14.1732283464,17.716535433 -3.5433070866,0 17.716535433,-17.716535433 -17.716535433,-17.716535433 3.5433070866,0 17.716535433,17.716535433 -17.716535433,17.716535433 z" />
      </g>
      <g
         id="regMarkR">
        <path
           id="path3459"
           transform="translate(559.842519683,318.897637794) rotate(180)"
           style="stroke:none;fill-opacity:1;fill:#000000"
           d="m -0.0,17.716535433 -3.5433070866,0 17.716535433,-17.716535433 -17.716535433,-17.716535433 3.5433070866,0 17.716535433,17.716535433 -17.716535433,17.716535433 z" />
        <path
           id="path3461"
           transform="translate(559.842519683,318.897637794) rotate(180)"
           style="stroke:none;fill-opacity:1;fill:#00ffff"
           d="m -3.5433070866,17.716535433 -3.5433070866,0 17.716535433,-17.716535433 -17.716535433,-17.716535433 3.5433070866,0 17.716535433,17.716535433 -17.716535433,17.716535433 z" />
        <path
           id="path3463"
           transform="translate(559.842519683,318.897637794) rotate(180)"
           style="stroke:none;fill-opacity:1;fill:#ff00ff"
           d="m -7.0866141732,17.716535433 -3.5433070866,0 17.716535433,-17.716535433 -17.716535433,-17.716535433 3.5433070866,0 17.716535433,17.716535433 -17.716535433,17.716535433 z" />
        <path
           id="path3465"
           transform="translate(559.842519683,318.897637794) rotate(180)"
           style="stroke:none;fill-opacity:1;fill:#ffff00"
           d="m -10.6299212598,17.716535433 -3.5433070866,0 17.716535433,-17.716535433 -17.716535433,-17.716535433 3.5433070866,0 17.716535433,17.716535433 -17.716535433,17.716535433 z" />
        <path
           id="path3467"
           transform="translate(559.842519683,318.897637794) rotate(180)"
           style="stroke:none;fill-opacity:1;fill:#000000"
           d="m -14.1732283464,17.716535433 -3.5433070866,0 17.716535433,-17.716535433 -17.716535433,-17.716535433 3.5433070866,0 17.716535433,17.716535433 -17.716535433,17.716535433 z" />
      </g>
      <g
         id="regMarkT">
        <path
           id="path3470"
           transform="translate(262.204724408,-35.433070866) rotate(90)"
           style="stroke:none;fill-opacity:1;fill:#000000"
           d="m -0.0,17.716535433 -3.5433070866,0 17.716535433,-17.716535433 -17.716535433,-17.716535433 3.5433070866,0 17.716535433,17.716535433 -17.716535433,17.716535433 z" />
        <path
           id="path3472"
           transform="translate(262.204724408,-35.433070866) rotate(90)"
           style="stroke:none;fill-opacity:1;fill:#00ffff"
           d="m -3.5433070866,17.716535433 -3.5433070866,0 17.716535433,-17.716535433 -17.716535433,-17.716535433 3.5433070866,0 17.716535433,17.716535433 -17.716535433,17.716535433 z" />
        <path
           id="path3474"
           transform="translate(262.204724408,-35.433070866) rotate(90)"
           style="stroke:none;fill-opacity:1;fill:#ff00ff"
           d="m -7.0866141732,17.716535433 -3.5433070866,0 17.716535433,-17.716535433 -17.716535433,-17.716535433 3.5433070866,0 17.716535433,17.716535433 -17.716535433,17.716535433 z" />
        <path
           id="path3476"
           transform="translate(262.204724408,-35.433070866) rotate(90)"
           style="stroke:none;fill-opacity:1;fill:#ffff00"
           d="m -10.6299212598,17.716535433 -3.5433070866,0 17.716535433,-17.716535433 -17.716535433,-17.716535433 3.5433070866,0 17.716535433,17.716535433 -17.716535433,17.716535433 z" />
        <path
           id="path3478"
           transform="translate(262.204724408,-35.433070866) rotate(90)"
           style="stroke:none;fill-opacity:1;fill:#000000"
           d="m -14.1732283464,17.716535433 -3.5433070866,0 17.716535433,-17.716535433 -17.716535433,-17.716535433 3.5433070866,0 17.716535433,17.716535433 -17.716535433,17.716535433 z" />
      </g>
      <g
         id="regMarkB">
        <path
           id="path3481"
           transform="translate(262.204724408,779.527559052) rotate(-90)"
           style="stroke:none;fill-opacity:1;fill:#000000"
           d="m -0.0,17.716535433 -3.5433070866,0 17.716535433,-17.716535433 -17.716535433,-17.716535433 3.5433070866,0 17.716535433,17.716535433 -17.716535433,17.716535433 z" />
        <path
           id="path3483"
           transform="translate(262.204724408,779.527559052) rotate(-90)"
           style="stroke:none;fill-opacity:1;fill:#00ffff"
           d="m -3.5433070866,17.716535433 -3.5433070866,0 17.716535433,-17.716535433 -17.716535433,-17.716535433 3.5433070866,0 17.716535433,17.716535433 -17.716535433,17.716535433 z" />
        <path
           id="path3485"
           transform="translate(262.204724408,779.527559052) rotate(-90)"
           style="stroke:none;fill-opacity:1;fill:#ff00ff"
           d="m -7.0866141732,17.716535433 -3.5433070866,0 17.716535433,-17.716535433 -17.716535433,-17.716535433 3.5433070866,0 17.716535433,17.716535433 -17.716535433,17.716535433 z" />
        <path
           id="path3487"
           transform="translate(262.204724408,779.527559052) rotate(-90)"
           style="stroke:none;fill-opacity:1;fill:#ffff00"
           d="m -10.6299212598,17.716535433 -3.5433070866,0 17.716535433,-17.716535433 -17.716535433,-17.716535433 3.5433070866,0 17.716535433,17.716535433 -17.716535433,17.716535433 z" />
        <path
           id="path3489"
           transform="translate(262.204724408,779.527559052) rotate(-90)"
           style="stroke:none;fill-opacity:1;fill:#000000"
           d="m -14.1732283464,17.716535433 -3.5433070866,0 17.716535433,-17.716535433 -17.716535433,-17.716535433 3.5433070866,0 17.716535433,17.716535433 -17.716535433,17.716535433 z" />
      </g>
    </g>
  </g>
</svg>
