<?xml version="1.0" encoding="UTF-8" standalone="no"?>
<!-- Created with Inkscape (http://www.inkscape.org/) -->

<svg
   xmlns:dc="http://purl.org/dc/elements/1.1/"
   xmlns:cc="http://creativecommons.org/ns#"
   xmlns:rdf="http://www.w3.org/1999/02/22-rdf-syntax-ns#"
   xmlns:svg="http://www.w3.org/2000/svg"
   xmlns="http://www.w3.org/2000/svg"
   xmlns:xlink="http://www.w3.org/1999/xlink"
   xmlns:sodipodi="http://sodipodi.sourceforge.net/DTD/sodipodi-0.dtd"
   xmlns:inkscape="http://www.inkscape.org/namespaces/inkscape"
   width="148mm"
   height="210mm"
   viewBox="0 0 524.40946 744.09448"
   id="svg2"
   version="1.1"
   inkscape:version="0.92.0 r"
   sodipodi:docname="19.svg"
   inkscape:export-filename="/home/nylnook/Crea/BD/storyboard/test mise en page/storyboard2054-p4.png"
   inkscape:export-xdpi="600"
   inkscape:export-ydpi="600">
  <sodipodi:namedview
     id="base"
     pagecolor="#ffffff"
     bordercolor="#666666"
     borderopacity="1.0"
     inkscape:pageopacity="0.0"
     inkscape:pageshadow="2"
     inkscape:zoom="1.1080395"
     inkscape:cx="207.866"
     inkscape:cy="376.16882"
     inkscape:document-units="mm"
     inkscape:current-layer="layer2"
     showgrid="false"
     units="mm"
     inkscape:window-width="1920"
     inkscape:window-height="1004"
     inkscape:window-x="0"
     inkscape:window-y="34"
     inkscape:window-maximized="1"
     showguides="true"
     inkscape:guide-bbox="true"
     inkscape:snap-bbox="true"
     inkscape:bbox-paths="false"
     inkscape:bbox-nodes="true"
     borderlayer="true"
     inkscape:snap-global="false">
    <sodipodi:guide
       inkscape:locked="false"
       position="-7.0866147,0"
       orientation="1,0"
       id="guide7382"
       inkscape:label=""
       inkscape:color="rgb(0,0,255)" />
    <sodipodi:guide
       inkscape:locked="false"
       position="531.4961,0"
       orientation="1,0"
       id="guide7384"
       inkscape:label=""
       inkscape:color="rgb(0,0,255)" />
    <sodipodi:guide
       inkscape:locked="false"
       position="0,-7.0866142"
       orientation="0,1"
       id="guide7386"
       inkscape:label=""
       inkscape:color="rgb(0,0,255)" />
    <sodipodi:guide
       inkscape:locked="false"
       position="0,751.1811"
       orientation="0,1"
       id="guide7388"
       inkscape:label=""
       inkscape:color="rgb(0,0,255)" />
    <sodipodi:guide
       inkscape:locked="false"
       position="35.433073,0"
       orientation="1,0"
       id="guide7390"
       inkscape:label=""
       inkscape:color="rgb(0,0,255)" />
    <sodipodi:guide
       inkscape:locked="false"
       position="0,708.66142"
       orientation="0,1"
       id="guide7392"
       inkscape:label=""
       inkscape:color="rgb(0,0,255)" />
    <sodipodi:guide
       inkscape:locked="false"
       position="488.97641,0"
       orientation="1,0"
       id="guide7394"
       inkscape:label=""
       inkscape:color="rgb(0,0,255)" />
    <sodipodi:guide
       inkscape:locked="false"
       position="0,35.433071"
       orientation="0,1"
       id="guide7396"
       inkscape:label=""
       inkscape:color="rgb(0,0,255)" />
  </sodipodi:namedview>
  <defs
     id="defs4">
    <inkscape:path-effect
       bendpath-nodetypes="cc"
       vertical="false"
       scale_y_rel="false"
       prop_scale="1"
       bendpath="m 255.464,658.14956 c 26,-2 48.45873,3 64.95873,20"
       is_visible="true"
       id="path-effect3609"
       effect="bend_path" />
    <inkscape:path-effect
       bendpath-nodetypes="cc"
       vertical="false"
       scale_y_rel="false"
       prop_scale="1"
       bendpath="m 396.71471,421.683 c 33,-10 69.06701,-7 85.06701,6.5"
       is_visible="true"
       id="path-effect3590"
       effect="bend_path" />
    <clipPath
       id="clipPath5115"
       clipPathUnits="userSpaceOnUse">
      <rect
         style="opacity:0.5;fill:#000000;fill-opacity:1;stroke:none;stroke-width:10.62992096;stroke-linecap:round;stroke-linejoin:round;stroke-miterlimit:4;stroke-dasharray:none;stroke-dashoffset:4.0999999;stroke-opacity:1"
         id="rect5117"
         width="538.5827"
         height="419.32443"
         x="28.346457"
         y="604.69122" />
    </clipPath>
    <clipPath
       id="clipPath5056"
       clipPathUnits="userSpaceOnUse">
      <path
         inkscape:connector-curvature="0"
         style="display:inline;opacity:0.5;fill:#000000;fill-opacity:1;stroke:none;stroke-width:1;stroke-linecap:round;stroke-linejoin:round;stroke-miterlimit:4;stroke-dasharray:none;stroke-dashoffset:0;stroke-opacity:1"
         d="m 70.866142,594.69339 144.095668,0 0,-286.42578 -144.095668,0 z"
         id="path5058"
         sodipodi:nodetypes="ccccc" />
    </clipPath>
    <clipPath
       id="clipPath5122"
       clipPathUnits="userSpaceOnUse">
      <path
         sodipodi:nodetypes="ccccc"
         id="path5124"
         d="m 225.58995,594.69339 144.09567,0 0,-286.42578 -144.09567,0 z"
         style="display:inline;opacity:0.5;fill:#000000;fill-opacity:1;stroke:none;stroke-width:1;stroke-linecap:round;stroke-linejoin:round;stroke-miterlimit:4;stroke-dasharray:none;stroke-dashoffset:0;stroke-opacity:1"
         inkscape:connector-curvature="0" />
    </clipPath>
    <clipPath
       id="clipPath5129"
       clipPathUnits="userSpaceOnUse">
      <path
         inkscape:connector-curvature="0"
         style="display:inline;opacity:0.5;fill:#000000;fill-opacity:1;stroke:none;stroke-width:1;stroke-linecap:round;stroke-linejoin:round;stroke-miterlimit:4;stroke-dasharray:none;stroke-dashoffset:0;stroke-opacity:1"
         d="m 380.31378,594.69339 144.09567,0 0,-286.42578 -144.09567,0 z"
         id="path5131"
         sodipodi:nodetypes="ccccc" />
    </clipPath>
    <clipPath
       id="clipPath3564"
       clipPathUnits="userSpaceOnUse">
      <path
         style="opacity:0.5;fill:#000000;fill-opacity:1;stroke:none;stroke-width:0.35433072;stroke-linecap:round;stroke-linejoin:round;stroke-miterlimit:4;stroke-dasharray:none;stroke-dashoffset:0;stroke-opacity:1"
         d="m 35.433075,625.57288 0,-281.87223 303.857945,0 0,175.55836 -114.00242,106.42574 z"
         id="path3566"
         inkscape:connector-curvature="0"
         sodipodi:nodetypes="cccccc" />
    </clipPath>
    <clipPath
       id="clipPath3568"
       clipPathUnits="userSpaceOnUse">
      <path
         sodipodi:nodetypes="cccccc"
         inkscape:connector-curvature="0"
         id="path3570"
         d="m 488.97643,529.8236 0,217.0441 -233.9733,0 0,-135.18149 87.78287,-81.94875 z"
         style="opacity:0.5;fill:#000000;fill-opacity:1;stroke:none;stroke-width:0.35433072;stroke-linecap:round;stroke-linejoin:round;stroke-miterlimit:4;stroke-dasharray:none;stroke-dashoffset:0;stroke-opacity:1" />
    </clipPath>
    <clipPath
       id="clipPath3539"
       clipPathUnits="userSpaceOnUse">
      <rect
         y="505.45435"
         x="622.36469"
         height="308.71356"
         width="453.54337"
         id="rect3541"
         style="opacity:0.5;fill:#272f3c;fill-opacity:1;stroke:none;stroke-width:0.35433072;stroke-linecap:round;stroke-linejoin:round;stroke-miterlimit:4;stroke-dasharray:none;stroke-dashoffset:0;stroke-opacity:1" />
    </clipPath>
    <clipPath
       id="clipPath3556"
       clipPathUnits="userSpaceOnUse">
      <path
         style="opacity:0.5;fill:#000000;fill-opacity:1;stroke:none;stroke-width:0.35433072;stroke-linecap:round;stroke-linejoin:round;stroke-miterlimit:4;stroke-dasharray:none;stroke-dashoffset:0;stroke-opacity:1"
         d="m 488.97643,812.57452 -203.48715,0 0,90.40334 c 20.06985,81.61738 0,113.08374 0,113.08374 l 203.48715,0 z"
         id="path3558"
         inkscape:connector-curvature="0"
         sodipodi:nodetypes="cccccc" />
    </clipPath>
    <clipPath
       id="clipPath3560"
       clipPathUnits="userSpaceOnUse">
      <path
         sodipodi:nodetypes="cccccc"
         inkscape:connector-curvature="0"
         id="path3562"
         d="m 35.433071,813.44189 203.487149,0 0,90.40334 c -20.06985,81.61738 0,113.08377 0,113.08377 l -203.487149,0 z"
         style="opacity:0.5;fill:#000000;fill-opacity:1;stroke:none;stroke-width:0.35433072;stroke-linecap:round;stroke-linejoin:round;stroke-miterlimit:4;stroke-dasharray:none;stroke-dashoffset:0;stroke-opacity:1" />
    </clipPath>
    <clipPath
       id="clipPath3559"
       clipPathUnits="userSpaceOnUse">
      <rect
         y="557.38965"
         x="35.433071"
         height="187.31729"
         width="199.31833"
         id="rect3561"
         style="opacity:0.5;fill:#000000;fill-opacity:1;stroke:none;stroke-width:0.35433072;stroke-linecap:round;stroke-linejoin:round;stroke-miterlimit:4;stroke-dasharray:none;stroke-dashoffset:0;stroke-opacity:1" />
    </clipPath>
    <clipPath
       clipPathUnits="userSpaceOnUse"
       id="clipPath4652">
      <rect
         style="opacity:1;fill:#c0c0c0;fill-opacity:1;stroke:none;stroke-width:1.06299222;stroke-linecap:round;stroke-linejoin:miter;stroke-miterlimit:4;stroke-dasharray:none;stroke-dashoffset:0;stroke-opacity:1;paint-order:normal"
         id="rect4654"
         width="279.39075"
         height="140.56956"
         x="676.9718"
         y="731.01031" />
    </clipPath>
  </defs>
  <metadata
     id="metadata7">
    <rdf:RDF>
      <cc:Work
         rdf:about="">
        <dc:format>image/svg+xml</dc:format>
        <dc:type
           rdf:resource="http://purl.org/dc/dcmitype/StillImage" />
        <dc:title />
      </cc:Work>
    </rdf:RDF>
  </metadata>
  <g
     transform="translate(0,-308.26761)"
     id="layer1"
     inkscape:groupmode="layer"
     inkscape:label="artwork"
     style="display:inline">
    <rect
       transform="matrix(0,-1,1,0,0,0)"
       y="196.49979"
       x="-486.20801"
       height="300.80563"
       width="151.06902"
       id="rect3545"
       style="opacity:1;fill:#c0c0c0;fill-opacity:1;stroke:none;stroke-width:0.35433072;stroke-linecap:round;stroke-linejoin:round;stroke-miterlimit:4;stroke-dasharray:none;stroke-dashoffset:0;stroke-opacity:1" />
    <rect
       style="opacity:1;fill:#c0c0c0;fill-opacity:1;stroke:none;stroke-width:0.35433072;stroke-linecap:round;stroke-linejoin:round;stroke-miterlimit:4;stroke-dasharray:none;stroke-dashoffset:0;stroke-opacity:1"
       id="rect3527"
       width="148.39349"
       height="117.8599"
       x="-793.69434"
       y="239.64476"
       transform="matrix(0,-1,1,0,0,0)" />
    <rect
       transform="matrix(0,1,-1,0,0,0)"
       style="opacity:1;fill:#ffffff;fill-opacity:1;stroke:none;stroke-width:0.35433072;stroke-linecap:round;stroke-linejoin:round;stroke-miterlimit:4;stroke-dasharray:none;stroke-dashoffset:0;stroke-opacity:1"
       id="rect4452"
       width="102.42929"
       height="538.58276"
       x="241.27135"
       y="-531.49615"
       rx="0"
       ry="0" />
    <rect
       transform="matrix(0,-1,1,0,0,0)"
       ry="0"
       rx="0"
       y="-135.87065"
       x="-1059.4487"
       height="814.99786"
       width="42.519688"
       id="rect4317"
       style="opacity:1;fill:#ffffff;fill-opacity:1;stroke:none;stroke-width:0.35433072;stroke-linecap:round;stroke-linejoin:round;stroke-miterlimit:4;stroke-dasharray:none;stroke-dashoffset:0;stroke-opacity:1" />
    <image
       sodipodi:absref="/run/media/nylnook/0123-4567/BD/Mokatori/storyboard/layout/storyboard-ep1-fr/../c_055.jpg"
       xlink:href="../c_055.jpg"
       style="stroke-width:0.64943194"
       width="453.54333"
       height="453.54333"
       preserveAspectRatio="none"
       id="image3480"
       x="35.433071"
       y="343.70068" />
    <image
       sodipodi:absref="/run/media/nylnook/0123-4567/BD/Mokatori/storyboard/layout/storyboard-ep1-fr/../c_056.jpg"
       xlink:href="../c_056.jpg"
       style="stroke-width:3.14098644"
       width="195.60733"
       height="195.60733"
       preserveAspectRatio="none"
       id="image4614"
       x="33.816875"
       y="820.62488" />
    <rect
       style="opacity:1;fill:#ffffff;fill-opacity:1;stroke:none;stroke-width:0.35433072;stroke-linecap:round;stroke-linejoin:round;stroke-miterlimit:4;stroke-dasharray:none;stroke-dashoffset:0;stroke-opacity:1"
       id="rect3552"
       width="165.00806"
       height="734.03979"
       x="-129.57498"
       y="301.18097"
       rx="0"
       ry="0" />
    <rect
       ry="0"
       rx="0"
       y="301.18097"
       x="488.97644"
       height="734.03979"
       width="84.882187"
       id="rect4319"
       style="opacity:1;fill:#ffffff;fill-opacity:1;stroke:none;stroke-width:0.35433072;stroke-linecap:round;stroke-linejoin:round;stroke-miterlimit:4;stroke-dasharray:none;stroke-dashoffset:0;stroke-opacity:1" />
    <image
       sodipodi:absref="/run/media/nylnook/0123-4567/BD/Mokatori/storyboard/layout/storyboard-ep1-fr/../c_057.jpg"
       xlink:href="../c_057.jpg"
       style="stroke-width:2.44815588"
       width="250.96442"
       height="250.96442"
       preserveAspectRatio="none"
       id="image4625"
       x="235.38939"
       y="768.80225" />
    <rect
       style="opacity:1;fill:#ffffff;fill-opacity:1;stroke:none;stroke-width:1.06299222;stroke-linecap:round;stroke-linejoin:miter;stroke-miterlimit:4;stroke-dasharray:none;stroke-dashoffset:0;stroke-opacity:1;paint-order:normal"
       id="rect4630"
       width="271.23343"
       height="40.407898"
       x="13.475516"
       y="768.33167" />
    <rect
       style="opacity:1;fill:#f2f2f2;fill-opacity:1;stroke:none;stroke-width:1.06299222;stroke-linecap:round;stroke-linejoin:miter;stroke-miterlimit:4;stroke-dasharray:none;stroke-dashoffset:0;stroke-opacity:1;paint-order:normal"
       id="rect4628"
       width="11.036179"
       height="248.12679"
       x="224.35321"
       y="768.80225" />
  </g>
  <g
     style="display:inline"
     inkscape:groupmode="layer"
     id="layer2"
     inkscape:label="bubbles"
     transform="translate(0,-70.866142)">
    <path
       inkscape:connector-curvature="0"
       id="path3587"
       d="m 352.8307,349.8684 0,0.18587"
       style="opacity:1;fill:#ffffff;fill-opacity:1;stroke:none;stroke-width:0.35433072;stroke-linecap:round;stroke-linejoin:round;stroke-miterlimit:4;stroke-dasharray:none;stroke-dashoffset:0;stroke-opacity:1" />
    <path
       inkscape:connector-curvature="0"
       id="path3595"
       d="m 344.28098,720.85176 1.05323,1.54886"
       style="opacity:1;fill:#ffffff;fill-opacity:1;stroke:none;stroke-width:0.35433072;stroke-linecap:round;stroke-linejoin:round;stroke-miterlimit:4;stroke-dasharray:none;stroke-dashoffset:0;stroke-opacity:1" />
    <path
       inkscape:connector-curvature="0"
       id="path3617"
       d="m 76.463286,198.71704 -0.09575,-0.35356"
       style="opacity:1;fill:#ffffff;fill-opacity:1;stroke:none;stroke-width:0.35433072;stroke-linecap:round;stroke-linejoin:round;stroke-miterlimit:4;stroke-dasharray:none;stroke-dashoffset:0;stroke-opacity:1" />
    <path
       sodipodi:nodetypes="sssss"
       inkscape:connector-curvature="0"
       id="path3621"
       d="m 45.75283,127.71043 c -9.945012,6.06762 -12.426131,51.75023 9.213636,53.11647 24.400072,1.54052 115.870664,12.0722 138.255024,-6.06819 7.7409,-6.27326 6.61086,-47.83126 -0.15783,-49.30384 -36.52447,-7.9462 -116.026958,-16.83123 -147.31083,2.25556 z"
       style="opacity:1;fill:#c0c0c0;fill-opacity:1;stroke:none;stroke-width:0.35433072;stroke-linecap:round;stroke-linejoin:round;stroke-miterlimit:4;stroke-dasharray:none;stroke-dashoffset:0;stroke-opacity:1" />
    <path
       sodipodi:nodetypes="sssssssss"
       inkscape:connector-curvature="0"
       id="path3623"
       d="m 217.22297,158.07203 c -4.37342,-1.02141 -10.19086,5.40274 -11.40767,9.40966 -5.54383,18.25565 16.60943,9.45299 19.96305,23.41855 6.70931,27.93972 18.63253,38.49363 47.39644,34.45347 61.31528,-8.61231 145.02564,8.03897 198.6436,-9.5585 6.39695,-2.09948 16.52892,-18.48493 11.82214,-23.39799 -18.12456,-18.91888 -78.15286,-4.76835 -104.45619,-12.71428 -5.34958,-1.61605 -10.75655,-16.62079 -16.74413,-17.56042 -41.50983,-6.5141 -102.96806,5.81674 -145.21724,-4.05049 z"
       style="opacity:1;fill:#c0c0c0;fill-opacity:1;stroke:none;stroke-width:0.35433072;stroke-linecap:round;stroke-linejoin:round;stroke-miterlimit:4;stroke-dasharray:none;stroke-dashoffset:0;stroke-opacity:1" />
    <path
       sodipodi:nodetypes="cssssscc"
       inkscape:connector-curvature="0"
       id="path3625"
       d="m 142.11143,412.53971 c -2.03338,20.63276 11.11892,23.05112 28.42137,28.39637 9.50919,2.93767 24.69965,8.14166 34.52807,7.18568 24.64466,-2.39711 62.9497,0.5611 83.3531,-3.42891 14.35066,-2.80637 37.94332,-3.42073 37.38808,-23.41206 -0.15773,-5.6789 3.56307,-10.31288 -2.61507,-13.08865 -23.42229,-10.52338 -100.9593,-4.92303 -131.76526,-4.04121 -14.88314,2.48737 -49.32305,-3.24858 -49.31029,8.38878 z"
       style="opacity:1;fill:#c0c0c0;fill-opacity:1;stroke:none;stroke-width:0.35433072;stroke-linecap:round;stroke-linejoin:round;stroke-miterlimit:4;stroke-dasharray:none;stroke-dashoffset:0;stroke-opacity:1" />
    <path
       sodipodi:nodetypes="sssss"
       inkscape:connector-curvature="0"
       id="path3627"
       d="m 58.524958,464.90137 c -34.08184,5.10664 -10.97405,68.22739 10.61594,71.37205 56.215772,8.18803 114.159362,6.8538 132.396772,-5.27634 4.93927,-3.28522 27.16372,-41.91293 25.02302,-47.55569 C 212.28303,445.80638 94.47301,459.5151 58.524958,464.90137 Z"
       style="opacity:1;fill:#c0c0c0;fill-opacity:1;stroke:none;stroke-width:0.35433072;stroke-linecap:round;stroke-linejoin:round;stroke-miterlimit:4;stroke-dasharray:none;stroke-dashoffset:0;stroke-opacity:1" />
    <path
       sodipodi:nodetypes="sssss"
       inkscape:connector-curvature="0"
       id="path3629"
       d="m 188.46004,541.9163 c -25.28131,7.15629 -33.54386,35.23192 -6.0074,45.79276 9.00285,3.45278 62.39989,1.0703 67.47499,-9.97872 2.54975,-5.55111 -3.30266,-17.98808 -6.93252,-22.00788 -14.84416,-16.43879 -34.95514,-19.34859 -54.53507,-13.80616 z"
       style="opacity:1;fill:#c0c0c0;fill-opacity:1;stroke:none;stroke-width:0.35433072;stroke-linecap:round;stroke-linejoin:round;stroke-miterlimit:4;stroke-dasharray:none;stroke-dashoffset:0;stroke-opacity:1" />
    <path
       sodipodi:nodetypes="sssss"
       inkscape:connector-curvature="0"
       id="path3631"
       d="m 236.21133,581.73524 c -24.0547,17.34933 -8.26319,51.22375 14.79147,62.0324 30.85465,14.46551 97.76271,20.94401 125.92843,-6.69256 18.60556,-18.25603 31.82372,-55.11018 -3.38183,-56.96091 -26.11411,-1.3728 -121.39247,-9.87961 -137.33807,1.62107 z"
       style="opacity:1;fill:#c0c0c0;fill-opacity:1;stroke:none;stroke-width:0.35433072;stroke-linecap:round;stroke-linejoin:round;stroke-miterlimit:4;stroke-dasharray:none;stroke-dashoffset:0;stroke-opacity:1" />
  </g>
  <g
     style="display:inline"
     inkscape:groupmode="layer"
     id="layer3"
     inkscape:label="text"
     transform="translate(0,-70.866142)">
    <text
       id="text4219"
       y="334.40897"
       x="33.168972"
       style="color:#000000;font-style:normal;font-variant:normal;font-weight:normal;font-stretch:normal;font-size:17.5px;line-height:125%;font-family:Frenchpress;-inkscape-font-specification:Frenchpress;text-indent:0;text-align:start;text-decoration:none;text-decoration-line:none;text-decoration-style:solid;text-decoration-color:#000000;letter-spacing:0px;word-spacing:0px;text-transform:none;writing-mode:lr-tb;direction:ltr;baseline-shift:baseline;text-anchor:start;white-space:normal;clip-rule:nonzero;display:inline;overflow:visible;visibility:visible;opacity:1;isolation:auto;mix-blend-mode:normal;color-interpolation:sRGB;color-interpolation-filters:linearRGB;solid-color:#000000;solid-opacity:1;fill:#000000;fill-opacity:1;fill-rule:nonzero;stroke:none;stroke-width:1px;stroke-linecap:butt;stroke-linejoin:miter;stroke-miterlimit:4;stroke-dasharray:none;stroke-dashoffset:0;stroke-opacity:1;color-rendering:auto;image-rendering:auto;shape-rendering:auto;text-rendering:auto;enable-background:accumulate"
       xml:space="preserve"><tspan
         style="font-style:normal;font-variant:normal;font-weight:normal;font-stretch:normal;font-size:17.5px;font-family:Frenchpress;-inkscape-font-specification:Frenchpress"
         y="350.38882"
         x="33.168972"
         id="tspan4221"
         sodipodi:role="line" /></text>
    <flowRoot
       style="color:#000000;font-style:normal;font-variant:normal;font-weight:normal;font-stretch:normal;font-size:12.5px;line-height:125%;font-family:Cantarell;-inkscape-font-specification:Cantarell;text-indent:0;text-align:start;text-decoration:none;text-decoration-line:none;text-decoration-style:solid;text-decoration-color:#000000;letter-spacing:0px;word-spacing:0px;text-transform:none;writing-mode:lr-tb;direction:ltr;baseline-shift:baseline;text-anchor:start;white-space:normal;clip-rule:nonzero;display:inline;overflow:visible;visibility:visible;opacity:1;isolation:auto;mix-blend-mode:normal;color-interpolation:sRGB;color-interpolation-filters:linearRGB;solid-color:#000000;solid-opacity:1;fill:#000000;fill-opacity:1;fill-rule:nonzero;stroke:none;stroke-width:1px;stroke-linecap:butt;stroke-linejoin:miter;stroke-miterlimit:4;stroke-dasharray:none;stroke-dashoffset:0;stroke-opacity:1;color-rendering:auto;image-rendering:auto;shape-rendering:auto;text-rendering:auto;enable-background:accumulate"
       id="flowRoot4275"
       xml:space="preserve"
       transform="translate(-37.329684,34.478724)"><flowRegion
         id="flowRegion4277"><rect
           y="317.81778"
           x="70.866142"
           height="95.714287"
           width="200.56242"
           id="rect4279" /></flowRegion><flowPara
         id="flowPara4281" /></flowRoot>    <flowRoot
       transform="translate(-23.638191,-130.04297)"
       style="color:#000000;font-style:normal;font-variant:normal;font-weight:normal;font-stretch:normal;line-height:0.01%;font-family:Frenchpress;-inkscape-font-specification:Frenchpress;text-indent:0;text-align:center;text-decoration:none;text-decoration-line:none;text-decoration-style:solid;text-decoration-color:#000000;letter-spacing:0px;word-spacing:0px;text-transform:none;writing-mode:lr-tb;direction:ltr;baseline-shift:baseline;text-anchor:middle;white-space:normal;clip-rule:nonzero;display:inline;overflow:visible;visibility:visible;opacity:1;isolation:auto;mix-blend-mode:normal;color-interpolation:sRGB;color-interpolation-filters:linearRGB;solid-color:#000000;solid-opacity:1;fill:#000000;fill-opacity:1;fill-rule:nonzero;stroke:none;stroke-width:1px;stroke-linecap:butt;stroke-linejoin:miter;stroke-miterlimit:4;stroke-dasharray:none;stroke-dashoffset:0;stroke-opacity:1;color-rendering:auto;image-rendering:auto;shape-rendering:auto;text-rendering:auto;enable-background:accumulate"
       id="flowRoot3454"
       xml:space="preserve"><flowRegion
         id="flowRegion3456"><rect
           style="font-style:normal;font-variant:normal;font-weight:normal;font-stretch:normal;font-size:16.25000191px;line-height:110.00000238%;font-family:Frenchpress;-inkscape-font-specification:Frenchpress;text-align:center;text-anchor:middle"
           y="259.24634"
           x="70.866142"
           height="60.872681"
           width="144.02621"
           id="rect3458" /></flowRegion><flowPara
         style="font-style:normal;font-variant:normal;font-weight:normal;font-stretch:normal;font-size:16.25000191px;line-height:100%;font-family:Comili;-inkscape-font-specification:Comili"
         id="flowPara3460">Ce qui me manque le plus de ton époque ce sont les bestioles.</flowPara></flowRoot>    <flowRoot
       transform="translate(157.87788,-70.898956)"
       style="color:#000000;font-style:normal;font-variant:normal;font-weight:normal;font-stretch:normal;line-height:0.01%;font-family:Frenchpress;-inkscape-font-specification:Frenchpress;text-indent:0;text-align:center;text-decoration:none;text-decoration-line:none;text-decoration-style:solid;text-decoration-color:#000000;letter-spacing:0px;word-spacing:0px;text-transform:none;writing-mode:lr-tb;direction:ltr;baseline-shift:baseline;text-anchor:middle;white-space:normal;clip-rule:nonzero;display:inline;overflow:visible;visibility:visible;opacity:1;isolation:auto;mix-blend-mode:normal;color-interpolation:sRGB;color-interpolation-filters:linearRGB;solid-color:#000000;solid-opacity:1;fill:#000000;fill-opacity:1;fill-rule:nonzero;stroke:none;stroke-width:1px;stroke-linecap:butt;stroke-linejoin:miter;stroke-miterlimit:4;stroke-dasharray:none;stroke-dashoffset:0;stroke-opacity:1;color-rendering:auto;image-rendering:auto;shape-rendering:auto;text-rendering:auto;enable-background:accumulate"
       id="flowRoot3462"
       xml:space="preserve"><flowRegion
         id="flowRegion3464"><rect
           style="font-style:normal;font-variant:normal;font-weight:normal;font-stretch:normal;font-size:16.25000191px;line-height:110.00000238%;font-family:Frenchpress;-inkscape-font-specification:Frenchpress;text-align:center;text-anchor:middle"
           y="259.24634"
           x="70.866142"
           height="41.875622"
           width="255.24992"
           id="rect3466" /></flowRegion><flowPara
         style="font-style:normal;font-variant:normal;font-weight:normal;font-stretch:normal;font-size:16.25000191px;line-height:100%;font-family:Comili;-inkscape-font-specification:Comili"
         id="flowPara3468">pas les chats-lynx OGM que tout le monde a chez soi aujourd’hui.</flowPara></flowRoot>    <flowRoot
       xml:space="preserve"
       id="flowRoot3500"
       style="color:#000000;font-style:normal;font-variant:normal;font-weight:normal;font-stretch:normal;line-height:0.01%;font-family:Frenchpress;-inkscape-font-specification:Frenchpress;text-indent:0;text-align:center;text-decoration:none;text-decoration-line:none;text-decoration-style:solid;text-decoration-color:#000000;letter-spacing:0px;word-spacing:0px;text-transform:none;writing-mode:lr-tb;direction:ltr;baseline-shift:baseline;text-anchor:middle;white-space:normal;clip-rule:nonzero;display:inline;overflow:visible;visibility:visible;opacity:1;isolation:auto;mix-blend-mode:normal;color-interpolation:sRGB;color-interpolation-filters:linearRGB;solid-color:#000000;solid-opacity:1;fill:#000000;fill-opacity:1;fill-rule:nonzero;stroke:none;stroke-width:1px;stroke-linecap:butt;stroke-linejoin:miter;stroke-miterlimit:4;stroke-dasharray:none;stroke-dashoffset:0;stroke-opacity:1;color-rendering:auto;image-rendering:auto;shape-rendering:auto;text-rendering:auto;enable-background:accumulate"
       transform="translate(122.18296,-93.941596)"><flowRegion
         id="flowRegion3502"><rect
           id="rect3504"
           width="188.62184"
           height="29.531359"
           x="70.866142"
           y="259.24634"
           style="font-style:normal;font-variant:normal;font-weight:normal;font-stretch:normal;font-size:16.25000191px;line-height:110.00000238%;font-family:Frenchpress;-inkscape-font-specification:Frenchpress;text-align:center;text-anchor:middle" /></flowRegion><flowPara
         id="flowPara3506"
         style="font-style:normal;font-variant:normal;font-weight:normal;font-stretch:normal;font-size:16.25000191px;line-height:100%;font-family:Comili;-inkscape-font-specification:Comili">Je veux dire les vraies,</flowPara></flowRoot>    <flowRoot
       transform="translate(72.093708,150.62087)"
       style="color:#000000;font-style:normal;font-variant:normal;font-weight:normal;font-stretch:normal;line-height:0.01%;font-family:Frenchpress;-inkscape-font-specification:Frenchpress;text-indent:0;text-align:center;text-decoration:none;text-decoration-line:none;text-decoration-style:solid;text-decoration-color:#000000;letter-spacing:0px;word-spacing:0px;text-transform:none;writing-mode:lr-tb;direction:ltr;baseline-shift:baseline;text-anchor:middle;white-space:normal;clip-rule:nonzero;display:inline;overflow:visible;visibility:visible;opacity:1;isolation:auto;mix-blend-mode:normal;color-interpolation:sRGB;color-interpolation-filters:linearRGB;solid-color:#000000;solid-opacity:1;fill:#000000;fill-opacity:1;fill-rule:nonzero;stroke:none;stroke-width:1px;stroke-linecap:butt;stroke-linejoin:miter;stroke-miterlimit:4;stroke-dasharray:none;stroke-dashoffset:0;stroke-opacity:1;color-rendering:auto;image-rendering:auto;shape-rendering:auto;text-rendering:auto;enable-background:accumulate"
       id="flowRoot3470"
       xml:space="preserve"><flowRegion
         id="flowRegion3472"><rect
           style="font-style:normal;font-variant:normal;font-weight:normal;font-stretch:normal;font-size:16.25000191px;line-height:110.00000238%;font-family:Frenchpress;-inkscape-font-specification:Frenchpress;text-align:center;text-anchor:middle"
           y="259.24634"
           x="70.866142"
           height="83.298256"
           width="188.69872"
           id="rect3474" /></flowRegion><flowPara
         style="font-style:normal;font-variant:normal;font-weight:normal;font-stretch:normal;font-size:16.25000191px;line-height:100%;font-family:Comili;-inkscape-font-specification:Comili"
         id="flowPara3476">Ils sont beaux mais c’est pas pareil.</flowPara></flowRoot>    <flowRoot
       transform="translate(-53.602712,222.16356)"
       style="color:#000000;font-style:normal;font-variant:normal;font-weight:normal;font-stretch:normal;line-height:0.01%;font-family:Frenchpress;-inkscape-font-specification:Frenchpress;text-indent:0;text-align:center;text-decoration:none;text-decoration-line:none;text-decoration-style:solid;text-decoration-color:#000000;letter-spacing:0px;word-spacing:0px;text-transform:none;writing-mode:lr-tb;direction:ltr;baseline-shift:baseline;text-anchor:middle;white-space:normal;clip-rule:nonzero;display:inline;overflow:visible;visibility:visible;opacity:1;isolation:auto;mix-blend-mode:normal;color-interpolation:sRGB;color-interpolation-filters:linearRGB;solid-color:#000000;solid-opacity:1;fill:#000000;fill-opacity:1;fill-rule:nonzero;stroke:none;stroke-width:1px;stroke-linecap:butt;stroke-linejoin:miter;stroke-miterlimit:4;stroke-dasharray:none;stroke-dashoffset:0;stroke-opacity:1;color-rendering:auto;image-rendering:auto;shape-rendering:auto;text-rendering:auto;enable-background:accumulate"
       id="flowRoot3508"
       xml:space="preserve"><flowRegion
         id="flowRegion3510"><rect
           style="font-style:normal;font-variant:normal;font-weight:normal;font-stretch:normal;font-size:16.25000191px;line-height:110.00000238%;font-family:Frenchpress;-inkscape-font-specification:Frenchpress;text-align:center;text-anchor:middle"
           y="247.81584"
           x="89.558014"
           height="63.710892"
           width="198.78325"
           id="rect3512" /></flowRegion><flowPara
         style="font-style:normal;font-variant:normal;font-weight:normal;font-stretch:normal;font-size:16.25000191px;line-height:100%;font-family:Comili;-inkscape-font-specification:Comili"
         id="flowPara3514">Pas non plus les espèces envahissantes comme ces moustiques qui nous pourrissent la vie.</flowPara></flowRoot>    <flowRoot
       transform="translate(95.087843,290.50268)"
       style="color:#000000;font-style:normal;font-variant:normal;font-weight:normal;font-stretch:normal;line-height:0.01%;font-family:Frenchpress;-inkscape-font-specification:Frenchpress;text-indent:0;text-align:center;text-decoration:none;text-decoration-line:none;text-decoration-style:solid;text-decoration-color:#000000;letter-spacing:0px;word-spacing:0px;text-transform:none;writing-mode:lr-tb;direction:ltr;baseline-shift:baseline;text-anchor:middle;white-space:normal;clip-rule:nonzero;display:inline;overflow:visible;visibility:visible;opacity:1;isolation:auto;mix-blend-mode:normal;color-interpolation:sRGB;color-interpolation-filters:linearRGB;solid-color:#000000;solid-opacity:1;fill:#000000;fill-opacity:1;fill-rule:nonzero;stroke:none;stroke-width:1px;stroke-linecap:butt;stroke-linejoin:miter;stroke-miterlimit:4;stroke-dasharray:none;stroke-dashoffset:0;stroke-opacity:1;color-rendering:auto;image-rendering:auto;shape-rendering:auto;text-rendering:auto;enable-background:accumulate"
       id="flowRoot3563"
       xml:space="preserve"><flowRegion
         id="flowRegion3565"><rect
           style="font-style:normal;font-variant:normal;font-weight:normal;font-stretch:normal;font-size:16.25000191px;line-height:110.00000238%;font-family:Frenchpress;-inkscape-font-specification:Frenchpress;text-align:center;text-anchor:middle"
           y="259.24634"
           x="70.866142"
           height="44.043884"
           width="81.80056"
           id="rect3567" /></flowRegion><flowPara
         style="font-style:normal;font-variant:normal;font-weight:normal;font-stretch:normal;font-size:16.25000191px;line-height:100%;font-family:Comili;-inkscape-font-specification:Comili"
         id="flowPara3569">Non, les sauvages.</flowPara></flowRoot>    <flowRoot
       xml:space="preserve"
       id="flowRoot3544"
       style="color:#000000;font-style:normal;font-variant:normal;font-weight:normal;font-stretch:normal;font-size:16.25000191px;line-height:110.00000238%;font-family:Frenchpress;-inkscape-font-specification:Frenchpress;text-indent:0;text-align:center;text-decoration:none;text-decoration-line:none;text-decoration-style:solid;text-decoration-color:#000000;letter-spacing:0px;word-spacing:0px;text-transform:none;writing-mode:lr-tb;direction:ltr;baseline-shift:baseline;text-anchor:middle;white-space:normal;clip-rule:nonzero;display:inline;overflow:visible;visibility:visible;opacity:1;isolation:auto;mix-blend-mode:normal;color-interpolation:sRGB;color-interpolation-filters:linearRGB;solid-color:#000000;solid-opacity:1;fill:#000000;fill-opacity:1;fill-rule:nonzero;stroke:none;stroke-width:1px;stroke-linecap:butt;stroke-linejoin:miter;stroke-miterlimit:4;stroke-dasharray:none;stroke-dashoffset:0;stroke-opacity:1;color-rendering:auto;image-rendering:auto;shape-rendering:auto;text-rendering:auto;enable-background:accumulate"
       transform="translate(344.03604,157.47794)"><flowRegion
         id="flowRegion3546"><rect
           id="rect3548"
           width="81.80056"
           height="44.043884"
           x="70.866142"
           y="259.24634"
           style="font-style:normal;font-variant:normal;font-weight:normal;font-stretch:normal;font-size:16.25000191px;line-height:110.00000238%;font-family:Frenchpress;-inkscape-font-specification:Frenchpress;text-align:center;text-anchor:middle" /></flowRegion><flowPara
         id="flowPara3550"
         style="font-style:normal;font-variant:normal;font-weight:normal;font-stretch:normal;font-size:16.25000191px;line-height:100%;font-family:Comili;-inkscape-font-specification:Comili" /></flowRoot>    <flowRoot
       transform="translate(160.19948,322.52585)"
       style="color:#000000;font-style:normal;font-variant:normal;font-weight:normal;font-stretch:normal;line-height:0.01%;font-family:Frenchpress;-inkscape-font-specification:Frenchpress;text-indent:0;text-align:center;text-decoration:none;text-decoration-line:none;text-decoration-style:solid;text-decoration-color:#000000;letter-spacing:0px;word-spacing:0px;text-transform:none;writing-mode:lr-tb;direction:ltr;baseline-shift:baseline;text-anchor:middle;white-space:normal;clip-rule:nonzero;display:inline;overflow:visible;visibility:visible;opacity:1;isolation:auto;mix-blend-mode:normal;color-interpolation:sRGB;color-interpolation-filters:linearRGB;solid-color:#000000;solid-opacity:1;fill:#000000;fill-opacity:1;fill-rule:nonzero;stroke:none;stroke-width:1px;stroke-linecap:butt;stroke-linejoin:miter;stroke-miterlimit:4;stroke-dasharray:none;stroke-dashoffset:0;stroke-opacity:1;color-rendering:auto;image-rendering:auto;shape-rendering:auto;text-rendering:auto;enable-background:accumulate"
       id="flowRoot3516"
       xml:space="preserve"><flowRegion
         id="flowRegion3518"><rect
           style="font-style:normal;font-variant:normal;font-weight:normal;font-stretch:normal;font-size:16.25000191px;line-height:110.00000238%;font-family:Frenchpress;-inkscape-font-specification:Frenchpress;text-align:center;text-anchor:middle"
           y="259.24634"
           x="70.866142"
           height="77.064079"
           width="158.1394"
           id="rect3520" /></flowRegion><flowPara
         style="font-style:normal;font-variant:normal;font-weight:normal;font-stretch:normal;font-size:16.25000191px;line-height:100%;font-family:Comili;-inkscape-font-specification:Comili"
         id="flowPara3522">Pourtant je n’y accordais pas beaucoup d’attention quand j’étais jeune.</flowPara></flowRoot>  </g>
  <g
     style="display:inline"
     id="printing-marks"
     inkscape:label="printing marks"
     inkscape:groupmode="layer"
     sodipodi:insensitive="true">
    <g
       id="CropMarks"
       inkscape:label="CropMarks">
      <path
         inkscape:connector-curvature="0"
         d="M 0,-7.0866142 0,-42.519685"
         id="cropTL1"
         style="fill:none;stroke:#000000;stroke-width:0.25" />
      <path
         inkscape:connector-curvature="0"
         d="M -7.0866142,0 -42.519685,0"
         id="cropTL2"
         style="fill:none;stroke:#000000;stroke-width:0.25" />
      <path
         inkscape:connector-curvature="0"
         d="m 524.40945,-7.0866142 0,-35.4330708"
         id="cropTR1"
         style="fill:none;stroke:#000000;stroke-width:0.25" />
      <path
         inkscape:connector-curvature="0"
         d="m 531.49606,0 35.43307,0"
         id="cropTR2"
         style="fill:none;stroke:#000000;stroke-width:0.25" />
      <path
         inkscape:connector-curvature="0"
         d="m 0,751.1811 0,35.43307"
         id="cropBL1"
         style="fill:none;stroke:#000000;stroke-width:0.25" />
      <path
         inkscape:connector-curvature="0"
         d="m -7.0866142,744.09449 -35.4330708,0"
         id="cropBL2"
         style="fill:none;stroke:#000000;stroke-width:0.25" />
      <path
         inkscape:connector-curvature="0"
         d="m 524.40945,751.1811 0,35.43307"
         id="cropBR1"
         style="fill:none;stroke:#000000;stroke-width:0.25" />
      <path
         inkscape:connector-curvature="0"
         d="m 531.49606,744.09449 35.43307,0"
         id="cropBR2"
         style="fill:none;stroke:#000000;stroke-width:0.25" />
    </g>
    <g
       id="RegistrationMarks"
       inkscape:label="RegistrationMarks">
      <g
         id="regMarkL">
        <path
           inkscape:connector-curvature="0"
           d="m 0,17.716535 -3.5433071,0 L 14.173228,0 -3.5433071,-17.716535 0,-17.716535 17.716535,0 0,17.716535 Z"
           style="fill:#000000;fill-opacity:1;stroke:none"
           transform="translate(-35.433071,318.89764)"
           id="path3448" />
        <path
           inkscape:connector-curvature="0"
           d="m -3.5433071,17.716535 -3.5433071,0 L 10.629921,0 -7.0866142,-17.716535 l 3.5433071,0 L 14.173228,0 -3.5433071,17.716535 Z"
           style="fill:#00ffff;fill-opacity:1;stroke:none"
           transform="translate(-35.433071,318.89764)"
           id="path3450" />
        <path
           inkscape:connector-curvature="0"
           d="m -7.0866142,17.716535 -3.5433068,0 L 7.0866142,0 -10.629921,-17.716535 l 3.5433068,0 L 10.629921,0 -7.0866142,17.716535 Z"
           style="fill:#ff00ff;fill-opacity:1;stroke:none"
           transform="translate(-35.433071,318.89764)"
           id="path3452" />
        <path
           inkscape:connector-curvature="0"
           d="m -10.629921,17.716535 -3.543307,0 L 3.5433071,0 -14.173228,-17.716535 l 3.543307,0 L 7.0866142,0 -10.629921,17.716535 Z"
           style="fill:#ffff00;fill-opacity:1;stroke:none"
           transform="translate(-35.433071,318.89764)"
           id="path3454" />
        <path
           inkscape:connector-curvature="0"
           d="m -14.173228,17.716535 -3.543307,0 L 0,0 l -17.716535,-17.716535 3.543307,0 L 3.5433071,0 -14.173228,17.716535 Z"
           style="fill:#000000;fill-opacity:1;stroke:none"
           transform="translate(-35.433071,318.89764)"
           id="path3456" />
      </g>
      <g
         id="regMarkR">
        <path
           inkscape:connector-curvature="0"
           d="m 0,17.716535 -3.5433071,0 L 14.173228,0 -3.5433071,-17.716535 0,-17.716535 17.716535,0 0,17.716535 Z"
           style="fill:#000000;fill-opacity:1;stroke:none"
           transform="matrix(-1,0,0,-1,559.84252,318.89764)"
           id="path3459" />
        <path
           inkscape:connector-curvature="0"
           d="m -3.5433071,17.716535 -3.5433071,0 L 10.629921,0 -7.0866142,-17.716535 l 3.5433071,0 L 14.173228,0 -3.5433071,17.716535 Z"
           style="fill:#00ffff;fill-opacity:1;stroke:none"
           transform="matrix(-1,0,0,-1,559.84252,318.89764)"
           id="path3461" />
        <path
           inkscape:connector-curvature="0"
           d="m -7.0866142,17.716535 -3.5433068,0 L 7.0866142,0 -10.629921,-17.716535 l 3.5433068,0 L 10.629921,0 -7.0866142,17.716535 Z"
           style="fill:#ff00ff;fill-opacity:1;stroke:none"
           transform="matrix(-1,0,0,-1,559.84252,318.89764)"
           id="path3463" />
        <path
           inkscape:connector-curvature="0"
           d="m -10.629921,17.716535 -3.543307,0 L 3.5433071,0 -14.173228,-17.716535 l 3.543307,0 L 7.0866142,0 -10.629921,17.716535 Z"
           style="fill:#ffff00;fill-opacity:1;stroke:none"
           transform="matrix(-1,0,0,-1,559.84252,318.89764)"
           id="path3465" />
        <path
           inkscape:connector-curvature="0"
           d="m -14.173228,17.716535 -3.543307,0 L 0,0 l -17.716535,-17.716535 3.543307,0 L 3.5433071,0 -14.173228,17.716535 Z"
           style="fill:#000000;fill-opacity:1;stroke:none"
           transform="matrix(-1,0,0,-1,559.84252,318.89764)"
           id="path3467" />
      </g>
      <g
         id="regMarkT">
        <path
           inkscape:connector-curvature="0"
           d="m 0,17.716535 -3.5433071,0 L 14.173228,0 -3.5433071,-17.716535 0,-17.716535 17.716535,0 0,17.716535 Z"
           style="fill:#000000;fill-opacity:1;stroke:none"
           transform="matrix(0,1,-1,0,262.20472,-35.433071)"
           id="path3470" />
        <path
           inkscape:connector-curvature="0"
           d="m -3.5433071,17.716535 -3.5433071,0 L 10.629921,0 -7.0866142,-17.716535 l 3.5433071,0 L 14.173228,0 -3.5433071,17.716535 Z"
           style="fill:#00ffff;fill-opacity:1;stroke:none"
           transform="matrix(0,1,-1,0,262.20472,-35.433071)"
           id="path3472" />
        <path
           inkscape:connector-curvature="0"
           d="m -7.0866142,17.716535 -3.5433068,0 L 7.0866142,0 -10.629921,-17.716535 l 3.5433068,0 L 10.629921,0 -7.0866142,17.716535 Z"
           style="fill:#ff00ff;fill-opacity:1;stroke:none"
           transform="matrix(0,1,-1,0,262.20472,-35.433071)"
           id="path3474" />
        <path
           inkscape:connector-curvature="0"
           d="m -10.629921,17.716535 -3.543307,0 L 3.5433071,0 -14.173228,-17.716535 l 3.543307,0 L 7.0866142,0 -10.629921,17.716535 Z"
           style="fill:#ffff00;fill-opacity:1;stroke:none"
           transform="matrix(0,1,-1,0,262.20472,-35.433071)"
           id="path3476" />
        <path
           inkscape:connector-curvature="0"
           d="m -14.173228,17.716535 -3.543307,0 L 0,0 l -17.716535,-17.716535 3.543307,0 L 3.5433071,0 -14.173228,17.716535 Z"
           style="fill:#000000;fill-opacity:1;stroke:none"
           transform="matrix(0,1,-1,0,262.20472,-35.433071)"
           id="path3478" />
      </g>
      <g
         id="regMarkB">
        <path
           inkscape:connector-curvature="0"
           d="m 0,17.716535 -3.5433071,0 L 14.173228,0 -3.5433071,-17.716535 0,-17.716535 17.716535,0 0,17.716535 Z"
           style="fill:#000000;fill-opacity:1;stroke:none"
           transform="matrix(0,-1,1,0,262.20472,779.52756)"
           id="path3481" />
        <path
           inkscape:connector-curvature="0"
           d="m -3.5433071,17.716535 -3.5433071,0 L 10.629921,0 -7.0866142,-17.716535 l 3.5433071,0 L 14.173228,0 -3.5433071,17.716535 Z"
           style="fill:#00ffff;fill-opacity:1;stroke:none"
           transform="matrix(0,-1,1,0,262.20472,779.52756)"
           id="path3483" />
        <path
           inkscape:connector-curvature="0"
           d="m -7.0866142,17.716535 -3.5433068,0 L 7.0866142,0 -10.629921,-17.716535 l 3.5433068,0 L 10.629921,0 -7.0866142,17.716535 Z"
           style="fill:#ff00ff;fill-opacity:1;stroke:none"
           transform="matrix(0,-1,1,0,262.20472,779.52756)"
           id="path3485" />
        <path
           inkscape:connector-curvature="0"
           d="m -10.629921,17.716535 -3.543307,0 L 3.5433071,0 -14.173228,-17.716535 l 3.543307,0 L 7.0866142,0 -10.629921,17.716535 Z"
           style="fill:#ffff00;fill-opacity:1;stroke:none"
           transform="matrix(0,-1,1,0,262.20472,779.52756)"
           id="path3487" />
        <path
           inkscape:connector-curvature="0"
           d="m -14.173228,17.716535 -3.543307,0 L 0,0 l -17.716535,-17.716535 3.543307,0 L 3.5433071,0 -14.173228,17.716535 Z"
           style="fill:#000000;fill-opacity:1;stroke:none"
           transform="matrix(0,-1,1,0,262.20472,779.52756)"
           id="path3489" />
      </g>
    </g>
  </g>
</svg>
