<?xml version="1.0" encoding="UTF-8" standalone="no"?>
<!-- Created with Inkscape (http://www.inkscape.org/) -->

<svg
   xmlns:dc="http://purl.org/dc/elements/1.1/"
   xmlns:cc="http://creativecommons.org/ns#"
   xmlns:rdf="http://www.w3.org/1999/02/22-rdf-syntax-ns#"
   xmlns:svg="http://www.w3.org/2000/svg"
   xmlns="http://www.w3.org/2000/svg"
   xmlns:xlink="http://www.w3.org/1999/xlink"
   xmlns:sodipodi="http://sodipodi.sourceforge.net/DTD/sodipodi-0.dtd"
   xmlns:inkscape="http://www.inkscape.org/namespaces/inkscape"
   width="148mm"
   height="210mm"
   viewBox="0 0 524.40946 744.09448"
   id="svg2"
   version="1.1"
   inkscape:version="0.92.0 r"
   sodipodi:docname="23.svg"
   inkscape:export-filename="/home/nylnook/Crea/BD/storyboard/test mise en page/storyboard2054-p4.png"
   inkscape:export-xdpi="600"
   inkscape:export-ydpi="600">
  <sodipodi:namedview
     id="base"
     pagecolor="#ffffff"
     bordercolor="#666666"
     borderopacity="1.0"
     inkscape:pageopacity="0.0"
     inkscape:pageshadow="2"
     inkscape:zoom="1.4553777"
     inkscape:cx="280.40973"
     inkscape:cy="381.56409"
     inkscape:document-units="mm"
     inkscape:current-layer="layer3"
     showgrid="false"
     units="mm"
     inkscape:window-width="1280"
     inkscape:window-height="1371"
     inkscape:window-x="1280"
     inkscape:window-y="27"
     inkscape:window-maximized="0"
     showguides="true"
     inkscape:guide-bbox="true"
     inkscape:snap-bbox="true"
     inkscape:bbox-paths="false"
     inkscape:bbox-nodes="true"
     borderlayer="true"
     inkscape:snap-global="false">
    <sodipodi:guide
       inkscape:locked="false"
       position="-7.0866147,0"
       orientation="1,0"
       id="guide7382"
       inkscape:label=""
       inkscape:color="rgb(0,0,255)" />
    <sodipodi:guide
       inkscape:locked="false"
       position="531.4961,0"
       orientation="1,0"
       id="guide7384"
       inkscape:label=""
       inkscape:color="rgb(0,0,255)" />
    <sodipodi:guide
       inkscape:locked="false"
       position="0,-7.0866142"
       orientation="0,1"
       id="guide7386"
       inkscape:label=""
       inkscape:color="rgb(0,0,255)" />
    <sodipodi:guide
       inkscape:locked="false"
       position="0,751.1811"
       orientation="0,1"
       id="guide7388"
       inkscape:label=""
       inkscape:color="rgb(0,0,255)" />
    <sodipodi:guide
       inkscape:locked="false"
       position="35.433073,0"
       orientation="1,0"
       id="guide7390"
       inkscape:label=""
       inkscape:color="rgb(0,0,255)" />
    <sodipodi:guide
       inkscape:locked="false"
       position="0,708.66142"
       orientation="0,1"
       id="guide7392"
       inkscape:label=""
       inkscape:color="rgb(0,0,255)" />
    <sodipodi:guide
       inkscape:locked="false"
       position="488.97641,0"
       orientation="1,0"
       id="guide7394"
       inkscape:label=""
       inkscape:color="rgb(0,0,255)" />
    <sodipodi:guide
       inkscape:locked="false"
       position="0,35.433071"
       orientation="0,1"
       id="guide7396"
       inkscape:label=""
       inkscape:color="rgb(0,0,255)" />
  </sodipodi:namedview>
  <defs
     id="defs4">
    <inkscape:path-effect
       bendpath-nodetypes="cc"
       vertical="false"
       scale_y_rel="false"
       prop_scale="1"
       bendpath="m 314.19757,521.41318 c 24.81495,20.67912 86.16539,30.72327 141.70362,-4.13582"
       is_visible="true"
       id="path-effect3512"
       effect="bend_path" />
    <inkscape:path-effect
       bendpath-nodetypes="cc"
       vertical="false"
       scale_y_rel="false"
       prop_scale="1"
       bendpath="m 299.783,464.01523 c 50.22073,-30.48531 95.94109,-25.19865 156.20597,-2.38983"
       is_visible="true"
       id="path-effect3499"
       effect="bend_path" />
    <inkscape:path-effect
       bendpath-nodetypes="cc"
       vertical="false"
       scale_y_rel="false"
       prop_scale="1"
       bendpath="m 255.464,658.14956 c 26,-2 48.45873,3 64.95873,20"
       is_visible="true"
       id="path-effect3609"
       effect="bend_path" />
    <inkscape:path-effect
       bendpath-nodetypes="cc"
       vertical="false"
       scale_y_rel="false"
       prop_scale="1"
       bendpath="m 396.71471,421.683 c 33,-10 69.06701,-7 85.06701,6.5"
       is_visible="true"
       id="path-effect3590"
       effect="bend_path" />
    <clipPath
       id="clipPath5115"
       clipPathUnits="userSpaceOnUse">
      <rect
         style="opacity:0.5;fill:#000000;fill-opacity:1;stroke:none;stroke-width:10.62992096;stroke-linecap:round;stroke-linejoin:round;stroke-miterlimit:4;stroke-dasharray:none;stroke-dashoffset:4.0999999;stroke-opacity:1"
         id="rect5117"
         width="538.5827"
         height="419.32443"
         x="28.346457"
         y="604.69122" />
    </clipPath>
    <clipPath
       id="clipPath5056"
       clipPathUnits="userSpaceOnUse">
      <path
         inkscape:connector-curvature="0"
         style="display:inline;opacity:0.5;fill:#000000;fill-opacity:1;stroke:none;stroke-width:1;stroke-linecap:round;stroke-linejoin:round;stroke-miterlimit:4;stroke-dasharray:none;stroke-dashoffset:0;stroke-opacity:1"
         d="m 70.866142,594.69339 144.095668,0 0,-286.42578 -144.095668,0 z"
         id="path5058"
         sodipodi:nodetypes="ccccc" />
    </clipPath>
    <clipPath
       id="clipPath5122"
       clipPathUnits="userSpaceOnUse">
      <path
         sodipodi:nodetypes="ccccc"
         id="path5124"
         d="m 225.58995,594.69339 144.09567,0 0,-286.42578 -144.09567,0 z"
         style="display:inline;opacity:0.5;fill:#000000;fill-opacity:1;stroke:none;stroke-width:1;stroke-linecap:round;stroke-linejoin:round;stroke-miterlimit:4;stroke-dasharray:none;stroke-dashoffset:0;stroke-opacity:1"
         inkscape:connector-curvature="0" />
    </clipPath>
    <clipPath
       id="clipPath5129"
       clipPathUnits="userSpaceOnUse">
      <path
         inkscape:connector-curvature="0"
         style="display:inline;opacity:0.5;fill:#000000;fill-opacity:1;stroke:none;stroke-width:1;stroke-linecap:round;stroke-linejoin:round;stroke-miterlimit:4;stroke-dasharray:none;stroke-dashoffset:0;stroke-opacity:1"
         d="m 380.31378,594.69339 144.09567,0 0,-286.42578 -144.09567,0 z"
         id="path5131"
         sodipodi:nodetypes="ccccc" />
    </clipPath>
    <clipPath
       id="clipPath3564"
       clipPathUnits="userSpaceOnUse">
      <path
         style="opacity:0.5;fill:#000000;fill-opacity:1;stroke:none;stroke-width:0.35433072;stroke-linecap:round;stroke-linejoin:round;stroke-miterlimit:4;stroke-dasharray:none;stroke-dashoffset:0;stroke-opacity:1"
         d="m 35.433075,625.57288 0,-281.87223 303.857945,0 0,175.55836 -114.00242,106.42574 z"
         id="path3566"
         inkscape:connector-curvature="0"
         sodipodi:nodetypes="cccccc" />
    </clipPath>
    <clipPath
       id="clipPath3568"
       clipPathUnits="userSpaceOnUse">
      <path
         sodipodi:nodetypes="cccccc"
         inkscape:connector-curvature="0"
         id="path3570"
         d="m 488.97643,529.8236 0,217.0441 -233.9733,0 0,-135.18149 87.78287,-81.94875 z"
         style="opacity:0.5;fill:#000000;fill-opacity:1;stroke:none;stroke-width:0.35433072;stroke-linecap:round;stroke-linejoin:round;stroke-miterlimit:4;stroke-dasharray:none;stroke-dashoffset:0;stroke-opacity:1" />
    </clipPath>
    <clipPath
       id="clipPath3539"
       clipPathUnits="userSpaceOnUse">
      <rect
         y="505.45435"
         x="622.36469"
         height="308.71356"
         width="453.54337"
         id="rect3541"
         style="opacity:0.5;fill:#272f3c;fill-opacity:1;stroke:none;stroke-width:0.35433072;stroke-linecap:round;stroke-linejoin:round;stroke-miterlimit:4;stroke-dasharray:none;stroke-dashoffset:0;stroke-opacity:1" />
    </clipPath>
    <clipPath
       id="clipPath3556"
       clipPathUnits="userSpaceOnUse">
      <path
         style="opacity:0.5;fill:#000000;fill-opacity:1;stroke:none;stroke-width:0.35433072;stroke-linecap:round;stroke-linejoin:round;stroke-miterlimit:4;stroke-dasharray:none;stroke-dashoffset:0;stroke-opacity:1"
         d="m 488.97643,812.57452 -203.48715,0 0,90.40334 c 20.06985,81.61738 0,113.08374 0,113.08374 l 203.48715,0 z"
         id="path3558"
         inkscape:connector-curvature="0"
         sodipodi:nodetypes="cccccc" />
    </clipPath>
    <clipPath
       id="clipPath3560"
       clipPathUnits="userSpaceOnUse">
      <path
         sodipodi:nodetypes="cccccc"
         inkscape:connector-curvature="0"
         id="path3562"
         d="m 35.433071,813.44189 203.487149,0 0,90.40334 c -20.06985,81.61738 0,113.08377 0,113.08377 l -203.487149,0 z"
         style="opacity:0.5;fill:#000000;fill-opacity:1;stroke:none;stroke-width:0.35433072;stroke-linecap:round;stroke-linejoin:round;stroke-miterlimit:4;stroke-dasharray:none;stroke-dashoffset:0;stroke-opacity:1" />
    </clipPath>
    <clipPath
       id="clipPath3559"
       clipPathUnits="userSpaceOnUse">
      <rect
         y="557.38965"
         x="35.433071"
         height="187.31729"
         width="199.31833"
         id="rect3561"
         style="opacity:0.5;fill:#000000;fill-opacity:1;stroke:none;stroke-width:0.35433072;stroke-linecap:round;stroke-linejoin:round;stroke-miterlimit:4;stroke-dasharray:none;stroke-dashoffset:0;stroke-opacity:1" />
    </clipPath>
    <clipPath
       id="clipPath3585"
       clipPathUnits="userSpaceOnUse">
      <path
         sodipodi:nodetypes="cccccc"
         inkscape:connector-curvature="0"
         id="path3587"
         d="m 168.33847,343.70065 363.15762,0 0,363.15763 -141.81639,0 -221.34123,-268.5192 z"
         style="opacity:0.5;fill:#000000;fill-opacity:1;stroke:none;stroke-width:0.35433072;stroke-linecap:round;stroke-linejoin:round;stroke-miterlimit:4;stroke-dasharray:none;stroke-dashoffset:0;stroke-opacity:1" />
    </clipPath>
    <clipPath
       id="clipPath3523"
       clipPathUnits="userSpaceOnUse">
      <path
         sodipodi:nodetypes="cccccc"
         inkscape:connector-curvature="0"
         id="path3525"
         d="m 35.433071,620.74042 282.275759,0 0,162.87402 -75.66178,119.40173 -206.613979,0 z"
         style="opacity:0.5;fill:#000000;fill-opacity:1;stroke:none;stroke-width:0.35433072;stroke-linecap:round;stroke-linejoin:round;stroke-miterlimit:4;stroke-dasharray:none;stroke-dashoffset:0;stroke-opacity:1" />
    </clipPath>
  </defs>
  <metadata
     id="metadata7">
    <rdf:RDF>
      <cc:Work
         rdf:about="">
        <dc:format>image/svg+xml</dc:format>
        <dc:type
           rdf:resource="http://purl.org/dc/dcmitype/StillImage" />
        <dc:title />
      </cc:Work>
    </rdf:RDF>
  </metadata>
  <g
     transform="translate(0,-308.26761)"
     id="layer1"
     inkscape:groupmode="layer"
     inkscape:label="artwork"
     style="display:inline">
    <rect
       transform="matrix(0,-1,1,0,0,0)"
       y="15.020831"
       x="-1059.4487"
       height="493.51733"
       width="90.801155"
       id="rect3607"
       style="opacity:1;fill:#b0b0b0;fill-opacity:1;stroke:none;stroke-width:0.35433072;stroke-linecap:round;stroke-linejoin:round;stroke-miterlimit:4;stroke-dasharray:none;stroke-dashoffset:0;stroke-opacity:1" />
    <image
       sodipodi:absref="/home/nylnook/Crea/BD/Mokatori/storyboard/layout/storyboard-ep1-fr/../c_068.jpg"
       xlink:href="../c_068.jpg"
       y="371.91058"
       x="-44.794006"
       id="image3493"
       preserveAspectRatio="none"
       height="614.40009"
       width="614.40009" />
    <rect
       transform="matrix(0,-1,1,0,0,0)"
       style="opacity:1;fill:#ffffff;fill-opacity:1;stroke:none;stroke-width:0.35433072;stroke-linecap:round;stroke-linejoin:round;stroke-miterlimit:4;stroke-dasharray:none;stroke-dashoffset:0;stroke-opacity:1"
       id="rect3534"
       width="8.4567852"
       height="496.06305"
       x="-766.17133"
       y="-541.21295"
       rx="0"
       ry="0" />
    <rect
       ry="0"
       rx="0"
       y="52.631771"
       x="824.69397"
       height="538.58276"
       width="12.591586"
       id="rect3469"
       style="opacity:1;fill:#ffffff;fill-opacity:1;stroke:none;stroke-width:0.35433072;stroke-linecap:round;stroke-linejoin:round;stroke-miterlimit:4;stroke-dasharray:none;stroke-dashoffset:0;stroke-opacity:1"
       transform="matrix(0,1,-1,0,0,0)" />
    <rect
       ry="0"
       rx="0"
       y="-4.3972931"
       x="860.01367"
       height="538.58276"
       width="12.591586"
       id="rect3473"
       style="opacity:1;fill:#ffffff;fill-opacity:1;stroke:none;stroke-width:0.35433072;stroke-linecap:round;stroke-linejoin:round;stroke-miterlimit:4;stroke-dasharray:none;stroke-dashoffset:0;stroke-opacity:1"
       transform="matrix(0,1,-1,0,0,0)" />
    <rect
       ry="0"
       rx="0"
       y="301.18097"
       x="488.97644"
       height="734.03979"
       width="84.882187"
       id="rect4319"
       style="opacity:1;fill:#ffffff;fill-opacity:1;stroke:none;stroke-width:0.35433072;stroke-linecap:round;stroke-linejoin:round;stroke-miterlimit:4;stroke-dasharray:none;stroke-dashoffset:0;stroke-opacity:1" />
    <rect
       ry="0"
       rx="0"
       y="-1007.6274"
       x="-258.09521"
       height="477.74966"
       width="10.6976"
       id="rect3535"
       style="opacity:1;fill:#ffffff;fill-opacity:1;stroke:none;stroke-width:0.35433072;stroke-linecap:round;stroke-linejoin:round;stroke-miterlimit:4;stroke-dasharray:none;stroke-dashoffset:0;stroke-opacity:1"
       transform="matrix(-0.84881755,-0.52868588,0.52868593,-0.84881752,0,0)" />
    <rect
       style="opacity:1;fill:#ffffff;fill-opacity:1;stroke:none;stroke-width:0.35433072;stroke-linecap:round;stroke-linejoin:round;stroke-miterlimit:4;stroke-dasharray:none;stroke-dashoffset:0;stroke-opacity:1"
       id="rect3552"
       width="165.00806"
       height="734.03979"
       x="-129.57498"
       y="301.18097"
       rx="0"
       ry="0" />
    <rect
       transform="matrix(0,-1,1,0,0,0)"
       ry="0"
       rx="0"
       y="-118.5917"
       x="-1116.5721"
       height="814.99786"
       width="99.643135"
       id="rect4317"
       style="opacity:1;fill:#ffffff;fill-opacity:1;stroke:none;stroke-width:0.35433072;stroke-linecap:round;stroke-linejoin:round;stroke-miterlimit:4;stroke-dasharray:none;stroke-dashoffset:0;stroke-opacity:1" />
    <rect
       transform="matrix(0,1,-1,0,0,0)"
       style="opacity:1;fill:#ffffff;fill-opacity:1;stroke:none;stroke-width:0.35433072;stroke-linecap:round;stroke-linejoin:round;stroke-miterlimit:4;stroke-dasharray:none;stroke-dashoffset:0;stroke-opacity:1"
       id="rect4452"
       width="102.42929"
       height="538.58276"
       x="241.27135"
       y="-531.49615"
       rx="0"
       ry="0" />
  </g>
  <g
     style="display:inline"
     inkscape:groupmode="layer"
     id="layer2"
     inkscape:label="bubbles"
     transform="translate(0,-70.866142)">
    <path
       inkscape:connector-curvature="0"
       id="path3595"
       d="m 344.28098,720.85176 1.05323,1.54886"
       style="opacity:1;fill:#ffffff;fill-opacity:1;stroke:none;stroke-width:0.35433072;stroke-linecap:round;stroke-linejoin:round;stroke-miterlimit:4;stroke-dasharray:none;stroke-dashoffset:0;stroke-opacity:1" />
    <path
       inkscape:connector-curvature="0"
       id="path3619"
       d="m 432.10423,800.44693 1.37073,-0.96758"
       style="opacity:1;fill:#ffffff;fill-opacity:1;stroke:none;stroke-width:0.35433072;stroke-linecap:round;stroke-linejoin:round;stroke-miterlimit:4;stroke-dasharray:none;stroke-dashoffset:0;stroke-opacity:1" />
    <path
       sodipodi:nodetypes="sssss"
       inkscape:connector-curvature="0"
       id="path3480"
       d="m 93.981802,152.09017 c 31.424908,5.34177 97.703118,9.70124 122.867938,-2.61296 20.97055,-10.26177 11.93182,-13.23573 -4.89754,-22.38597 -15.52545,-8.44129 -103.91703,1.37119 -117.976052,-1.8599 -22.947881,-5.27396 -45.245215,19.16685 0.0057,26.85883 z"
       style="opacity:1;fill:#c0c0c0;fill-opacity:1;stroke:none;stroke-width:0.35433072;stroke-linecap:round;stroke-linejoin:round;stroke-miterlimit:4;stroke-dasharray:none;stroke-dashoffset:0;stroke-opacity:1" />
    <path
       inkscape:connector-curvature="0"
       id="path3482"
       d="m 264.15318,178.81139 c 38.43902,28.09372 144.24963,21.52536 182.09834,-3.6771 9.92516,-6.6089 21.71128,-21.2797 7.28365,-30.21464 -21.3735,-13.23648 -175.81384,-6.11385 -188.74386,-3.91953 -16.31648,2.76902 -25.63476,19.54213 -0.63813,37.81127 z"
       style="opacity:1;fill:#c0c0c0;fill-opacity:1;stroke:none;stroke-width:0.35433072;stroke-linecap:round;stroke-linejoin:round;stroke-miterlimit:4;stroke-dasharray:none;stroke-dashoffset:0;stroke-opacity:1"
       sodipodi:nodetypes="sssss" />
    <path
       inkscape:connector-curvature="0"
       id="path3484"
       d="m 72.615405,494.98446 c -5.609044,16.91584 21.143284,36.92433 34.061375,43.30152 24.06525,11.88013 65.51316,8.68342 89.06818,-2.2137 6.52459,-3.01843 37.3065,-41.92934 22.97018,-45.68783 -25.56015,-6.70099 -138.445585,-18.48349 -146.099735,4.60001 z"
       style="opacity:1;fill:#c0c0c0;fill-opacity:1;stroke:none;stroke-width:0.35433072;stroke-linecap:round;stroke-linejoin:round;stroke-miterlimit:4;stroke-dasharray:none;stroke-dashoffset:0;stroke-opacity:1"
       sodipodi:nodetypes="sssss" />
    <path
       sodipodi:nodetypes="ssssss"
       inkscape:connector-curvature="0"
       id="path3486"
       d="m 130.27057,619.96926 c 24.58998,33.10016 67.85876,37.43308 88.91374,34.01047 19.72251,-3.20601 23.6515,-10.42204 33.16344,-24.34295 3.47786,-5.08992 15.32005,-17.80712 10.65204,-23.12775 -16.70712,-19.04287 -70.84117,-15.88221 -97.60388,-16.08028 -15.52065,-0.11487 -47.27437,13.18691 -35.12534,29.54051 z"
       style="opacity:1;fill:#c0c0c0;fill-opacity:1;stroke:none;stroke-width:0.35433072;stroke-linecap:round;stroke-linejoin:round;stroke-miterlimit:4;stroke-dasharray:none;stroke-dashoffset:0;stroke-opacity:1" />
    <path
       sodipodi:nodetypes="sssss"
       inkscape:connector-curvature="0"
       id="path3488"
       d="m 60.425497,639.40922 c -25.712829,11.26762 -14.860036,30.17745 0.733905,37.22153 29.184327,13.18311 95.483128,10.11346 107.301158,5.00647 10.36765,-4.48023 8.66782,-36.42014 -1.24505,-39.32026 -31.70659,-9.27612 -78.135762,-15.46432 -106.790013,-2.90774 z"
       style="opacity:1;fill:#c0c0c0;fill-opacity:1;stroke:none;stroke-width:0.35433072;stroke-linecap:round;stroke-linejoin:round;stroke-miterlimit:4;stroke-dasharray:none;stroke-dashoffset:0;stroke-opacity:1" />
    <path
       sodipodi:nodetypes="sssss"
       inkscape:connector-curvature="0"
       id="path3490"
       d="m 170.83536,680.67277 c -32.34423,18.36725 8.25488,43.52986 24.09946,38.08005 29.10596,-10.01113 78.27992,6.53001 99.58957,-3.77852 8.8904,-4.30073 8.84187,-33.63419 0.36313,-35.38608 -27.56483,-5.69549 -88.48041,-19.11551 -124.05216,1.08455 z"
       style="opacity:1;fill:#c0c0c0;fill-opacity:1;stroke:none;stroke-width:0.35433072;stroke-linecap:round;stroke-linejoin:round;stroke-miterlimit:4;stroke-dasharray:none;stroke-dashoffset:0;stroke-opacity:1" />
    <path
       inkscape:connector-curvature="0"
       id="path3492"
       d="m 237.12281,723.96699 c -17.36172,8.28381 -9.89638,15.51021 -4.37472,18.74861 14.51208,8.5112 136.19341,1.76003 155.388,2.05707 25.14409,0.38912 29.87276,-17.22811 6.13276,-20.53954 -37.28075,-5.2002 -148.03269,-4.6144 -157.14604,-0.26614 z"
       style="opacity:1;fill:#c0c0c0;fill-opacity:1;stroke:none;stroke-width:0.35433072;stroke-linecap:round;stroke-linejoin:round;stroke-miterlimit:4;stroke-dasharray:none;stroke-dashoffset:0;stroke-opacity:1"
       sodipodi:nodetypes="sssss" />
    <path
       inkscape:connector-curvature="0"
       id="path3494"
       d="m 336.64522,757.79228 c 5.92946,16.94712 118.09848,13.97411 137.88546,4.55124 25.61868,-12.20001 -16.00316,-20.34421 -28.35823,-20.68275 -19.24944,-0.52744 -62.73501,-0.70685 -80.50842,0.41564 -11.69932,0.73888 -38.02505,-10.02508 -29.01881,15.71587 z"
       style="opacity:1;fill:#c0c0c0;fill-opacity:1;stroke:none;stroke-width:0.35433072;stroke-linecap:round;stroke-linejoin:round;stroke-miterlimit:4;stroke-dasharray:none;stroke-dashoffset:0;stroke-opacity:1"
       sodipodi:nodetypes="sssss" />
  </g>
  <g
     style="display:inline"
     inkscape:groupmode="layer"
     id="layer3"
     inkscape:label="text"
     transform="translate(0,-70.866142)">
    <text
       id="text4219"
       y="334.40897"
       x="33.168972"
       style="color:#000000;font-style:normal;font-variant:normal;font-weight:normal;font-stretch:normal;font-size:17.5px;line-height:125%;font-family:Frenchpress;-inkscape-font-specification:Frenchpress;text-indent:0;text-align:start;text-decoration:none;text-decoration-line:none;text-decoration-style:solid;text-decoration-color:#000000;letter-spacing:0px;word-spacing:0px;text-transform:none;direction:ltr;block-progression:tb;writing-mode:lr-tb;baseline-shift:baseline;text-anchor:start;white-space:normal;clip-rule:nonzero;display:inline;overflow:visible;visibility:visible;opacity:1;isolation:auto;mix-blend-mode:normal;color-interpolation:sRGB;color-interpolation-filters:linearRGB;solid-color:#000000;solid-opacity:1;fill:#000000;fill-opacity:1;fill-rule:nonzero;stroke:none;stroke-width:1px;stroke-linecap:butt;stroke-linejoin:miter;stroke-miterlimit:4;stroke-dasharray:none;stroke-dashoffset:0;stroke-opacity:1;color-rendering:auto;image-rendering:auto;shape-rendering:auto;text-rendering:auto;enable-background:accumulate"
       xml:space="preserve"><tspan
         style="font-style:normal;font-variant:normal;font-weight:normal;font-stretch:normal;font-size:17.5px;font-family:Frenchpress;-inkscape-font-specification:Frenchpress"
         y="334.40897"
         x="33.168972"
         id="tspan4221"
         sodipodi:role="line" /></text>
    <flowRoot
       style="color:#000000;font-style:normal;font-variant:normal;font-weight:normal;font-stretch:normal;font-size:12.5px;line-height:125%;font-family:Cantarell;-inkscape-font-specification:Cantarell;text-indent:0;text-align:start;text-decoration:none;text-decoration-line:none;text-decoration-style:solid;text-decoration-color:#000000;letter-spacing:0px;word-spacing:0px;text-transform:none;direction:ltr;block-progression:tb;writing-mode:lr-tb;baseline-shift:baseline;text-anchor:start;white-space:normal;clip-rule:nonzero;display:inline;overflow:visible;visibility:visible;opacity:1;isolation:auto;mix-blend-mode:normal;color-interpolation:sRGB;color-interpolation-filters:linearRGB;solid-color:#000000;solid-opacity:1;fill:#000000;fill-opacity:1;fill-rule:nonzero;stroke:none;stroke-width:1px;stroke-linecap:butt;stroke-linejoin:miter;stroke-miterlimit:4;stroke-dasharray:none;stroke-dashoffset:0;stroke-opacity:1;color-rendering:auto;image-rendering:auto;shape-rendering:auto;text-rendering:auto;enable-background:accumulate"
       id="flowRoot4275"
       xml:space="preserve"
       transform="translate(-37.329684,34.478724)"><flowRegion
         id="flowRegion4277"><rect
           y="317.81778"
           x="70.866142"
           height="95.714287"
           width="200.56242"
           id="rect4279" /></flowRegion><flowPara
         id="flowPara4281" /></flowRoot>    <flowRoot
       xml:space="preserve"
       id="flowRoot3544"
       style="color:#000000;font-style:normal;font-variant:normal;font-weight:normal;font-stretch:normal;font-size:16.25000191px;line-height:110.00000238%;font-family:Frenchpress;-inkscape-font-specification:Frenchpress;text-indent:0;text-align:center;text-decoration:none;text-decoration-line:none;text-decoration-style:solid;text-decoration-color:#000000;letter-spacing:0px;word-spacing:0px;text-transform:none;direction:ltr;block-progression:tb;writing-mode:lr-tb;baseline-shift:baseline;text-anchor:middle;white-space:normal;clip-rule:nonzero;display:inline;overflow:visible;visibility:visible;opacity:1;isolation:auto;mix-blend-mode:normal;color-interpolation:sRGB;color-interpolation-filters:linearRGB;solid-color:#000000;solid-opacity:1;fill:#000000;fill-opacity:1;fill-rule:nonzero;stroke:none;stroke-width:1px;stroke-linecap:butt;stroke-linejoin:miter;stroke-miterlimit:4;stroke-dasharray:none;stroke-dashoffset:0;stroke-opacity:1;color-rendering:auto;image-rendering:auto;shape-rendering:auto;text-rendering:auto;enable-background:accumulate"
       transform="translate(344.03604,157.47794)"><flowRegion
         id="flowRegion3546"><rect
           id="rect3548"
           width="81.80056"
           height="44.043884"
           x="70.866142"
           y="259.24634"
           style="font-style:normal;font-variant:normal;font-weight:normal;font-stretch:normal;font-size:16.25000191px;line-height:110.00000238%;font-family:Frenchpress;-inkscape-font-specification:Frenchpress;text-align:center;text-anchor:middle" /></flowRegion><flowPara
         id="flowPara3550"
         style="font-style:normal;font-variant:normal;font-weight:normal;font-stretch:normal;font-size:16.25000191px;line-height:100%;font-family:Comili;-inkscape-font-specification:Comili" /></flowRoot>    <flowRoot
       xml:space="preserve"
       id="flowRoot3503"
       style="color:#000000;font-style:normal;font-variant:normal;font-weight:normal;font-stretch:normal;line-height:0.01%;font-family:Frenchpress;-inkscape-font-specification:Frenchpress;text-indent:0;text-align:center;text-decoration:none;text-decoration-line:none;text-decoration-style:solid;text-decoration-color:#000000;letter-spacing:0px;word-spacing:0px;text-transform:none;writing-mode:lr-tb;direction:ltr;baseline-shift:baseline;text-anchor:middle;white-space:normal;clip-rule:nonzero;display:inline;overflow:visible;visibility:visible;opacity:1;isolation:auto;mix-blend-mode:normal;color-interpolation:sRGB;color-interpolation-filters:linearRGB;solid-color:#000000;solid-opacity:1;fill:#000000;fill-opacity:1;fill-rule:nonzero;stroke:none;stroke-width:1px;stroke-linecap:butt;stroke-linejoin:miter;stroke-miterlimit:4;stroke-dasharray:none;stroke-dashoffset:0;stroke-opacity:1;color-rendering:auto;image-rendering:auto;shape-rendering:auto;text-rendering:auto;enable-background:accumulate"
       transform="translate(-13.778027,-285.24672)"><flowRegion
         id="flowRegion3505"><rect
           id="rect3507"
           width="191.39093"
           height="45.300381"
           x="64.576889"
           y="417.44534"
           style="font-style:normal;font-variant:normal;font-weight:normal;font-stretch:normal;font-size:16.25000191px;line-height:110.00000238%;font-family:Frenchpress;-inkscape-font-specification:Frenchpress;text-align:center;text-anchor:middle" /></flowRegion><flowPara
         id="flowPara3509"
         style="font-style:normal;font-variant:normal;font-weight:normal;font-stretch:normal;font-size:16.25000191px;line-height:100%;font-family:Comili;-inkscape-font-specification:Comili">Je dois m’arrêter là,</flowPara></flowRoot>    <flowRoot
       xml:space="preserve"
       id="flowRoot3511"
       style="stroke-linejoin:miter;baseline-shift:baseline;color-rendering:auto;text-decoration-color:#000000;color:#000000;letter-spacing:0px;shape-rendering:auto;word-spacing:0px;stroke:none;text-decoration-line:none;text-rendering:auto;stroke-width:1px;color-interpolation-filters:linearRGB;fill:#000000;solid-opacity:1;line-height:0.01%;fill-rule:nonzero;mix-blend-mode:normal;fill-opacity:1;font-style:normal;block-progression:tb;font-stretch:normal;stroke-miterlimit:4;font-variant:normal;font-weight:normal;opacity:1;direction:ltr;-inkscape-font-specification:Frenchpress;visibility:visible;text-indent:0;clip-rule:nonzero;image-rendering:auto;white-space:normal;overflow:visible;font-family:Frenchpress;text-decoration-style:solid;text-align:center;solid-color:#000000;writing-mode:lr-tb;stroke-opacity:1;isolation:auto;stroke-dashoffset:0;text-anchor:middle;text-decoration:none;stroke-linecap:butt;stroke-dasharray:none;enable-background:accumulate;text-transform:none;display:inline;color-interpolation:sRGB"
       transform="translate(1.7746088,230.44372)"><flowRegion
         id="flowRegion3513"><rect
           id="rect3515"
           width="151.10245"
           height="58.081097"
           x="70.866142"
           y="259.24634"
           style="font-style:normal;font-variant:normal;font-weight:normal;font-stretch:normal;font-size:16.25000191px;line-height:110.00000238%;font-family:Frenchpress;-inkscape-font-specification:Frenchpress;text-align:center;text-anchor:middle" /></flowRegion><flowPara
         id="flowPara3517"
         style="font-style:normal;font-variant:normal;font-weight:normal;font-stretch:normal;font-size:16.25000191px;line-height:100%;font-family:Comili;-inkscape-font-specification:Comili">J’espère qu’on aura l’occasion de se rencontrer,</flowPara></flowRoot>    <flowRoot
       transform="translate(65.792129,339.17561)"
       style="color:#000000;font-style:normal;font-variant:normal;font-weight:normal;font-stretch:normal;line-height:0.01%;font-family:Frenchpress;-inkscape-font-specification:Frenchpress;text-indent:0;text-align:center;text-decoration:none;text-decoration-line:none;text-decoration-style:solid;text-decoration-color:#000000;letter-spacing:0px;word-spacing:0px;text-transform:none;writing-mode:lr-tb;direction:ltr;baseline-shift:baseline;text-anchor:middle;white-space:normal;clip-rule:nonzero;display:inline;overflow:visible;visibility:visible;opacity:1;isolation:auto;mix-blend-mode:normal;color-interpolation:sRGB;color-interpolation-filters:linearRGB;solid-color:#000000;solid-opacity:1;fill:#000000;fill-opacity:1;fill-rule:nonzero;stroke:none;stroke-width:1px;stroke-linecap:butt;stroke-linejoin:miter;stroke-miterlimit:4;stroke-dasharray:none;stroke-dashoffset:0;stroke-opacity:1;color-rendering:auto;image-rendering:auto;shape-rendering:auto;text-rendering:auto;enable-background:accumulate"
       id="flowRoot3516"
       xml:space="preserve"><flowRegion
         id="flowRegion3518"><rect
           style="font-style:normal;font-variant:normal;font-weight:normal;font-stretch:normal;font-size:16.25000191px;line-height:110.00000238%;font-family:Frenchpress;-inkscape-font-specification:Frenchpress;text-align:center;text-anchor:middle"
           y="259.24634"
           x="70.866142"
           height="89.370247"
           width="125.59164"
           id="rect3520" /></flowRegion><flowPara
         style="font-style:normal;font-variant:normal;font-weight:normal;font-stretch:normal;font-size:16.25000191px;line-height:100%;font-family:Comili;-inkscape-font-specification:Comili"
         id="flowPara3522">tu me donneras ton avis sur ce message.</flowPara></flowRoot>    <flowRoot
       transform="translate(-22.496169,385.05991)"
       style="color:#000000;font-style:normal;font-variant:normal;font-weight:normal;font-stretch:normal;line-height:0.01%;font-family:Frenchpress;-inkscape-font-specification:Frenchpress;text-indent:0;text-align:center;text-decoration:none;text-decoration-line:none;text-decoration-style:solid;text-decoration-color:#000000;letter-spacing:0px;word-spacing:0px;text-transform:none;writing-mode:lr-tb;direction:ltr;baseline-shift:baseline;text-anchor:middle;white-space:normal;clip-rule:nonzero;display:inline;overflow:visible;visibility:visible;opacity:1;isolation:auto;mix-blend-mode:normal;color-interpolation:sRGB;color-interpolation-filters:linearRGB;solid-color:#000000;solid-opacity:1;fill:#000000;fill-opacity:1;fill-rule:nonzero;stroke:none;stroke-width:1px;stroke-linecap:butt;stroke-linejoin:miter;stroke-miterlimit:4;stroke-dasharray:none;stroke-dashoffset:0;stroke-opacity:1;color-rendering:auto;image-rendering:auto;shape-rendering:auto;text-rendering:auto;enable-background:accumulate"
       id="flowRoot3525"
       xml:space="preserve"><flowRegion
         id="flowRegion3527"><rect
           style="font-style:normal;font-variant:normal;font-weight:normal;font-stretch:normal;font-size:16.25000191px;line-height:110.00000238%;font-family:Frenchpress;-inkscape-font-specification:Frenchpress;text-align:center;text-anchor:middle"
           y="259.24634"
           x="70.866142"
           height="45.95261"
           width="123.4673"
           id="rect3532" /></flowRegion><flowPara
         style="font-style:normal;font-variant:normal;font-weight:normal;font-stretch:normal;font-size:16.25000191px;line-height:100%;font-family:Comili;-inkscape-font-specification:Comili"
         id="flowPara3534">Peut-être dans 40 ans pour toi,</flowPara></flowRoot>    <flowRoot
       xml:space="preserve"
       id="flowRoot3498"
       style="color:#000000;font-style:normal;font-variant:normal;font-weight:normal;font-stretch:normal;line-height:0.01%;font-family:Frenchpress;-inkscape-font-specification:Frenchpress;text-indent:0;text-align:center;text-decoration:none;text-decoration-line:none;text-decoration-style:solid;text-decoration-color:#000000;letter-spacing:0px;word-spacing:0px;text-transform:none;writing-mode:lr-tb;direction:ltr;baseline-shift:baseline;text-anchor:middle;white-space:normal;clip-rule:nonzero;display:inline;overflow:visible;visibility:visible;opacity:1;isolation:auto;mix-blend-mode:normal;color-interpolation:sRGB;color-interpolation-filters:linearRGB;solid-color:#000000;solid-opacity:1;fill:#000000;fill-opacity:1;fill-rule:nonzero;stroke:none;stroke-width:1px;stroke-linecap:butt;stroke-linejoin:miter;stroke-miterlimit:4;stroke-dasharray:none;stroke-dashoffset:0;stroke-opacity:1;color-rendering:auto;image-rendering:auto;shape-rendering:auto;text-rendering:auto;enable-background:accumulate"
       transform="translate(86.523293,422.82418)"><flowRegion
         id="flowRegion3500"><rect
           id="rect3502"
           width="145.45909"
           height="61.590618"
           x="70.866142"
           y="259.24634"
           style="font-style:normal;font-variant:normal;font-weight:normal;font-stretch:normal;font-size:16.25000191px;line-height:110.00000238%;font-family:Frenchpress;-inkscape-font-specification:Frenchpress;text-align:center;text-anchor:middle" /></flowRegion><flowPara
         id="flowPara3504"
         style="font-style:normal;font-variant:normal;font-weight:normal;font-stretch:normal;font-size:16.25000191px;line-height:100%;font-family:Comili;-inkscape-font-specification:Comili">peut-être tout à l’heure pour moi.</flowPara></flowRoot>    <flowRoot
       xml:space="preserve"
       id="flowRoot3506"
       style="color:#000000;font-style:normal;font-variant:normal;font-weight:normal;font-stretch:normal;line-height:0.01%;font-family:Frenchpress;-inkscape-font-specification:Frenchpress;text-indent:0;text-align:center;text-decoration:none;text-decoration-line:none;text-decoration-style:solid;text-decoration-color:#000000;letter-spacing:0px;word-spacing:0px;text-transform:none;writing-mode:lr-tb;direction:ltr;baseline-shift:baseline;text-anchor:middle;white-space:normal;clip-rule:nonzero;display:inline;overflow:visible;visibility:visible;opacity:1;isolation:auto;mix-blend-mode:normal;color-interpolation:sRGB;color-interpolation-filters:linearRGB;solid-color:#000000;solid-opacity:1;fill:#000000;fill-opacity:1;fill-rule:nonzero;stroke:none;stroke-width:1px;stroke-linecap:butt;stroke-linejoin:miter;stroke-miterlimit:4;stroke-dasharray:none;stroke-dashoffset:0;stroke-opacity:1;color-rendering:auto;image-rendering:auto;shape-rendering:auto;text-rendering:auto;enable-background:accumulate"
       transform="translate(153.74175,468.35247)"><flowRegion
         id="flowRegion3508"><rect
           id="rect3510"
           width="186.311"
           height="52.909573"
           x="70.866142"
           y="259.24634"
           style="font-style:normal;font-variant:normal;font-weight:normal;font-stretch:normal;font-size:16.25000191px;line-height:110.00000238%;font-family:Frenchpress;-inkscape-font-specification:Frenchpress;text-align:center;text-anchor:middle" /></flowRegion><flowPara
         id="flowPara3512"
         style="font-style:normal;font-variant:normal;font-weight:normal;font-stretch:normal;font-size:16.25000191px;line-height:100%;font-family:Comili;-inkscape-font-specification:Comili">Je te souhaite bon vent,</flowPara></flowRoot>    <flowRoot
       transform="translate(259.8517,489.94343)"
       style="stroke-linejoin:miter;baseline-shift:baseline;color-rendering:auto;text-decoration-color:#000000;color:#000000;letter-spacing:0px;shape-rendering:auto;word-spacing:0px;stroke:none;text-decoration-line:none;text-rendering:auto;stroke-width:1px;color-interpolation-filters:linearRGB;fill:#000000;solid-opacity:1;line-height:0.01%;fill-rule:nonzero;mix-blend-mode:normal;fill-opacity:1;font-style:normal;block-progression:tb;font-stretch:normal;stroke-miterlimit:4;font-variant:normal;font-weight:normal;opacity:1;direction:ltr;-inkscape-font-specification:Frenchpress;visibility:visible;text-indent:0;clip-rule:nonzero;image-rendering:auto;white-space:normal;overflow:visible;font-family:Frenchpress;text-decoration-style:solid;text-align:center;solid-color:#000000;writing-mode:lr-tb;stroke-opacity:1;isolation:auto;stroke-dashoffset:0;text-anchor:middle;text-decoration:none;stroke-linecap:butt;stroke-dasharray:none;enable-background:accumulate;text-transform:none;display:inline;color-interpolation:sRGB"
       id="flowRoot3524"
       xml:space="preserve"><flowRegion
         id="flowRegion3526"><rect
           style="font-style:normal;font-variant:normal;font-weight:normal;font-stretch:normal;font-size:16.25000191px;line-height:110.00000238%;font-family:Frenchpress;-inkscape-font-specification:Frenchpress;text-align:center;text-anchor:middle"
           y="259.24634"
           x="70.866142"
           height="61.590618"
           width="145.45909"
           id="rect3528" /></flowRegion><flowPara
         style="font-style:normal;font-variant:normal;font-weight:normal;font-stretch:normal;font-size:16.25000191px;line-height:100%;font-family:Comili;-inkscape-font-specification:Comili"
         id="flowPara3530"> et un bien chaud !</flowPara></flowRoot>    <flowRoot
       xml:space="preserve"
       id="flowRoot4289"
       style="color:#000000;font-style:normal;font-variant:normal;font-weight:normal;font-stretch:normal;line-height:0.01%;font-family:Frenchpress;-inkscape-font-specification:Frenchpress;text-indent:0;text-align:center;text-decoration:none;text-decoration-line:none;text-decoration-style:solid;text-decoration-color:#000000;letter-spacing:0px;word-spacing:0px;text-transform:none;writing-mode:lr-tb;direction:ltr;baseline-shift:baseline;text-anchor:middle;white-space:normal;clip-rule:nonzero;display:inline;overflow:visible;visibility:visible;opacity:1;isolation:auto;mix-blend-mode:normal;color-interpolation:sRGB;color-interpolation-filters:linearRGB;solid-color:#000000;solid-opacity:1;fill:#000000;fill-opacity:1;fill-rule:nonzero;stroke:none;stroke-width:1px;stroke-linecap:butt;stroke-linejoin:miter;stroke-miterlimit:4;stroke-dasharray:none;stroke-dashoffset:0;stroke-opacity:1;color-rendering:auto;image-rendering:auto;shape-rendering:auto;text-rendering:auto;enable-background:accumulate"
       transform="translate(184.61375,-115.29977)"><flowRegion
         id="flowRegion4291"><rect
           id="rect4293"
           width="201.91605"
           height="51.379894"
           x="70.866142"
           y="259.24634"
           style="font-style:normal;font-variant:normal;font-weight:normal;font-stretch:normal;font-size:16.25000191px;line-height:110.00000238%;font-family:Frenchpress;-inkscape-font-specification:Frenchpress;text-align:center;text-anchor:middle" /></flowRegion><flowPara
         id="flowPara4295"
         style="font-style:normal;font-variant:normal;font-weight:normal;font-stretch:normal;font-size:16.25000191px;line-height:100%;font-family:Comili;-inkscape-font-specification:Comili">je ne vais pas avoir assez de positrons pour envoyer le message sinon.</flowPara></flowRoot>  </g>
  <g
     style="display:inline"
     id="printing-marks"
     inkscape:label="printing marks"
     inkscape:groupmode="layer"
     sodipodi:insensitive="true">
    <g
       id="CropMarks"
       inkscape:label="CropMarks">
      <path
         inkscape:connector-curvature="0"
         d="M 0,-7.0866142 0,-42.519685"
         id="cropTL1"
         style="fill:none;stroke:#000000;stroke-width:0.25" />
      <path
         inkscape:connector-curvature="0"
         d="M -7.0866142,0 -42.519685,0"
         id="cropTL2"
         style="fill:none;stroke:#000000;stroke-width:0.25" />
      <path
         inkscape:connector-curvature="0"
         d="m 524.40945,-7.0866142 0,-35.4330708"
         id="cropTR1"
         style="fill:none;stroke:#000000;stroke-width:0.25" />
      <path
         inkscape:connector-curvature="0"
         d="m 531.49606,0 35.43307,0"
         id="cropTR2"
         style="fill:none;stroke:#000000;stroke-width:0.25" />
      <path
         inkscape:connector-curvature="0"
         d="m 0,751.1811 0,35.43307"
         id="cropBL1"
         style="fill:none;stroke:#000000;stroke-width:0.25" />
      <path
         inkscape:connector-curvature="0"
         d="m -7.0866142,744.09449 -35.4330708,0"
         id="cropBL2"
         style="fill:none;stroke:#000000;stroke-width:0.25" />
      <path
         inkscape:connector-curvature="0"
         d="m 524.40945,751.1811 0,35.43307"
         id="cropBR1"
         style="fill:none;stroke:#000000;stroke-width:0.25" />
      <path
         inkscape:connector-curvature="0"
         d="m 531.49606,744.09449 35.43307,0"
         id="cropBR2"
         style="fill:none;stroke:#000000;stroke-width:0.25" />
    </g>
    <g
       id="RegistrationMarks"
       inkscape:label="RegistrationMarks">
      <g
         id="regMarkL">
        <path
           inkscape:connector-curvature="0"
           d="m 0,17.716535 -3.5433071,0 L 14.173228,0 -3.5433071,-17.716535 0,-17.716535 17.716535,0 0,17.716535 Z"
           style="fill:#000000;fill-opacity:1;stroke:none"
           transform="translate(-35.433071,318.89764)"
           id="path3448" />
        <path
           inkscape:connector-curvature="0"
           d="m -3.5433071,17.716535 -3.5433071,0 L 10.629921,0 -7.0866142,-17.716535 l 3.5433071,0 L 14.173228,0 -3.5433071,17.716535 Z"
           style="fill:#00ffff;fill-opacity:1;stroke:none"
           transform="translate(-35.433071,318.89764)"
           id="path3450" />
        <path
           inkscape:connector-curvature="0"
           d="m -7.0866142,17.716535 -3.5433068,0 L 7.0866142,0 -10.629921,-17.716535 l 3.5433068,0 L 10.629921,0 -7.0866142,17.716535 Z"
           style="fill:#ff00ff;fill-opacity:1;stroke:none"
           transform="translate(-35.433071,318.89764)"
           id="path3452" />
        <path
           inkscape:connector-curvature="0"
           d="m -10.629921,17.716535 -3.543307,0 L 3.5433071,0 -14.173228,-17.716535 l 3.543307,0 L 7.0866142,0 -10.629921,17.716535 Z"
           style="fill:#ffff00;fill-opacity:1;stroke:none"
           transform="translate(-35.433071,318.89764)"
           id="path3454" />
        <path
           inkscape:connector-curvature="0"
           d="m -14.173228,17.716535 -3.543307,0 L 0,0 l -17.716535,-17.716535 3.543307,0 L 3.5433071,0 -14.173228,17.716535 Z"
           style="fill:#000000;fill-opacity:1;stroke:none"
           transform="translate(-35.433071,318.89764)"
           id="path3456" />
      </g>
      <g
         id="regMarkR">
        <path
           inkscape:connector-curvature="0"
           d="m 0,17.716535 -3.5433071,0 L 14.173228,0 -3.5433071,-17.716535 0,-17.716535 17.716535,0 0,17.716535 Z"
           style="fill:#000000;fill-opacity:1;stroke:none"
           transform="matrix(-1,0,0,-1,559.84252,318.89764)"
           id="path3459" />
        <path
           inkscape:connector-curvature="0"
           d="m -3.5433071,17.716535 -3.5433071,0 L 10.629921,0 -7.0866142,-17.716535 l 3.5433071,0 L 14.173228,0 -3.5433071,17.716535 Z"
           style="fill:#00ffff;fill-opacity:1;stroke:none"
           transform="matrix(-1,0,0,-1,559.84252,318.89764)"
           id="path3461" />
        <path
           inkscape:connector-curvature="0"
           d="m -7.0866142,17.716535 -3.5433068,0 L 7.0866142,0 -10.629921,-17.716535 l 3.5433068,0 L 10.629921,0 -7.0866142,17.716535 Z"
           style="fill:#ff00ff;fill-opacity:1;stroke:none"
           transform="matrix(-1,0,0,-1,559.84252,318.89764)"
           id="path3463" />
        <path
           inkscape:connector-curvature="0"
           d="m -10.629921,17.716535 -3.543307,0 L 3.5433071,0 -14.173228,-17.716535 l 3.543307,0 L 7.0866142,0 -10.629921,17.716535 Z"
           style="fill:#ffff00;fill-opacity:1;stroke:none"
           transform="matrix(-1,0,0,-1,559.84252,318.89764)"
           id="path3465" />
        <path
           inkscape:connector-curvature="0"
           d="m -14.173228,17.716535 -3.543307,0 L 0,0 l -17.716535,-17.716535 3.543307,0 L 3.5433071,0 -14.173228,17.716535 Z"
           style="fill:#000000;fill-opacity:1;stroke:none"
           transform="matrix(-1,0,0,-1,559.84252,318.89764)"
           id="path3467" />
      </g>
      <g
         id="regMarkT">
        <path
           inkscape:connector-curvature="0"
           d="m 0,17.716535 -3.5433071,0 L 14.173228,0 -3.5433071,-17.716535 0,-17.716535 17.716535,0 0,17.716535 Z"
           style="fill:#000000;fill-opacity:1;stroke:none"
           transform="matrix(0,1,-1,0,262.20472,-35.433071)"
           id="path3470" />
        <path
           inkscape:connector-curvature="0"
           d="m -3.5433071,17.716535 -3.5433071,0 L 10.629921,0 -7.0866142,-17.716535 l 3.5433071,0 L 14.173228,0 -3.5433071,17.716535 Z"
           style="fill:#00ffff;fill-opacity:1;stroke:none"
           transform="matrix(0,1,-1,0,262.20472,-35.433071)"
           id="path3472" />
        <path
           inkscape:connector-curvature="0"
           d="m -7.0866142,17.716535 -3.5433068,0 L 7.0866142,0 -10.629921,-17.716535 l 3.5433068,0 L 10.629921,0 -7.0866142,17.716535 Z"
           style="fill:#ff00ff;fill-opacity:1;stroke:none"
           transform="matrix(0,1,-1,0,262.20472,-35.433071)"
           id="path3474" />
        <path
           inkscape:connector-curvature="0"
           d="m -10.629921,17.716535 -3.543307,0 L 3.5433071,0 -14.173228,-17.716535 l 3.543307,0 L 7.0866142,0 -10.629921,17.716535 Z"
           style="fill:#ffff00;fill-opacity:1;stroke:none"
           transform="matrix(0,1,-1,0,262.20472,-35.433071)"
           id="path3476" />
        <path
           inkscape:connector-curvature="0"
           d="m -14.173228,17.716535 -3.543307,0 L 0,0 l -17.716535,-17.716535 3.543307,0 L 3.5433071,0 -14.173228,17.716535 Z"
           style="fill:#000000;fill-opacity:1;stroke:none"
           transform="matrix(0,1,-1,0,262.20472,-35.433071)"
           id="path3478" />
      </g>
      <g
         id="regMarkB">
        <path
           inkscape:connector-curvature="0"
           d="m 0,17.716535 -3.5433071,0 L 14.173228,0 -3.5433071,-17.716535 0,-17.716535 17.716535,0 0,17.716535 Z"
           style="fill:#000000;fill-opacity:1;stroke:none"
           transform="matrix(0,-1,1,0,262.20472,779.52756)"
           id="path3481" />
        <path
           inkscape:connector-curvature="0"
           d="m -3.5433071,17.716535 -3.5433071,0 L 10.629921,0 -7.0866142,-17.716535 l 3.5433071,0 L 14.173228,0 -3.5433071,17.716535 Z"
           style="fill:#00ffff;fill-opacity:1;stroke:none"
           transform="matrix(0,-1,1,0,262.20472,779.52756)"
           id="path3483" />
        <path
           inkscape:connector-curvature="0"
           d="m -7.0866142,17.716535 -3.5433068,0 L 7.0866142,0 -10.629921,-17.716535 l 3.5433068,0 L 10.629921,0 -7.0866142,17.716535 Z"
           style="fill:#ff00ff;fill-opacity:1;stroke:none"
           transform="matrix(0,-1,1,0,262.20472,779.52756)"
           id="path3485" />
        <path
           inkscape:connector-curvature="0"
           d="m -10.629921,17.716535 -3.543307,0 L 3.5433071,0 -14.173228,-17.716535 l 3.543307,0 L 7.0866142,0 -10.629921,17.716535 Z"
           style="fill:#ffff00;fill-opacity:1;stroke:none"
           transform="matrix(0,-1,1,0,262.20472,779.52756)"
           id="path3487" />
        <path
           inkscape:connector-curvature="0"
           d="m -14.173228,17.716535 -3.543307,0 L 0,0 l -17.716535,-17.716535 3.543307,0 L 3.5433071,0 -14.173228,17.716535 Z"
           style="fill:#000000;fill-opacity:1;stroke:none"
           transform="matrix(0,-1,1,0,262.20472,779.52756)"
           id="path3489" />
      </g>
    </g>
  </g>
</svg>
