<?xml version="1.0" encoding="UTF-8" standalone="no"?>
<!-- Created with Inkscape (http://www.inkscape.org/) -->

<svg
   xmlns:dc="http://purl.org/dc/elements/1.1/"
   xmlns:cc="http://creativecommons.org/ns#"
   xmlns:rdf="http://www.w3.org/1999/02/22-rdf-syntax-ns#"
   xmlns:svg="http://www.w3.org/2000/svg"
   xmlns="http://www.w3.org/2000/svg"
   xmlns:xlink="http://www.w3.org/1999/xlink"
   xmlns:sodipodi="http://sodipodi.sourceforge.net/DTD/sodipodi-0.dtd"
   xmlns:inkscape="http://www.inkscape.org/namespaces/inkscape"
   width="148mm"
   height="210mm"
   viewBox="0 0 524.40946 744.09448"
   id="svg2"
   version="1.1"
   inkscape:version="0.92.1 r"
   sodipodi:docname="17.svg"
   inkscape:export-filename="/home/nylnook/Crea/BD/Mokatori/storyboard/layout/storyboard-ep1-fr/artwork/artwork-17-check.png"
   inkscape:export-xdpi="600"
   inkscape:export-ydpi="600">
  <sodipodi:namedview
     id="base"
     pagecolor="#ffffff"
     bordercolor="#666666"
     borderopacity="1.0"
     inkscape:pageopacity="0.0"
     inkscape:pageshadow="2"
     inkscape:zoom="1.8927092"
     inkscape:cx="435.1685"
     inkscape:cy="506.27508"
     inkscape:document-units="mm"
     inkscape:current-layer="layer2"
     showgrid="false"
     units="mm"
     inkscape:window-width="2560"
     inkscape:window-height="1371"
     inkscape:window-x="0"
     inkscape:window-y="27"
     inkscape:window-maximized="1"
     showguides="true"
     inkscape:guide-bbox="true"
     inkscape:snap-bbox="true"
     inkscape:bbox-paths="false"
     inkscape:bbox-nodes="true"
     borderlayer="true"
     inkscape:snap-global="true">
    <sodipodi:guide
       inkscape:locked="false"
       position="-7.0866147,0"
       orientation="1,0"
       id="guide7382"
       inkscape:label=""
       inkscape:color="rgb(0,0,255)" />
    <sodipodi:guide
       inkscape:locked="false"
       position="531.4961,0"
       orientation="1,0"
       id="guide7384"
       inkscape:label=""
       inkscape:color="rgb(0,0,255)" />
    <sodipodi:guide
       inkscape:locked="false"
       position="0,-7.0866142"
       orientation="0,1"
       id="guide7386"
       inkscape:label=""
       inkscape:color="rgb(0,0,255)" />
    <sodipodi:guide
       inkscape:locked="false"
       position="0,751.1811"
       orientation="0,1"
       id="guide7388"
       inkscape:label=""
       inkscape:color="rgb(0,0,255)" />
    <sodipodi:guide
       inkscape:locked="false"
       position="35.433073,0"
       orientation="1,0"
       id="guide7390"
       inkscape:label=""
       inkscape:color="rgb(0,0,255)" />
    <sodipodi:guide
       inkscape:locked="false"
       position="0,708.66142"
       orientation="0,1"
       id="guide7392"
       inkscape:label=""
       inkscape:color="rgb(0,0,255)" />
    <sodipodi:guide
       inkscape:locked="false"
       position="488.97641,0"
       orientation="1,0"
       id="guide7394"
       inkscape:label=""
       inkscape:color="rgb(0,0,255)" />
    <sodipodi:guide
       inkscape:locked="false"
       position="0,35.433071"
       orientation="0,1"
       id="guide7396"
       inkscape:label=""
       inkscape:color="rgb(0,0,255)" />
  </sodipodi:namedview>
  <defs
     id="defs4">
    <inkscape:path-effect
       effect="perspective-envelope"
       up_left_point="243.71564,909.93982"
       up_right_point="275.84501,916.75866"
       down_left_point="237.16421,944.07872"
       down_right_point="269.15987,952.502"
       id="path-effect4642"
       is_visible="true"
       deform_type="perspective"
       horizontal_mirror="false"
       vertical_mirror="false"
       overflow_perspective="false" />
    <inkscape:path-effect
       effect="perspective-envelope"
       up_left_point="226.41099,881.12173"
       up_right_point="283.44528,893.25912"
       down_left_point="223.62079,895.9216"
       down_right_point="280.51557,910.01213"
       id="path-effect4640"
       is_visible="true"
       deform_type="perspective"
       horizontal_mirror="false"
       vertical_mirror="false"
       overflow_perspective="false" />
    <clipPath
       id="clipPath5115"
       clipPathUnits="userSpaceOnUse">
      <rect
         style="opacity:0.5;fill:#000000;fill-opacity:1;stroke:none;stroke-width:10.62992096;stroke-linecap:round;stroke-linejoin:round;stroke-miterlimit:4;stroke-dasharray:none;stroke-dashoffset:4.0999999;stroke-opacity:1"
         id="rect5117"
         width="538.5827"
         height="419.32443"
         x="28.346457"
         y="604.69122" />
    </clipPath>
    <clipPath
       id="clipPath5056"
       clipPathUnits="userSpaceOnUse">
      <path
         inkscape:connector-curvature="0"
         style="display:inline;opacity:0.5;fill:#000000;fill-opacity:1;stroke:none;stroke-width:1;stroke-linecap:round;stroke-linejoin:round;stroke-miterlimit:4;stroke-dasharray:none;stroke-dashoffset:0;stroke-opacity:1"
         d="m 70.866142,594.69339 144.095668,0 0,-286.42578 -144.095668,0 z"
         id="path5058"
         sodipodi:nodetypes="ccccc" />
    </clipPath>
    <clipPath
       id="clipPath5122"
       clipPathUnits="userSpaceOnUse">
      <path
         sodipodi:nodetypes="ccccc"
         id="path5124"
         d="m 225.58995,594.69339 144.09567,0 0,-286.42578 -144.09567,0 z"
         style="display:inline;opacity:0.5;fill:#000000;fill-opacity:1;stroke:none;stroke-width:1;stroke-linecap:round;stroke-linejoin:round;stroke-miterlimit:4;stroke-dasharray:none;stroke-dashoffset:0;stroke-opacity:1"
         inkscape:connector-curvature="0" />
    </clipPath>
    <clipPath
       id="clipPath5129"
       clipPathUnits="userSpaceOnUse">
      <path
         inkscape:connector-curvature="0"
         style="display:inline;opacity:0.5;fill:#000000;fill-opacity:1;stroke:none;stroke-width:1;stroke-linecap:round;stroke-linejoin:round;stroke-miterlimit:4;stroke-dasharray:none;stroke-dashoffset:0;stroke-opacity:1"
         d="m 380.31378,594.69339 144.09567,0 0,-286.42578 -144.09567,0 z"
         id="path5131"
         sodipodi:nodetypes="ccccc" />
    </clipPath>
    <clipPath
       clipPathUnits="userSpaceOnUse"
       id="clipPath4595">
      <path
         style="opacity:0.5;fill:#000000;fill-opacity:1;stroke:none;stroke-width:0.35433072;stroke-linecap:round;stroke-linejoin:round;stroke-miterlimit:4;stroke-dasharray:none;stroke-dashoffset:0;stroke-opacity:1"
         d="M 488.97643,529.8236 V 746.8677 H 255.00313 V 598.76765 c 28.63032,-33.16928 55.31189,-52.96928 87.78287,-71.82339 z"
         id="path4597"
         inkscape:connector-curvature="0"
         sodipodi:nodetypes="cccccc" />
    </clipPath>
    <clipPath
       clipPathUnits="userSpaceOnUse"
       id="clipPath4600">
      <path
         sodipodi:nodetypes="cccccc"
         inkscape:connector-curvature="0"
         id="path4602"
         d="M 35.433075,625.57288 V 343.70065 H 339.29102 V 524.42243 C 301.021,546.29101 243.51242,601.69005 225.2886,625.68475 Z"
         style="opacity:0.5;fill:#000000;fill-opacity:1;stroke:none;stroke-width:0.35433072;stroke-linecap:round;stroke-linejoin:round;stroke-miterlimit:4;stroke-dasharray:none;stroke-dashoffset:0;stroke-opacity:1" />
    </clipPath>
    <clipPath
       clipPathUnits="userSpaceOnUse"
       id="clipPath4588">
      <rect
         y="741.73602"
         x="27.760912"
         height="264.16681"
         width="219.92424"
         id="rect4590"
         style="opacity:1;fill:#232935;fill-opacity:1;stroke:#000000;stroke-width:0.35433072;stroke-linecap:round;stroke-linejoin:miter;stroke-miterlimit:4;stroke-dasharray:none;stroke-dashoffset:0;stroke-opacity:1;paint-order:normal" />
    </clipPath>
  </defs>
  <metadata
     id="metadata7">
    <rdf:RDF>
      <cc:Work
         rdf:about="">
        <dc:format>image/svg+xml</dc:format>
        <dc:type
           rdf:resource="http://purl.org/dc/dcmitype/StillImage" />
        <dc:title />
      </cc:Work>
    </rdf:RDF>
  </metadata>
  <g
     transform="translate(0,-308.26761)"
     id="layer1"
     inkscape:groupmode="layer"
     inkscape:label="artwork"
     style="display:inline">
    <image
       sodipodi:absref="/home/nylnook/Crea/BD/Mokatori/layout/ep1-ebook-fr/../p24-25.png"
       xlink:href="../p24-25.png"
       style="display:inline"
       y="63.797256"
       x="-531.40393"
       id="image4595"
       preserveAspectRatio="none"
       height="758.25"
       width="1062.9"
       transform="translate(0,237.40147)" />
    <path
       id="path4589"
       style="color:#000000;font-style:normal;font-variant:normal;font-weight:normal;font-stretch:normal;font-size:medium;line-height:18.75px;font-family:'Digital Numbers';-inkscape-font-specification:'Digital Numbers';text-indent:0;text-align:center;text-decoration:none;text-decoration-line:none;text-decoration-style:solid;text-decoration-color:#000000;letter-spacing:0px;word-spacing:0px;text-transform:none;writing-mode:lr-tb;direction:ltr;baseline-shift:baseline;text-anchor:middle;white-space:normal;clip-rule:nonzero;visibility:visible;isolation:auto;mix-blend-mode:normal;color-interpolation:sRGB;color-interpolation-filters:linearRGB;solid-color:#000000;solid-opacity:1;fill:#000000;fill-opacity:1;fill-rule:nonzero;stroke:none;stroke-width:0.93749934px;stroke-linecap:butt;stroke-linejoin:miter;stroke-miterlimit:4;stroke-dasharray:none;stroke-dashoffset:0;stroke-opacity:1;color-rendering:auto;image-rendering:auto;shape-rendering:auto;text-rendering:auto"
       d="m 273.0548,908.1644 c 0,0 1.97831,-1.18479 1.97831,-1.18479 0,0 4.11478,1.00508 4.11478,1.00508 0,0 1.36768,2.02744 1.36768,2.02744 0,0 -7.46077,-1.84773 -7.46077,-1.84773 z m 0.80688,-7.37069 c 0,0 1.48823,1.94864 1.48823,1.94864 0,0 -0.64051,3.63195 -0.64051,3.63195 0,0 -2.0148,1.02145 -2.0148,1.02145 0,0 1.16708,-6.60204 1.16708,-6.60204 z m 1.82597,-7.62929 c 0,0 7.44046,1.60684 7.44046,1.60684 0,0 -1.91913,1.25472 -1.91913,1.25472 0,0 -4.12033,-0.9036 -4.12033,-0.9036 0,0 -1.401,-1.95796 -1.401,-1.95796 z m -1.7839,7.10183 c 0,0 1.16323,-6.57984 1.16323,-6.57984 0,0 1.5086,1.81403 1.5086,1.81403 0,0 -0.64618,3.66387 -0.64618,3.66387 0,0 -2.02565,1.10194 -2.02565,1.10194 z m -8.48501,-10.84333 c 0,0 1.99199,0.42391 1.99199,0.42391 0,0 -0.33042,1.84893 -0.33042,1.84893 0,0 -1.99148,-0.43168 -1.99148,-0.43168 0,0 0.32991,-1.84116 0.32991,-1.84116 z m -17.47975,12.52131 c 0,0 1.77366,-1.14948 1.77366,-1.14948 0,0 3.71658,0.90782 3.71658,0.90782 0,0 1.19138,1.89643 1.19138,1.89643 0,0 -6.68162,-1.65477 -6.68162,-1.65477 z m 7.26666,1.14443 c 0,0 -1.35861,-1.86208 -1.35861,-1.86208 0,0 0.63261,-3.48822 0.63261,-3.48822 0,0 1.87709,-1.01053 1.87709,-1.01053 0,0 -1.15109,6.36083 -1.15109,6.36083 z m -4.85664,-7.2298 c -0.28892,-0.34028 -0.58812,-0.67765 -0.89756,-1.01211 0,0 1.17383,-0.5027 1.17383,-0.5027 0,0 4.09419,0.94177 4.09419,0.94177 0,0 0.92519,0.99576 0.92519,0.99576 0,0 -1.20244,0.53261 -1.20244,0.53261 0,0 -4.09321,-0.95533 -4.09321,-0.95533 z m 0.14182,-8.13595 c 0,0 6.72577,1.4525 6.72577,1.4525 0,0 -1.76411,1.20209 -1.76411,1.20209 0,0 -3.70777,-0.81313 -3.70777,-0.81313 0,0 -1.25389,-1.84146 -1.25389,-1.84146 z m 7.05761,2.15688 c 0,0 -1.14743,6.3402 -1.14743,6.3402 0,0 -1.37624,-1.74828 -1.37624,-1.74828 0,0 0.63319,-3.4912 0.63319,-3.4912 0,0 1.89048,-1.10072 1.89048,-1.10072 z m -13.32499,8.99337 c 0,0 1.8363,0.44624 1.8363,0.44624 0,0 -0.32732,1.78642 -0.32732,1.78642 0,0 -1.83575,-0.45348 -1.83575,-0.45348 0,0 0.32677,-1.77918 0.32677,-1.77918 z m -9.25565,-0.14137 c 0,0 1.71617,-1.11947 1.71617,-1.11947 0,0 3.49739,0.85429 3.49739,0.85429 0,0 1.11311,1.83204 1.11311,1.83204 0,0 -6.32667,-1.56686 -6.32667,-1.56686 z m 0.82292,-6.78084 c 0,0 1.2486,1.76853 1.2486,1.76853 0,0 -0.62022,3.3428 -0.62022,3.3428 0,0 -1.75828,0.9667 -1.75828,0.9667 0,0 1.1299,-6.07803 1.1299,-6.07803 z m 1.53293,0.86787 c -0.28038,-0.3307 -0.56583,-0.65743 -0.85634,-0.9802 0,0 1.12935,-0.49147 1.12935,-0.49147 0,0 3.8688,0.88992 3.8688,0.88992 0,0 0.86804,0.96061 0.86804,0.96061 0,0 -1.14204,0.52386 -1.14204,0.52386 0,0 -3.86781,-0.90272 -3.86781,-0.90272 z m 0.19553,-7.89728 c 0,0 6.34162,1.36954 6.34162,1.36954 0,0 -1.69287,1.17307 -1.69287,1.17307 0,0 -3.47526,-0.76214 -3.47526,-0.76214 0,0 -1.17349,-1.78047 -1.17349,-1.78047 z m 6.66464,2.05425 c 0,0 -1.13411,6.15767 -1.13411,6.15767 0,0 -1.30342,-1.69131 -1.30342,-1.69131 0,0 0.62579,-3.39093 0.62579,-3.39093 0,0 1.81174,-1.07543 1.81174,-1.07543 z m -20.12474,9.05436 c 0,0 1.64447,-1.09994 1.64447,-1.09994 0,0 3.32992,0.81338 3.32992,0.81338 0,0 1.04925,1.77837 1.04925,1.77837 0,0 -6.02364,-1.49181 -6.02364,-1.49181 z m 0.82931,-6.61149 c 0,0 1.17958,1.71686 1.17958,1.71686 0,0 -0.61348,3.26021 -0.61348,3.26021 0,0 -1.68371,0.9513 -1.68371,0.9513 0,0 1.11761,-5.92837 1.11761,-5.92837 z m 5.7428,7.61792 c 0,0 -1.21417,-1.74743 -1.21417,-1.74743 0,0 0.61845,-3.30327 0.61845,-3.30327 0,0 1.72116,-0.97193 1.72116,-0.97193 0,0 -1.12544,6.02263 -1.12544,6.02263 z m -4.2861,-6.7801 c -0.26529,-0.32078 -0.53546,-0.63769 -0.81049,-0.95072 0,0 1.08054,-0.48463 1.08054,-0.48463 0,0 3.68384,0.84737 3.68384,0.84737 0,0 0.82129,0.93133 0.82129,0.93133 0,0 -1.09236,0.5162 -1.09236,0.5162 0,0 -3.68282,-0.85955 -3.68282,-0.85955 z m 0.23823,-7.69665 c 0,0 6.03884,1.30415 6.03884,1.30415 0,0 -1.62183,1.15108 -1.62183,1.15108 0,0 -3.30927,-0.72574 -3.30927,-0.72574 0,0 -1.10774,-1.72949 -1.10774,-1.72949 z m -1.64742,6.38611 c 0,0 1.11429,-5.91042 1.11429,-5.91042 0,0 1.19934,1.59863 1.19934,1.59863 0,0 -0.61912,3.29 -0.61912,3.29 0,0 -1.69451,1.02179 -1.69451,1.02179 z"
       inkscape:connector-curvature="0"
       inkscape:path-effect="#path-effect4640"
       inkscape:original-d="m 274.52763,910.01213 1.56914,-1.64531 h 3.76289 l 1.49297,1.64531 z m -0.4418,-7.48008 1.63008,1.58438 v 3.73242 l -1.63008,1.49297 z m 0.42656,-7.99804 h 6.79453 l -1.47773,1.64531 h -3.76289 z m -0.47226,7.46484 v -6.80977 l 1.63008,1.47774 v 3.77812 z m -9.50292,-9.01875 h 1.91953 v 1.95 h -1.91953 z m -14.5912,17.03203 1.53867,-1.64531 h 3.77813 l 1.47773,1.64531 z m 7.2668,-0.67031 -1.63008,-1.56914 v -3.74766 l 1.63008,-1.49297 z m -5.98711,-6.26133 q -0.51797,-0.42656 -1.06641,-0.83789 l 1.06641,-0.80742 h 4.15898 l 1.06641,0.80742 -1.06641,0.83789 z m -1.32539,-8.54648 h 6.825 l -1.49297,1.64531 h -3.76289 z m 7.2668,0.65507 v 6.80977 l -1.63008,-1.47774 v -3.76289 z m -11.48077,12.56836 h 1.91953 v 1.95 h -1.91953 z m -9.50292,2.25469 1.56914,-1.64531 h 3.76289 l 1.47774,1.64531 z m -0.45703,-7.48008 1.64531,1.58438 v 3.73242 l -1.64531,1.49297 z m 1.76719,0.54844 q -0.53321,-0.42656 -1.08164,-0.83789 l 1.08164,-0.80742 h 4.15898 l 1.06641,0.80742 -1.06641,0.83789 z m -1.32539,-8.54648 h 6.80976 l -1.5082,1.64531 h -3.73242 z m 7.26679,0.65507 v 6.80977 l -1.64531,-1.47774 v -3.76289 z m -19.45096,14.82305 1.56914,-1.64531 h 3.76289 l 1.47773,1.64531 z m -0.45703,-7.48008 1.64531,1.58438 v 3.73242 l -1.64531,1.49297 z m 7.75429,6.80977 -1.64531,-1.56914 v -3.74766 l 1.64531,-1.49297 z m -5.98711,-6.26133 q -0.5332,-0.42656 -1.08164,-0.83789 l 1.08164,-0.80742 h 4.15899 l 1.06641,0.80742 -1.06641,0.83789 z m -1.32539,-8.54648 h 6.80977 l -1.5082,1.64531 h -3.73243 z m -0.4875,7.46484 v -6.80977 l 1.64532,1.47774 v 3.77812 z" />
    <path
       id="10"
       style="color:#000000;font-style:normal;font-variant:normal;font-weight:normal;font-stretch:normal;font-size:medium;line-height:normal;font-family:sans-serif;font-variant-ligatures:normal;font-variant-position:normal;font-variant-caps:normal;font-variant-numeric:normal;font-variant-alternates:normal;font-feature-settings:normal;text-indent:0;text-align:start;text-decoration:none;text-decoration-line:none;text-decoration-style:solid;text-decoration-color:#000000;letter-spacing:normal;word-spacing:normal;text-transform:none;writing-mode:lr-tb;direction:ltr;text-orientation:mixed;dominant-baseline:auto;baseline-shift:baseline;text-anchor:start;white-space:normal;shape-padding:0;clip-rule:nonzero;display:inline;overflow:visible;visibility:visible;opacity:1;isolation:auto;mix-blend-mode:normal;color-interpolation:sRGB;color-interpolation-filters:linearRGB;solid-color:#000000;solid-opacity:1;vector-effect:none;fill:#000000;fill-opacity:1;fill-rule:nonzero;stroke:none;stroke-width:4.70718765px;stroke-linecap:round;stroke-linejoin:round;stroke-miterlimit:4;stroke-dasharray:none;stroke-dashoffset:0;stroke-opacity:1;color-rendering:auto;image-rendering:auto;shape-rendering:auto;text-rendering:auto;enable-background:accumulate"
       d="m 260.88815,938.06236 c -0.35394,-0.0867 -0.61628,0.33819 -0.41305,0.66886 0,0 4.40192,7.38529 4.40192,7.38529 0.29971,0.51107 0.98803,0.0379 0.6806,-0.4684 0,0 -4.41077,-7.38611 -4.41077,-7.38611 -0.0587,-0.10147 -0.15204,-0.17348 -0.2587,-0.19964 z m -11.68067,-2.94943 c -0.0997,-0.0211 -0.20245,0.002 -0.28645,0.0631 0,0 -6.38878,4.53196 -6.38878,4.53196 -0.4349,0.30311 -0.0133,1.03932 0.41785,0.72876 0,0 6.39705,-4.53122 6.39705,-4.53122 0.30121,-0.20653 0.2109,-0.71849 -0.13967,-0.79263 z m -1.63123,-19.38401 c -0.33825,-0.074 -0.59182,0.34321 -0.39936,0.65698 0,0 4.1681,7.01074 4.1681,7.01074 0.28141,0.49572 0.95468,0.0121 0.65413,-0.47031 0,0 -4.17624,-7.01189 -4.17624,-7.01189 -0.0557,-0.0963 -0.14466,-0.16325 -0.24663,-0.18552 z m -6.72217,11.18487 c -0.50266,-0.13037 -0.66596,0.72046 -0.15929,0.83029 0,0 7.40005,1.76559 7.40005,1.76559 0.51408,0.13384 0.67829,-0.72748 0.16007,-0.83929 0,0 -7.40083,-1.75659 -7.40083,-1.75659 z m 13.81159,12.05534 c -0.2147,-0.0499 -0.42217,0.10044 -0.46367,0.33593 0,0 -1.58954,8.38527 -1.58954,8.38527 -0.11854,0.57593 0.67428,0.78482 0.77502,0.20354 0,0 1.59032,-8.39464 1.59032,-8.39464 0.0485,-0.23922 -0.0927,-0.47907 -0.31213,-0.5301 z m 9.59485,-6.71055 c -0.53402,-0.13377 -0.69825,0.73807 -0.1617,0.85875 0,0 7.90516,1.8838 7.90516,1.8838 0.54654,0.1375 0.71166,-0.74545 0.16246,-0.86838 0,0 -7.90592,-1.87417 -7.90592,-1.87417 z m 5.88923,-11.30148 c -0.10493,-0.0197 -0.21272,0.005 -0.30052,0.0692 0,0 -6.67573,4.72461 -6.67573,4.72461 -0.46416,0.31353 -0.008,1.06713 0.44442,0.73254 0,0 6.68454,-4.72369 6.68454,-4.72369 0.31417,-0.21544 0.21552,-0.73333 -0.15271,-0.80264 z m -10.67772,-7.67324 c -0.21533,-0.0421 -0.42303,0.11314 -0.46417,0.34677 0,0 -1.57784,8.32313 -1.57784,8.32313 -0.11733,0.57162 0.67714,0.75099 0.7773,0.17484 0,0 1.5786,-8.33236 1.5786,-8.33236 0.0482,-0.23754 -0.0939,-0.46938 -0.31389,-0.51238 z m 3.7119,19.18164 c 0,0 0.0558,-0.33297 0.0558,-0.33297 0,0 0.0419,-0.3361 0.0419,-0.3361 0,0 0.0293,-0.3392 0.0293,-0.3392 0,0 0.0138,-0.33519 0.0138,-0.33519 0,0 0.001,-0.3382 0.001,-0.3382 0,0 -0.0114,-0.34095 -0.0114,-0.34095 0,0 -0.027,-0.337 -0.027,-0.337 0,0 -0.0396,-0.33984 -0.0396,-0.33984 0,0 -0.0502,-0.32725 -0.0502,-0.32725 0,0 -0.0677,-0.33846 -0.0677,-0.33846 0,0 -0.0767,-0.32566 -0.0767,-0.32566 0,0 -0.0922,-0.32153 -0.0922,-0.32153 0,0 -0.10472,-0.3242 -0.10472,-0.3242 0,0 -0.11522,-0.31158 -0.11522,-0.31158 0,0 -0.12906,-0.30721 -0.12906,-0.30721 0,0 -0.14292,-0.30276 -0.14292,-0.30276 0,0 -0.15206,-0.29704 -0.15206,-0.29704 0,0 -0.16721,-0.28548 -0.16721,-0.28548 0,0 -0.17473,-0.27956 -0.17473,-0.27956 0,0 -0.18225,-0.27356 -0.18225,-0.27356 0,0 -0.19888,-0.26254 -0.19888,-0.26254 0,0 -0.20773,-0.24927 -0.20773,-0.24927 0,0 -0.21679,-0.24355 -0.21679,-0.24355 0,0 -0.22395,-0.23048 -0.22395,-0.23048 0,0 -0.23434,-0.2176 -0.23434,-0.2176 0,0 -0.24798,-0.21313 -0.24798,-0.21313 0,0 -0.2505,-0.19857 -0.2505,-0.19857 0,0 -0.25455,-0.18458 -0.25455,-0.18458 0,0 -0.26794,-0.17263 -0.26794,-0.17263 0,0 -0.27197,-0.15856 -0.27197,-0.15856 0,0 -0.27451,-0.14389 -0.27451,-0.14389 0,0 -0.28929,-0.13288 -0.28929,-0.13288 0,0 -0.28429,-0.12365 -0.28429,-0.12365 0,0 -0.29417,-0.10435 -0.29417,-0.10435 0,0 -0.28765,-0.0947 -0.28765,-0.0947 0,0 -0.30036,-0.0774 -0.30036,-0.0774 0,0 -0.30025,-0.0681 -0.30025,-0.0681 0,0 -0.30407,-0.0466 -0.30407,-0.0466 0,0 -0.30641,-0.0328 -0.30641,-0.0328 0,0 -0.30746,-0.0251 -0.30746,-0.0251 0,0 -0.3051,-0.002 -0.3051,-0.002 0,0 -0.30616,0.005 -0.30616,0.005 0,0 -0.30204,0.0206 -0.30204,0.0206 0,0 -0.30594,0.0415 -0.30594,0.0415 0,0 -0.30046,0.0501 -0.30046,0.0501 0,0 -0.29646,0.0657 -0.29646,0.0657 0,0 -0.29897,0.0799 -0.29897,0.0799 0,0 -0.28717,0.0896 -0.28717,0.0896 0,0 -0.28972,0.10405 -0.28972,0.10405 0,0 -0.28049,0.12785 -0.28049,0.12785 0,0 -0.28035,0.12803 -0.28035,0.12803 0,0 -0.27001,0.14487 -0.27001,0.14487 0,0 -0.26615,0.16066 -0.26615,0.16066 0,0 -0.26208,0.17588 -0.26208,0.17588 0,0 -0.24928,0.17887 -0.24928,0.17887 0,0 -0.2453,0.19443 -0.2453,0.19443 0,0 -0.23491,0.21154 -0.23491,0.21154 0,0 -0.2299,0.21988 -0.2299,0.21988 0,0 -0.21688,0.22286 -0.21688,0.22286 0,0 -0.21307,0.23831 -0.21307,0.23831 0,0 -0.20139,0.24819 -0.20139,0.24819 0,0 -0.18989,0.25815 -0.18989,0.25815 0,0 -0.17844,0.26829 -0.17844,0.26829 0,0 -0.16549,0.27124 -0.16549,0.27124 0,0 -0.16174,0.28671 -0.16174,0.28671 0,0 -0.14896,0.28964 -0.14896,0.28964 0,0 -0.13601,0.29264 -0.13601,0.29264 0,0 -0.11824,0.30407 -0.11824,0.30407 0,0 -0.11165,0.30569 -0.11165,0.30569 0,0 -0.10058,0.31647 -0.10058,0.31647 0,0 -0.0874,0.3187 -0.0874,0.3187 0,0 -0.0748,0.3218 -0.0748,0.3218 0,0 -0.0619,0.32479 -0.0619,0.32479 0,0 -0.049,0.32789 -0.049,0.32789 0,0 -0.0364,0.33104 -0.0364,0.33104 0,0 -0.0221,0.3274 -0.0221,0.3274 0,0 -0.009,0.32887 -0.009,0.32887 0,0 0.003,0.33376 0.003,0.33376 0,0 0.0161,0.33683 0.0161,0.33683 0,0 0.0303,0.33339 0.0303,0.33339 0,0 0.0383,0.32671 0.0383,0.32671 0,0 0.0589,0.32468 0.0589,0.32468 0,0 0.0651,0.32641 0.0651,0.32641 0,0 0.0858,0.32451 0.0858,0.32451 0,0 0.0872,0.31803 0.0872,0.31803 0,0 0.10773,0.31605 0.10773,0.31605 0,0 0.11577,0.30941 0.11577,0.30941 0,0 0.13117,0.2993 0.13117,0.2993 0,0 0.14579,0.29427 0.14579,0.29427 0,0 0.15197,0.29766 0.15197,0.29766 0,0 0.16264,0.27753 0.16264,0.27753 0,0 0.17683,0.27419 0.17683,0.27419 0,0 0.18512,0.26753 0.18512,0.26753 0,0 0.19422,0.25586 0.19422,0.25586 0,0 0.2085,0.25245 0.2085,0.25245 0,0 0.21136,0.23924 0.21136,0.23924 0,0 0.22725,0.22742 0.22725,0.22742 0,0 0.235,0.22238 0.235,0.22238 0,0 0.23951,0.20064 0.23951,0.20064 0,0 0.25402,0.19726 0.25402,0.19726 0,0 0.25697,0.18219 0.25697,0.18219 0,0 0.26617,0.17054 0.26617,0.17054 0,0 0.26785,0.16385 0.26785,0.16385 0,0 0.27863,0.14398 0.27863,0.14398 0,0 0.28134,0.13026 0.28134,0.13026 0,0 0.29015,0.12346 0.29015,0.12346 0,0 0.28768,0.10127 0.28768,0.10127 0,0 0.29522,0.0969 0.29522,0.0969 0,0 0.29973,0.0746 0.29973,0.0746 0,0 0.30258,0.0609 0.30258,0.0609 0,0 0.30446,0.0523 0.30446,0.0523 0,0 0.30849,0.0325 0.30849,0.0325 0,0 0.30418,0.0223 0.30418,0.0223 0,0 0.30833,0.002 0.30833,0.002 0,0 0.31021,-0.007 0.31021,-0.007 0,0 0.30485,-0.0203 0.30485,-0.0203 0,0 0.30364,-0.0385 0.30364,-0.0385 0,0 0.30619,-0.0594 0.30619,-0.0594 0,0 0.30016,-0.0609 0.30016,-0.0609 0,0 0.29802,-0.083 0.29802,-0.083 0,0 0.29489,-0.0999 0.29489,-0.0999 0,0 0.29011,-0.10831 0.29011,-0.10831 0,0 0.28539,-0.12563 0.28539,-0.12563 0,0 0.28063,-0.13418 0.28063,-0.13418 0,0 0.27709,-0.14933 0.27709,-0.14933 0,0 0.26763,-0.16792 0.26763,-0.16792 0,0 0.26124,-0.17669 0.26124,-0.17669 0,0 0.25638,-0.18519 0.25638,-0.18519 0,0 0.2453,-0.20408 0.2453,-0.20408 0,0 0.23572,-0.21373 0.23572,-0.21373 0,0 0.22769,-0.22296 0.22769,-0.22296 0,0 0.22565,-0.23783 0.22565,-0.23783 0,0 0.20559,-0.24455 0.20559,-0.24455 0,0 0.20196,-0.25987 0.20196,-0.25987 0,0 0.19575,-0.26157 0.19575,-0.26157 0,0 0.17661,-0.27327 0.17661,-0.27327 0,0 0.16378,-0.28371 0.16378,-0.28371 0,0 0.15912,-0.29381 0.15912,-0.29381 0,0 0.14622,-0.29514 0.14622,-0.29514 0,0 0.1352,-0.30673 0.1352,-0.30673 0,0 0.11317,-0.31214 0.11317,-0.31214 0,0 0.10841,-0.31331 0.10841,-0.31331 0,0 0.0956,-0.32345 0.0956,-0.32345 0,0 0.0829,-0.32645 0.0829,-0.32645 0,0 0.0688,-0.32749 0.0688,-0.32749 z"
       inkscape:connector-curvature="0"
       inkscape:path-effect="#path-effect4642"
       inkscape:original-d="m 251.935,934.94602 a 0.47346831,0.47346831 0 0 0 -0.32922,0.81327 l 6.59625,6.58718 a 0.4735073,0.4735073 0 1 0 0.66905,-0.67019 l -6.59624,-6.58689 a 0.47346831,0.47346831 0 0 0 -0.33984,-0.14337 z m -14.27051,-0.0786 a 0.47346831,0.47346831 0 0 0 -0.3253,0.14338 l -6.59584,6.59436 a 0.47351034,0.47351034 0 1 0 0.66944,0.66981 l 6.59585,-6.59466 a 0.47346831,0.47346831 0 0 0 -0.34415,-0.81289 z m -6.36878,-20.56226 a 0.47346831,0.47346831 0 0 0 -0.33,0.81284 l 6.58799,6.59433 a 0.47346831,0.47346831 0 1 0 0.66984,-0.66904 l -6.588,-6.59473 a 0.47346831,0.47346831 0 0 0 -0.33983,-0.1434 z m -5.54886,13.8781 a 0.47346831,0.47346831 0 1 0 0,0.94677 h 9.3255 a 0.47346831,0.47346831 0 1 0 0,-0.94677 z m 19.19197,9.3561 a 0.47346831,0.47346831 0 0 0 -0.46633,0.48005 v 9.32161 a 0.47346831,0.47346831 0 1 0 0.9468,0 v -9.32161 a 0.47346831,0.47346831 0 0 0 -0.48047,-0.48005 z m 9.60364,-9.57854 a 0.47346831,0.47346831 0 1 0 0,0.94687 h 9.32511 a 0.47346831,0.47346831 0 1 0 0,-0.94687 z m 4.27951,-13.361 a 0.47346831,0.47346831 0 0 0 -0.32569,0.143 l -6.60371,6.5943 a 0.47346831,0.47346831 0 1 0 0.66906,0.66981 l 6.6037,-6.59426 a 0.47346831,0.47346831 0 0 0 -0.34336,-0.81285 z m -13.95465,-5.72958 a 0.47346831,0.47346831 0 0 0 -0.46633,0.48008 v 9.32272 a 0.47346831,0.47346831 0 1 0 0.94681,0 v -9.32272 a 0.47346831,0.47346831 0 0 0 -0.48048,-0.48008 z m 8.48918,19.57906 -0.008,-0.36591 -0.0245,-0.36581 -0.0396,-0.366 -0.0565,-0.35795 -0.0717,-0.35805 -0.0867,-0.35795 -0.10371,-0.35 -0.11881,-0.35 -0.12823,-0.33418 -0.15086,-0.34185 -0.15841,-0.32623 -0.17537,-0.31818 -0.19047,-0.31809 -0.19989,-0.30227 -0.21497,-0.29441 -0.23007,-0.28646 -0.23949,-0.27831 -0.25458,-0.2625 -0.26212,-0.25454 -0.26966,-0.24649 -0.28664,-0.23088 -0.29418,-0.21477 -0.3036,-0.20662 -0.30927,-0.1911 -0.3187,-0.175 -0.33378,-0.16704 -0.33377,-0.15104 -0.33567,-0.13523 -0.34887,-0.11932 -0.35075,-0.10341 -0.35076,-0.0872 -0.36583,-0.0719 -0.35829,-0.0633 -0.36584,-0.0403 -0.35641,-0.0316 -0.36773,-0.01 h -0.36584 l -0.36583,0.024 -0.36584,0.0393 -0.36565,0.0479 -0.3581,0.0719 -0.35812,0.0795 -0.34999,0.0958 -0.35018,0.11932 -0.34209,0.12727 -0.33415,0.14318 -0.33416,0.15919 -0.31832,0.16685 -0.31831,0.18314 -0.30229,0.20663 -0.30228,0.20691 -0.28646,0.22263 -0.27852,0.23883 -0.27043,0.25435 -0.25476,0.25454 -0.24666,0.27046 -0.23062,0.28645 -0.2229,0.29432 -0.20687,0.29441 -0.19895,0.31023 -0.18292,0.31808 -0.16708,0.32604 -0.15123,0.33418 -0.13522,0.33419 -0.12728,0.35 -0.11146,0.34999 -0.0954,0.35 -0.0717,0.35786 -0.0635,0.35795 -0.0479,0.36677 -0.0317,0.36581 -0.016,0.36591 v 0.36581 l 0.016,0.36581 0.0317,0.3659 0.0479,0.35824 0.0635,0.35642 0.0796,0.35834 0.0954,0.35824 0.11145,0.35076 0.11937,0.34137 0.14332,0.33371 0.15105,0.3338 0.175,0.32623 0.17518,0.31875 0.19895,0.31109 0.20687,0.3017 0.22271,0.28665 0.23874,0.27725 0.24665,0.27908 0.25458,0.25455 0.27042,0.24706 0.27852,0.23758 0.28645,0.22254 0.30229,0.21496 0.30248,0.19992 0.31832,0.18295 0.32604,0.17538 0.32624,0.15085 0.34227,0.14328 0.34208,0.12631 0.35,0.11136 0.35018,0.1037 0.3581,0.0796 0.35792,0.0642 0.36641,0.0546 0.3583,0.0316 0.36583,0.0249 h 0.36584 l 0.36584,-0.0153 0.36583,-0.0249 0.36584,-0.047 0.3583,-0.0566 0.3583,-0.0795 0.35829,-0.0891 0.34886,-0.10178 0.34321,-0.12066 0.34133,-0.14337 0.33378,-0.14328 0.32623,-0.16599 0.3187,-0.18295 0.31115,-0.19043 0.30172,-0.20739 0.29418,-0.21506 0.28664,-0.23001 0.27154,-0.24707 0.26213,-0.25454 0.25457,-0.26212 0.23761,-0.27908 0.2244,-0.28665 0.2131,-0.29422 0.20744,-0.30926 0.18291,-0.31109 0.17537,-0.32623 0.16784,-0.32633 0.14332,-0.3337 0.12634,-0.34137 0.11881,-0.35077 0.10372,-0.34884 0.0886,-0.35824 0.0622,-0.35834 0.0565,-0.35834 0.0396,-0.36581 0.0245,-0.36581 z" />
  </g>
  <g
     style="display:inline"
     inkscape:groupmode="layer"
     id="layer2"
     inkscape:label="bubbles"
     transform="translate(0,-70.866142)">
    <path
       sodipodi:nodetypes="sssss"
       inkscape:connector-curvature="0"
       id="path3581"
       d="m 65.503855,136.52007 c -19.142025,5.78949 -9.438604,18.49926 -2.033683,19.74117 50.453438,8.4618 108.963278,4.22165 161.187808,-1.77683 6.26318,-0.71939 3.07251,-17.89927 -2.72893,-18.48495 -58.11571,-5.86698 -129.151015,-7.72845 -156.425195,0.52061 z"
       style="opacity:1;fill:#ffffff;fill-opacity:1;stroke:none;stroke-width:0.35433072;stroke-linecap:round;stroke-linejoin:round;stroke-miterlimit:4;stroke-dasharray:none;stroke-dashoffset:0;stroke-opacity:1" />
    <path
       sodipodi:nodetypes="sssss"
       inkscape:connector-curvature="0"
       id="path3583"
       d="m 356.35762,164.65022 c -8.73509,50.38901 4.38674,145.76611 6.40314,167.07988 0.55963,5.91538 96.4102,10.90986 98.61482,-4.07402 3.76221,-25.57019 4.96565,-125.05407 7.17065,-157.66744 0.97228,-14.38067 -110.80664,-13.3104 -112.18861,-5.33842 z"
       style="opacity:1;fill:#ffffff;fill-opacity:1;stroke:none;stroke-width:0.34399605;stroke-linecap:round;stroke-linejoin:round;stroke-miterlimit:4;stroke-dasharray:none;stroke-dashoffset:0;stroke-opacity:1" />
    <path
       inkscape:connector-curvature="0"
       id="path3585"
       d="M 74.534434,153.30947 C 59.6809,169.94029 44.486078,186.29701 30.565637,203.75178 23.44139,212.68484 16.329035,221.6199 9.2590315,230.59586 c -4.7034265,5.97139 -9.82569973,11.65648 -14.217694,17.86415 -20.6223145,29.14774 -7.1514505,22.61376 9.0120851,4.83156 21.4579984,-23.60688 37.5968024,-50.77831 60.3460204,-73.1278 2.302865,-2.2624 25.928209,-20.50951 25.352507,-25.11574 0,0 -6.280803,-0.41093 -6.55772,-0.43862 -3.162497,-0.31629 -5.641153,-1.05293 -8.659796,-1.29994 z"
       style="opacity:1;fill:#ffffff;fill-opacity:1;stroke:none;stroke-width:0.35433072;stroke-linecap:round;stroke-linejoin:round;stroke-miterlimit:4;stroke-dasharray:none;stroke-dashoffset:0;stroke-opacity:1"
       sodipodi:nodetypes="csssssccc" />
    <path
       inkscape:connector-curvature="0"
       id="path3587"
       d="m 352.8307,349.8684 0,0.18587"
       style="opacity:1;fill:#ffffff;fill-opacity:1;stroke:none;stroke-width:0.35433072;stroke-linecap:round;stroke-linejoin:round;stroke-miterlimit:4;stroke-dasharray:none;stroke-dashoffset:0;stroke-opacity:1" />
    <path
       inkscape:connector-curvature="0"
       id="path3589"
       d="m 223.03609,141.76334 c 36.09954,4.54594 73.95047,6.9145 110.03113,15.2408 9.10779,2.1018 24.6943,8.21006 30.10988,9.29317 -2.14905,0.37081 -0.6828,3.65666 -1.48687,4.46073 -0.3894,0.38941 -19.76532,-5.63034 -22.30361,-5.94763 -34.21856,-4.27732 -66.96634,-17.09943 -101.85316,-17.09943 -9.64963,0 -14.60891,-1.67302 -15.2408,-4.83245"
       style="opacity:1;fill:#ffffff;fill-opacity:1;stroke:none;stroke-width:0.35433072;stroke-linecap:round;stroke-linejoin:round;stroke-miterlimit:4;stroke-dasharray:none;stroke-dashoffset:0;stroke-opacity:1" />
    <path
       inkscape:connector-curvature="0"
       id="path3591"
       d="m 45.204405,474.97894 c -9.816354,5.71449 -9.771332,61.54905 1.74994,68.30504 11.019106,6.46153 178.703365,9.52339 184.585825,1.64738 8.28606,-11.09418 10.65473,-63.38637 2.17161,-68.32897 -18.71301,-10.90295 -181.300147,-5.81906 -188.507375,-1.62345 z"
       style="opacity:1;fill:#ffffff;fill-opacity:1;stroke:none;stroke-width:0.35433072;stroke-linecap:round;stroke-linejoin:round;stroke-miterlimit:4;stroke-dasharray:none;stroke-dashoffset:0;stroke-opacity:1"
       sodipodi:nodetypes="sssss" />
    <path
       sodipodi:nodetypes="cssssssssssc"
       inkscape:connector-curvature="0"
       id="path3593"
       d="m 357.17981,271.15927 c -21.43261,12.23586 -43.40756,24.46836 -62.77953,40.07472 -17.23868,13.88775 -33.38492,27.70539 -47.75646,44.64443 -7.15319,8.43113 -13.38444,17.28722 -19.19349,26.67661 -4.83998,7.82306 -9.63208,15.55048 -14.11403,23.59025 -3.26811,5.86238 -6.58718,12.21972 -8.71561,18.60584 -4.91574,14.74913 -17.23888,56.1029 -14.21956,52.36106 1.00971,-1.25133 4.40892,5.45507 6.69065,0.55825 8.80494,-18.89624 4.34893,-34.52136 25.30302,-71.93188 26.20835,-46.79124 58.90249,-82.57073 107.10969,-109.50525 3.31115,-1.85002 27.24885,-16.25594 28.01023,-18.15965 0.60578,-1.51463 -0.70191,-5.01939 -0.33491,-6.91438 z"
       style="opacity:1;fill:#ffffff;fill-opacity:1;stroke:none;stroke-width:0.35433072;stroke-linecap:round;stroke-linejoin:round;stroke-miterlimit:4;stroke-dasharray:none;stroke-dashoffset:0;stroke-opacity:1" />
    <path
       inkscape:connector-curvature="0"
       id="path3595"
       d="m 344.28098,720.85176 1.05323,1.54886"
       style="opacity:1;fill:#ffffff;fill-opacity:1;stroke:none;stroke-width:0.35433072;stroke-linecap:round;stroke-linejoin:round;stroke-miterlimit:4;stroke-dasharray:none;stroke-dashoffset:0;stroke-opacity:1" />
    <path
       sodipodi:nodetypes="sssss"
       inkscape:connector-curvature="0"
       id="path3597"
       d="m 175.25969,580.94865 c -8.03132,-0.49369 -11.11844,26.70734 -0.23922,27.03548 73.97811,2.23131 151.73672,-1.38205 220.37027,0.55028 6.43959,0.1813 7.15848,-23.88258 2.59156,-24.39573 -72.12091,-8.10375 -151.58328,1.18297 -222.72261,-3.19003 z"
       style="opacity:1;fill:#ffffff;fill-opacity:1;stroke:none;stroke-width:0.35433072;stroke-linecap:round;stroke-linejoin:round;stroke-miterlimit:4;stroke-dasharray:none;stroke-dashoffset:0;stroke-opacity:1" />
    <path
       inkscape:connector-curvature="0"
       id="path3599"
       d="m 200.85408,497.65964 c 6.82046,13.87531 12.03961,28.29525 16.60193,43.06537 2.58942,8.38302 5.20234,16.75801 7.8305,25.12944 1.36931,4.36166 5.50914,25.71934 9.69642,24.35586 0.31771,-0.10345 1.79317,-0.24882 1.85795,-0.6699 1.47083,-9.5617 -21.9886,-69.10333 -26.84059,-81.3776 -2.03842,-5.15669 -3.46549,-12.16139 -9.14621,-10.50317 z"
       style="opacity:1;fill:#ffffff;fill-opacity:1;stroke:none;stroke-width:0.35433072;stroke-linecap:round;stroke-linejoin:round;stroke-miterlimit:4;stroke-dasharray:none;stroke-dashoffset:0;stroke-opacity:1" />
  </g>
  <g
     style="display:inline"
     inkscape:groupmode="layer"
     id="layer3"
     inkscape:label="text"
     transform="translate(0,-70.866142)">
    <text
       id="text4219"
       y="334.40897"
       x="33.168972"
       style="color:#000000;font-style:normal;font-variant:normal;font-weight:normal;font-stretch:normal;font-size:17.5px;line-height:125%;font-family:Frenchpress;-inkscape-font-specification:Frenchpress;text-indent:0;text-align:start;text-decoration:none;text-decoration-line:none;text-decoration-style:solid;text-decoration-color:#000000;letter-spacing:0px;word-spacing:0px;text-transform:none;direction:ltr;block-progression:tb;writing-mode:lr-tb;baseline-shift:baseline;text-anchor:start;white-space:normal;clip-rule:nonzero;display:inline;overflow:visible;visibility:visible;opacity:1;isolation:auto;mix-blend-mode:normal;color-interpolation:sRGB;color-interpolation-filters:linearRGB;solid-color:#000000;solid-opacity:1;fill:#000000;fill-opacity:1;fill-rule:nonzero;stroke:none;stroke-width:1px;stroke-linecap:butt;stroke-linejoin:miter;stroke-miterlimit:4;stroke-dasharray:none;stroke-dashoffset:0;stroke-opacity:1;color-rendering:auto;image-rendering:auto;shape-rendering:auto;text-rendering:auto;enable-background:accumulate"
       xml:space="preserve"><tspan
         style="font-style:normal;font-variant:normal;font-weight:normal;font-stretch:normal;font-size:17.5px;font-family:Frenchpress;-inkscape-font-specification:Frenchpress"
         y="334.40897"
         x="33.168972"
         id="tspan4221"
         sodipodi:role="line" /></text>
    <flowRoot
       style="color:#000000;font-style:normal;font-variant:normal;font-weight:normal;font-stretch:normal;font-size:12.5px;line-height:125%;font-family:Cantarell;-inkscape-font-specification:Cantarell;text-indent:0;text-align:start;text-decoration:none;text-decoration-line:none;text-decoration-style:solid;text-decoration-color:#000000;letter-spacing:0px;word-spacing:0px;text-transform:none;direction:ltr;block-progression:tb;writing-mode:lr-tb;baseline-shift:baseline;text-anchor:start;white-space:normal;clip-rule:nonzero;display:inline;overflow:visible;visibility:visible;opacity:1;isolation:auto;mix-blend-mode:normal;color-interpolation:sRGB;color-interpolation-filters:linearRGB;solid-color:#000000;solid-opacity:1;fill:#000000;fill-opacity:1;fill-rule:nonzero;stroke:none;stroke-width:1px;stroke-linecap:butt;stroke-linejoin:miter;stroke-miterlimit:4;stroke-dasharray:none;stroke-dashoffset:0;stroke-opacity:1;color-rendering:auto;image-rendering:auto;shape-rendering:auto;text-rendering:auto;enable-background:accumulate"
       id="flowRoot4275"
       xml:space="preserve"
       transform="translate(-37.329684,34.478724)"><flowRegion
         id="flowRegion4277"><rect
           y="317.81778"
           x="70.866142"
           height="95.714287"
           width="200.56242"
           id="rect4279" /></flowRegion><flowPara
         id="flowPara4281" /></flowRoot>    <flowRoot
       transform="translate(-52.429458,-119.89921)"
       style="stroke-linejoin:miter;baseline-shift:baseline;color-rendering:auto;text-decoration-color:#000000;color:#000000;letter-spacing:0px;shape-rendering:auto;word-spacing:0px;stroke:none;text-decoration-line:none;text-rendering:auto;stroke-width:1px;color-interpolation-filters:linearRGB;fill:#000000;solid-opacity:1;line-height:0.01%;fill-rule:nonzero;mix-blend-mode:normal;fill-opacity:1;font-style:normal;block-progression:tb;font-stretch:normal;stroke-miterlimit:4;font-variant:normal;font-weight:normal;opacity:1;direction:ltr;-inkscape-font-specification:Frenchpress;visibility:visible;text-indent:0;clip-rule:nonzero;image-rendering:auto;white-space:normal;overflow:visible;font-family:Frenchpress;text-decoration-style:solid;text-align:center;solid-color:#000000;writing-mode:lr-tb;stroke-opacity:1;isolation:auto;stroke-dashoffset:0;text-anchor:middle;text-decoration:none;stroke-linecap:butt;stroke-dasharray:none;enable-background:accumulate;text-transform:none;display:inline;color-interpolation:sRGB"
       id="flowRoot3454"
       xml:space="preserve"><flowRegion
         id="flowRegion3456"><rect
           style="font-style:normal;font-variant:normal;font-weight:normal;font-stretch:normal;font-size:16.25000191px;line-height:110.00000238%;font-family:Frenchpress;-inkscape-font-specification:Frenchpress;text-align:center;text-anchor:middle"
           y="259.24634"
           x="70.866142"
           height="39.532368"
           width="242.60959"
           id="rect3458" /></flowRegion><flowPara
         style="font-style:normal;font-variant:normal;font-weight:normal;font-stretch:normal;font-size:16.25000191px;line-height:100%;font-family:Comili;-inkscape-font-specification:Comili"
         id="flowPara3460">Alexandrie, Port Saïd,</flowPara></flowRoot>    <flowRoot
       transform="translate(288.22746,-89.909922)"
       style="stroke-linejoin:miter;baseline-shift:baseline;color-rendering:auto;text-decoration-color:#000000;color:#000000;letter-spacing:0px;shape-rendering:auto;word-spacing:0px;stroke:none;text-decoration-line:none;text-rendering:auto;stroke-width:1px;color-interpolation-filters:linearRGB;fill:#000000;solid-opacity:1;line-height:0.01%;fill-rule:nonzero;mix-blend-mode:normal;fill-opacity:1;font-style:normal;block-progression:tb;font-stretch:normal;stroke-miterlimit:4;font-variant:normal;font-weight:normal;opacity:1;direction:ltr;-inkscape-font-specification:Frenchpress;visibility:visible;text-indent:0;clip-rule:nonzero;image-rendering:auto;white-space:normal;overflow:visible;font-family:Frenchpress;text-decoration-style:solid;text-align:center;solid-color:#000000;writing-mode:lr-tb;stroke-opacity:1;isolation:auto;stroke-dashoffset:0;text-anchor:middle;text-decoration:none;stroke-linecap:butt;stroke-dasharray:none;enable-background:accumulate;text-transform:none;display:inline;color-interpolation:sRGB"
       id="flowRoot3462"
       xml:space="preserve"><flowRegion
         id="flowRegion3464"><rect
           style="font-style:normal;font-variant:normal;font-weight:normal;font-stretch:normal;font-size:16.25000191px;line-height:110.00000238%;font-family:Frenchpress;-inkscape-font-specification:Frenchpress;text-align:center;text-anchor:middle"
           y="259.24634"
           x="70.866142"
           height="195.66141"
           width="104.32531"
           id="rect3466" /></flowRegion><flowPara
         style="font-style:normal;font-variant:normal;font-weight:normal;font-stretch:normal;font-size:16.25000191px;line-height:100%;font-family:Comili;-inkscape-font-specification:Comili"
         id="flowPara3468">la Nouvelle-Orléans, Bangkok, Astrakhan, Dhaka, Ho Chi Minh Ville et tout le sud du Vietnam, Foshan, Calcutta,</flowPara></flowRoot>    <flowRoot
       transform="translate(-32.600298,220.06145)"
       style="color:#000000;font-style:normal;font-variant:normal;font-weight:normal;font-stretch:normal;line-height:0.01%;font-family:Frenchpress;-inkscape-font-specification:Frenchpress;text-indent:0;text-align:center;text-decoration:none;text-decoration-line:none;text-decoration-style:solid;text-decoration-color:#000000;letter-spacing:0px;word-spacing:0px;text-transform:none;writing-mode:lr-tb;direction:ltr;baseline-shift:baseline;text-anchor:middle;white-space:normal;clip-rule:nonzero;display:inline;overflow:visible;visibility:visible;opacity:1;isolation:auto;mix-blend-mode:normal;color-interpolation:sRGB;color-interpolation-filters:linearRGB;solid-color:#000000;solid-opacity:1;fill:#000000;fill-opacity:1;fill-rule:nonzero;stroke:none;stroke-width:1px;stroke-linecap:butt;stroke-linejoin:miter;stroke-miterlimit:4;stroke-dasharray:none;stroke-dashoffset:0;stroke-opacity:1;color-rendering:auto;image-rendering:auto;shape-rendering:auto;text-rendering:auto;enable-background:accumulate"
       id="flowRoot3470"
       xml:space="preserve"><flowRegion
         id="flowRegion3472"><rect
           style="font-style:normal;font-variant:normal;font-weight:normal;font-stretch:normal;font-size:16.25000191px;line-height:110.00000238%;font-family:Frenchpress;-inkscape-font-specification:Frenchpress;text-align:center;text-anchor:middle"
           y="259.24634"
           x="70.866142"
           height="70.396072"
           width="199.97316"
           id="rect3474" /></flowRegion><flowPara
         style="font-style:normal;font-variant:normal;font-weight:normal;font-stretch:normal;font-size:16.25000191px;line-height:100%;font-family:Comili;-inkscape-font-specification:Comili"
         id="flowPara3476">et toutes les villes qui sont encore pour toi à plus ou moins 500 km du Sahel si tu veux vivre la journée…</flowPara></flowRoot>    <flowRoot
       xml:space="preserve"
       id="flowRoot4289"
       style="color:#000000;font-style:normal;font-variant:normal;font-weight:normal;font-stretch:normal;line-height:0.01%;font-family:Frenchpress;-inkscape-font-specification:Frenchpress;text-indent:0;text-align:center;text-decoration:none;text-decoration-line:none;text-decoration-style:solid;text-decoration-color:#000000;letter-spacing:0px;word-spacing:0px;text-transform:none;writing-mode:lr-tb;direction:ltr;baseline-shift:baseline;text-anchor:middle;white-space:normal;clip-rule:nonzero;display:inline;overflow:visible;visibility:visible;opacity:1;isolation:auto;mix-blend-mode:normal;color-interpolation:sRGB;color-interpolation-filters:linearRGB;solid-color:#000000;solid-opacity:1;fill:#000000;fill-opacity:1;fill-rule:nonzero;stroke:none;stroke-width:1px;stroke-linecap:butt;stroke-linejoin:miter;stroke-miterlimit:4;stroke-dasharray:none;stroke-dashoffset:0;stroke-opacity:1;color-rendering:auto;image-rendering:auto;shape-rendering:auto;text-rendering:auto;enable-background:accumulate"
       transform="translate(91.024837,328.2413)"><flowRegion
         id="flowRegion4291"><rect
           id="rect4293"
           width="252.68405"
           height="26.284698"
           x="70.866142"
           y="259.24634"
           style="font-style:normal;font-variant:normal;font-weight:normal;font-stretch:normal;font-size:16.25000191px;line-height:110.00000238%;font-family:Frenchpress;-inkscape-font-specification:Frenchpress;text-align:center;text-anchor:middle" /></flowRegion><flowPara
         id="flowPara4295"
         style="font-style:normal;font-variant:normal;font-weight:normal;font-stretch:normal;font-size:16.25000191px;line-height:100%;font-family:Comili;-inkscape-font-specification:Comili">J’espère que je n’en oublie pas.</flowPara></flowRoot>  </g>
  <g
     inkscape:groupmode="layer"
     id="layer4"
     inkscape:label="cache">
    <rect
       style="display:inline;opacity:1;fill:#ffffff;fill-opacity:1;stroke:none;stroke-width:1.00000012;stroke-linecap:round;stroke-linejoin:round;stroke-miterlimit:4;stroke-dasharray:none;stroke-dashoffset:0;stroke-opacity:1"
       id="rect4194"
       width="645.16888"
       height="932.30969"
       x="-652.25549"
       y="-88.592125" />
  </g>
  <g
     style="display:inline"
     id="printing-marks"
     inkscape:label="printing marks"
     inkscape:groupmode="layer"
     sodipodi:insensitive="true">
    <g
       id="CropMarks"
       inkscape:label="CropMarks">
      <path
         inkscape:connector-curvature="0"
         d="M 0,-7.0866142 0,-42.519685"
         id="cropTL1"
         style="fill:none;stroke:#000000;stroke-width:0.25" />
      <path
         inkscape:connector-curvature="0"
         d="M -7.0866142,0 -42.519685,0"
         id="cropTL2"
         style="fill:none;stroke:#000000;stroke-width:0.25" />
      <path
         inkscape:connector-curvature="0"
         d="m 524.40945,-7.0866142 0,-35.4330708"
         id="cropTR1"
         style="fill:none;stroke:#000000;stroke-width:0.25" />
      <path
         inkscape:connector-curvature="0"
         d="m 531.49606,0 35.43307,0"
         id="cropTR2"
         style="fill:none;stroke:#000000;stroke-width:0.25" />
      <path
         inkscape:connector-curvature="0"
         d="m 0,751.1811 0,35.43307"
         id="cropBL1"
         style="fill:none;stroke:#000000;stroke-width:0.25" />
      <path
         inkscape:connector-curvature="0"
         d="m -7.0866142,744.09449 -35.4330708,0"
         id="cropBL2"
         style="fill:none;stroke:#000000;stroke-width:0.25" />
      <path
         inkscape:connector-curvature="0"
         d="m 524.40945,751.1811 0,35.43307"
         id="cropBR1"
         style="fill:none;stroke:#000000;stroke-width:0.25" />
      <path
         inkscape:connector-curvature="0"
         d="m 531.49606,744.09449 35.43307,0"
         id="cropBR2"
         style="fill:none;stroke:#000000;stroke-width:0.25" />
    </g>
    <g
       id="RegistrationMarks"
       inkscape:label="RegistrationMarks">
      <g
         id="regMarkL">
        <path
           inkscape:connector-curvature="0"
           d="m 0,17.716535 -3.5433071,0 L 14.173228,0 -3.5433071,-17.716535 0,-17.716535 17.716535,0 0,17.716535 Z"
           style="fill:#000000;fill-opacity:1;stroke:none"
           transform="translate(-35.433071,318.89764)"
           id="path3448" />
        <path
           inkscape:connector-curvature="0"
           d="m -3.5433071,17.716535 -3.5433071,0 L 10.629921,0 -7.0866142,-17.716535 l 3.5433071,0 L 14.173228,0 -3.5433071,17.716535 Z"
           style="fill:#00ffff;fill-opacity:1;stroke:none"
           transform="translate(-35.433071,318.89764)"
           id="path3450" />
        <path
           inkscape:connector-curvature="0"
           d="m -7.0866142,17.716535 -3.5433068,0 L 7.0866142,0 -10.629921,-17.716535 l 3.5433068,0 L 10.629921,0 -7.0866142,17.716535 Z"
           style="fill:#ff00ff;fill-opacity:1;stroke:none"
           transform="translate(-35.433071,318.89764)"
           id="path3452" />
        <path
           inkscape:connector-curvature="0"
           d="m -10.629921,17.716535 -3.543307,0 L 3.5433071,0 -14.173228,-17.716535 l 3.543307,0 L 7.0866142,0 -10.629921,17.716535 Z"
           style="fill:#ffff00;fill-opacity:1;stroke:none"
           transform="translate(-35.433071,318.89764)"
           id="path3454" />
        <path
           inkscape:connector-curvature="0"
           d="m -14.173228,17.716535 -3.543307,0 L 0,0 l -17.716535,-17.716535 3.543307,0 L 3.5433071,0 -14.173228,17.716535 Z"
           style="fill:#000000;fill-opacity:1;stroke:none"
           transform="translate(-35.433071,318.89764)"
           id="path3456" />
      </g>
      <g
         id="regMarkR">
        <path
           inkscape:connector-curvature="0"
           d="m 0,17.716535 -3.5433071,0 L 14.173228,0 -3.5433071,-17.716535 0,-17.716535 17.716535,0 0,17.716535 Z"
           style="fill:#000000;fill-opacity:1;stroke:none"
           transform="matrix(-1,0,0,-1,559.84252,318.89764)"
           id="path3459" />
        <path
           inkscape:connector-curvature="0"
           d="m -3.5433071,17.716535 -3.5433071,0 L 10.629921,0 -7.0866142,-17.716535 l 3.5433071,0 L 14.173228,0 -3.5433071,17.716535 Z"
           style="fill:#00ffff;fill-opacity:1;stroke:none"
           transform="matrix(-1,0,0,-1,559.84252,318.89764)"
           id="path3461" />
        <path
           inkscape:connector-curvature="0"
           d="m -7.0866142,17.716535 -3.5433068,0 L 7.0866142,0 -10.629921,-17.716535 l 3.5433068,0 L 10.629921,0 -7.0866142,17.716535 Z"
           style="fill:#ff00ff;fill-opacity:1;stroke:none"
           transform="matrix(-1,0,0,-1,559.84252,318.89764)"
           id="path3463" />
        <path
           inkscape:connector-curvature="0"
           d="m -10.629921,17.716535 -3.543307,0 L 3.5433071,0 -14.173228,-17.716535 l 3.543307,0 L 7.0866142,0 -10.629921,17.716535 Z"
           style="fill:#ffff00;fill-opacity:1;stroke:none"
           transform="matrix(-1,0,0,-1,559.84252,318.89764)"
           id="path3465" />
        <path
           inkscape:connector-curvature="0"
           d="m -14.173228,17.716535 -3.543307,0 L 0,0 l -17.716535,-17.716535 3.543307,0 L 3.5433071,0 -14.173228,17.716535 Z"
           style="fill:#000000;fill-opacity:1;stroke:none"
           transform="matrix(-1,0,0,-1,559.84252,318.89764)"
           id="path3467" />
      </g>
      <g
         id="regMarkT">
        <path
           inkscape:connector-curvature="0"
           d="m 0,17.716535 -3.5433071,0 L 14.173228,0 -3.5433071,-17.716535 0,-17.716535 17.716535,0 0,17.716535 Z"
           style="fill:#000000;fill-opacity:1;stroke:none"
           transform="matrix(0,1,-1,0,262.20472,-35.433071)"
           id="path3470" />
        <path
           inkscape:connector-curvature="0"
           d="m -3.5433071,17.716535 -3.5433071,0 L 10.629921,0 -7.0866142,-17.716535 l 3.5433071,0 L 14.173228,0 -3.5433071,17.716535 Z"
           style="fill:#00ffff;fill-opacity:1;stroke:none"
           transform="matrix(0,1,-1,0,262.20472,-35.433071)"
           id="path3472" />
        <path
           inkscape:connector-curvature="0"
           d="m -7.0866142,17.716535 -3.5433068,0 L 7.0866142,0 -10.629921,-17.716535 l 3.5433068,0 L 10.629921,0 -7.0866142,17.716535 Z"
           style="fill:#ff00ff;fill-opacity:1;stroke:none"
           transform="matrix(0,1,-1,0,262.20472,-35.433071)"
           id="path3474" />
        <path
           inkscape:connector-curvature="0"
           d="m -10.629921,17.716535 -3.543307,0 L 3.5433071,0 -14.173228,-17.716535 l 3.543307,0 L 7.0866142,0 -10.629921,17.716535 Z"
           style="fill:#ffff00;fill-opacity:1;stroke:none"
           transform="matrix(0,1,-1,0,262.20472,-35.433071)"
           id="path3476" />
        <path
           inkscape:connector-curvature="0"
           d="m -14.173228,17.716535 -3.543307,0 L 0,0 l -17.716535,-17.716535 3.543307,0 L 3.5433071,0 -14.173228,17.716535 Z"
           style="fill:#000000;fill-opacity:1;stroke:none"
           transform="matrix(0,1,-1,0,262.20472,-35.433071)"
           id="path3478" />
      </g>
      <g
         id="regMarkB">
        <path
           inkscape:connector-curvature="0"
           d="m 0,17.716535 -3.5433071,0 L 14.173228,0 -3.5433071,-17.716535 0,-17.716535 17.716535,0 0,17.716535 Z"
           style="fill:#000000;fill-opacity:1;stroke:none"
           transform="matrix(0,-1,1,0,262.20472,779.52756)"
           id="path3481" />
        <path
           inkscape:connector-curvature="0"
           d="m -3.5433071,17.716535 -3.5433071,0 L 10.629921,0 -7.0866142,-17.716535 l 3.5433071,0 L 14.173228,0 -3.5433071,17.716535 Z"
           style="fill:#00ffff;fill-opacity:1;stroke:none"
           transform="matrix(0,-1,1,0,262.20472,779.52756)"
           id="path3483" />
        <path
           inkscape:connector-curvature="0"
           d="m -7.0866142,17.716535 -3.5433068,0 L 7.0866142,0 -10.629921,-17.716535 l 3.5433068,0 L 10.629921,0 -7.0866142,17.716535 Z"
           style="fill:#ff00ff;fill-opacity:1;stroke:none"
           transform="matrix(0,-1,1,0,262.20472,779.52756)"
           id="path3485" />
        <path
           inkscape:connector-curvature="0"
           d="m -10.629921,17.716535 -3.543307,0 L 3.5433071,0 -14.173228,-17.716535 l 3.543307,0 L 7.0866142,0 -10.629921,17.716535 Z"
           style="fill:#ffff00;fill-opacity:1;stroke:none"
           transform="matrix(0,-1,1,0,262.20472,779.52756)"
           id="path3487" />
        <path
           inkscape:connector-curvature="0"
           d="m -14.173228,17.716535 -3.543307,0 L 0,0 l -17.716535,-17.716535 3.543307,0 L 3.5433071,0 -14.173228,17.716535 Z"
           style="fill:#000000;fill-opacity:1;stroke:none"
           transform="matrix(0,-1,1,0,262.20472,779.52756)"
           id="path3489" />
      </g>
    </g>
  </g>
</svg>
