<?xml version="1.0" encoding="UTF-8" standalone="no"?>
<!-- Created with Inkscape (http://www.inkscape.org/) -->

<svg
   xmlns:dc="http://purl.org/dc/elements/1.1/"
   xmlns:cc="http://creativecommons.org/ns#"
   xmlns:rdf="http://www.w3.org/1999/02/22-rdf-syntax-ns#"
   xmlns:svg="http://www.w3.org/2000/svg"
   xmlns="http://www.w3.org/2000/svg"
   xmlns:xlink="http://www.w3.org/1999/xlink"
   xmlns:sodipodi="http://sodipodi.sourceforge.net/DTD/sodipodi-0.dtd"
   xmlns:inkscape="http://www.inkscape.org/namespaces/inkscape"
   width="148mm"
   height="210mm"
   viewBox="0 0 524.40946 744.09448"
   id="svg2"
   version="1.1"
   inkscape:version="0.92.1 r"
   sodipodi:docname="14.svg">
  <sodipodi:namedview
     id="base"
     pagecolor="#ffffff"
     bordercolor="#666666"
     borderopacity="1.0"
     inkscape:pageopacity="1"
     inkscape:pageshadow="2"
     inkscape:zoom="1.4274521"
     inkscape:cx="154.20753"
     inkscape:cy="409.62287"
     inkscape:document-units="mm"
     inkscape:current-layer="layer1"
     showgrid="false"
     units="mm"
     inkscape:window-width="2560"
     inkscape:window-height="1371"
     inkscape:window-x="0"
     inkscape:window-y="27"
     inkscape:window-maximized="1"
     showguides="true"
     inkscape:guide-bbox="true"
     inkscape:snap-bbox="true"
     inkscape:bbox-paths="true"
     inkscape:bbox-nodes="true"
     borderlayer="true"
     inkscape:snap-global="true"
     inkscape:snap-bbox-midpoints="false"
     inkscape:snap-bbox-edge-midpoints="true">
    <sodipodi:guide
       inkscape:locked="false"
       position="-7.0866147,0"
       orientation="1,0"
       id="guide7382"
       inkscape:label=""
       inkscape:color="rgb(0,0,255)" />
    <sodipodi:guide
       inkscape:locked="false"
       position="531.4961,0"
       orientation="1,0"
       id="guide7384"
       inkscape:label=""
       inkscape:color="rgb(0,0,255)" />
    <sodipodi:guide
       inkscape:locked="false"
       position="0,-7.0866142"
       orientation="0,1"
       id="guide7386"
       inkscape:label=""
       inkscape:color="rgb(0,0,255)" />
    <sodipodi:guide
       inkscape:locked="false"
       position="0,751.1811"
       orientation="0,1"
       id="guide7388"
       inkscape:label=""
       inkscape:color="rgb(0,0,255)" />
    <sodipodi:guide
       inkscape:locked="false"
       position="35.433073,0"
       orientation="1,0"
       id="guide7390"
       inkscape:label=""
       inkscape:color="rgb(0,0,255)" />
    <sodipodi:guide
       inkscape:locked="false"
       position="0,708.66142"
       orientation="0,1"
       id="guide7392"
       inkscape:label=""
       inkscape:color="rgb(0,0,255)" />
    <sodipodi:guide
       inkscape:locked="false"
       position="488.97641,0"
       orientation="1,0"
       id="guide7394"
       inkscape:label=""
       inkscape:color="rgb(0,0,255)" />
    <sodipodi:guide
       inkscape:locked="false"
       position="0,35.433071"
       orientation="0,1"
       id="guide7396"
       inkscape:label=""
       inkscape:color="rgb(0,0,255)" />
  </sodipodi:namedview>
  <defs
     id="defs4">
    <clipPath
       id="clipPath4363"
       clipPathUnits="userSpaceOnUse">
      <rect
         y="658.55035"
         x="-259.85718"
         height="185.95108"
         width="217.33749"
         id="rect4365"
         style="opacity:1;fill:#191919;fill-opacity:0.8;stroke:none;stroke-width:7.08661413;stroke-linecap:round;stroke-linejoin:round;stroke-miterlimit:10;stroke-dasharray:none;stroke-dashoffset:0;stroke-opacity:1" />
    </clipPath>
    <clipPath
       id="clipPath4392"
       clipPathUnits="userSpaceOnUse">
      <path
         inkscape:connector-curvature="0"
         id="path4394"
         d="m 92.962987,512.15196 c -0.731992,-2.92797 57.095373,-5.85594 57.095373,-5.85594 l 71.73522,-75.39518 c 0,0 71.73522,68.07526 88.57104,67.34327 16.83581,-0.73199 32.20765,-62.95132 32.20765,-62.95132 l 146.40411,-15.37183 c 0,0 0.72628,325.00446 -18.30551,318.41653 -19.03179,-6.58793 -75.39518,-40.99155 -81.25111,-40.99155 -5.85594,0 -196.17387,-5.12395 -196.17387,-5.12395 0,0 -94.426967,4.39196 -96.622943,1.46399 -2.195976,-2.92797 -5.123944,-46.1155 -5.123944,-46.1155 z"
         style="opacity:1;fill:#191919;fill-opacity:0.8;stroke:none;stroke-width:7.08661413;stroke-linecap:round;stroke-linejoin:round;stroke-miterlimit:10;stroke-dasharray:none;stroke-dashoffset:0;stroke-opacity:1" />
    </clipPath>
    <clipPath
       id="clipPath4187"
       clipPathUnits="userSpaceOnUse">
      <path
         inkscape:connector-curvature="0"
         id="path4189"
         d="M 0,792 612,792 612,0 0,0 0,792 Z" />
    </clipPath>
    <clipPath
       id="clipPath4203"
       clipPathUnits="userSpaceOnUse">
      <path
         inkscape:connector-curvature="0"
         id="path4205"
         d="M 0,0 612,0 612,792 0,792 0,0 Z" />
    </clipPath>
    <clipPath
       id="clipPath4257"
       clipPathUnits="userSpaceOnUse">
      <path
         inkscape:connector-curvature="0"
         id="path4259"
         d="m 113.527,130.8 348.946,0 0,589.2 -348.946,0 0,-589.2 z" />
    </clipPath>
    <clipPath
       id="clipPath4531"
       clipPathUnits="userSpaceOnUse">
      <path
         inkscape:connector-curvature="0"
         id="path4533"
         d="m 113.527,130.8 348.946,0 0,589.2 -348.946,0 0,-589.2 z" />
    </clipPath>
    <clipPath
       id="clipPath4583"
       clipPathUnits="userSpaceOnUse">
      <path
         inkscape:connector-curvature="0"
         id="path4585"
         d="m 113.527,130.8 348.946,0 0,589.2 -348.946,0 0,-589.2 z" />
    </clipPath>
    <clipPath
       id="clipPath4599"
       clipPathUnits="userSpaceOnUse">
      <path
         inkscape:connector-curvature="0"
         id="path4601"
         d="m 113.527,130.8 348.946,0 0,589.2 -348.946,0 0,-589.2 z" />
    </clipPath>
    <clipPath
       id="clipPath4615"
       clipPathUnits="userSpaceOnUse">
      <path
         inkscape:connector-curvature="0"
         id="path4617"
         d="m 113.527,130.8 348.946,0 0,589.2 -348.946,0 0,-589.2 z" />
    </clipPath>
    <clipPath
       id="clipPath4631"
       clipPathUnits="userSpaceOnUse">
      <path
         inkscape:connector-curvature="0"
         id="path4633"
         d="m 113.527,130.8 348.946,0 0,589.2 -348.946,0 0,-589.2 z" />
    </clipPath>
    <clipPath
       id="clipPath4647"
       clipPathUnits="userSpaceOnUse">
      <path
         inkscape:connector-curvature="0"
         id="path4649"
         d="m 113.527,130.8 348.946,0 0,589.2 -348.946,0 0,-589.2 z" />
    </clipPath>
    <clipPath
       id="clipPath4663"
       clipPathUnits="userSpaceOnUse">
      <path
         inkscape:connector-curvature="0"
         id="path4665"
         d="m 113.527,130.8 348.946,0 0,589.2 -348.946,0 0,-589.2 z" />
    </clipPath>
    <clipPath
       id="clipPath4679"
       clipPathUnits="userSpaceOnUse">
      <path
         inkscape:connector-curvature="0"
         id="path4681"
         d="m 113.527,130.8 348.946,0 0,589.2 -348.946,0 0,-589.2 z" />
    </clipPath>
    <clipPath
       id="clipPath4695"
       clipPathUnits="userSpaceOnUse">
      <path
         inkscape:connector-curvature="0"
         id="path4697"
         d="m 113.527,130.8 348.946,0 0,589.2 -348.946,0 0,-589.2 z" />
    </clipPath>
    <clipPath
       id="clipPath4711"
       clipPathUnits="userSpaceOnUse">
      <path
         inkscape:connector-curvature="0"
         id="path4713"
         d="m 113.527,130.8 348.946,0 0,589.2 -348.946,0 0,-589.2 z" />
    </clipPath>
    <clipPath
       id="clipPath4727"
       clipPathUnits="userSpaceOnUse">
      <path
         inkscape:connector-curvature="0"
         id="path4729"
         d="m 113.527,130.8 348.946,0 0,589.2 -348.946,0 0,-589.2 z" />
    </clipPath>
    <clipPath
       id="clipPath4743"
       clipPathUnits="userSpaceOnUse">
      <path
         inkscape:connector-curvature="0"
         id="path4745"
         d="m 113.527,130.8 348.946,0 0,589.2 -348.946,0 0,-589.2 z" />
    </clipPath>
    <clipPath
       id="clipPath4759"
       clipPathUnits="userSpaceOnUse">
      <path
         inkscape:connector-curvature="0"
         id="path4761"
         d="m 113.527,130.8 348.946,0 0,589.2 -348.946,0 0,-589.2 z" />
    </clipPath>
    <clipPath
       id="clipPath4775"
       clipPathUnits="userSpaceOnUse">
      <path
         inkscape:connector-curvature="0"
         id="path4777"
         d="m 113.527,130.8 348.946,0 0,589.2 -348.946,0 0,-589.2 z" />
    </clipPath>
    <clipPath
       id="clipPath4791"
       clipPathUnits="userSpaceOnUse">
      <path
         inkscape:connector-curvature="0"
         id="path4793"
         d="m 113.527,130.8 348.946,0 0,589.2 -348.946,0 0,-589.2 z" />
    </clipPath>
    <clipPath
       id="clipPath4807"
       clipPathUnits="userSpaceOnUse">
      <path
         inkscape:connector-curvature="0"
         id="path4809"
         d="m 113.527,130.8 348.946,0 0,589.2 -348.946,0 0,-589.2 z" />
    </clipPath>
    <clipPath
       id="clipPath4823"
       clipPathUnits="userSpaceOnUse">
      <path
         inkscape:connector-curvature="0"
         id="path4825"
         d="m 113.527,130.8 348.946,0 0,589.2 -348.946,0 0,-589.2 z" />
    </clipPath>
    <clipPath
       id="clipPath4839"
       clipPathUnits="userSpaceOnUse">
      <path
         inkscape:connector-curvature="0"
         id="path4841"
         d="m 113.527,130.8 348.946,0 0,589.2 -348.946,0 0,-589.2 z" />
    </clipPath>
    <clipPath
       id="clipPath4855"
       clipPathUnits="userSpaceOnUse">
      <path
         inkscape:connector-curvature="0"
         id="path4857"
         d="m 113.527,130.8 348.946,0 0,589.2 -348.946,0 0,-589.2 z" />
    </clipPath>
    <clipPath
       id="clipPath4871"
       clipPathUnits="userSpaceOnUse">
      <path
         inkscape:connector-curvature="0"
         id="path4873"
         d="m 113.527,130.8 348.946,0 0,589.2 -348.946,0 0,-589.2 z" />
    </clipPath>
    <clipPath
       id="clipPath15043"
       clipPathUnits="userSpaceOnUse">
      <path
         inkscape:connector-curvature="0"
         id="path15045"
         d="M 0,792 612,792 612,0 0,0 0,792 Z" />
    </clipPath>
    <clipPath
       id="clipPath15059"
       clipPathUnits="userSpaceOnUse">
      <path
         inkscape:connector-curvature="0"
         id="path15061"
         d="M 0,0 612,0 612,792 0,792 0,0 Z" />
    </clipPath>
    <clipPath
       id="clipPath15209"
       clipPathUnits="userSpaceOnUse">
      <path
         inkscape:connector-curvature="0"
         id="path15211"
         d="m 142.6,203 354.001,0 0,522 -354.001,0 0,-522 z" />
    </clipPath>
    <clipPath
       id="clipPath15385"
       clipPathUnits="userSpaceOnUse">
      <path
         inkscape:connector-curvature="0"
         id="path15387"
         d="m 142.6,203 354.001,0 0,522 -354.001,0 0,-522 z" />
    </clipPath>
    <clipPath
       id="clipPath15413"
       clipPathUnits="userSpaceOnUse">
      <path
         inkscape:connector-curvature="0"
         id="path15415"
         d="m 142.6,203 354.001,0 0,522 -354.001,0 0,-522 z" />
    </clipPath>
    <clipPath
       id="clipPath15437"
       clipPathUnits="userSpaceOnUse">
      <path
         inkscape:connector-curvature="0"
         id="path15439"
         d="m 151.8,218.238 335.277,0 0,500.762 -335.277,0 0,-500.762 z" />
    </clipPath>
    <clipPath
       id="clipPath15499"
       clipPathUnits="userSpaceOnUse">
      <path
         inkscape:connector-curvature="0"
         id="path15501"
         d="m 142.6,203 354.001,0 0,522 -354.001,0 0,-522 z" />
    </clipPath>
    <clipPath
       id="clipPath15607"
       clipPathUnits="userSpaceOnUse">
      <path
         inkscape:connector-curvature="0"
         id="path15609"
         d="m 142.6,203 354.001,0 0,522 -354.001,0 0,-522 z" />
    </clipPath>
    <clipPath
       id="clipPath15833"
       clipPathUnits="userSpaceOnUse">
      <path
         inkscape:connector-curvature="0"
         id="path15835"
         d="m 142.6,203 354.001,0 0,522 -354.001,0 0,-522 z" />
    </clipPath>
    <clipPath
       id="clipPath15873"
       clipPathUnits="userSpaceOnUse">
      <path
         inkscape:connector-curvature="0"
         id="path15875"
         d="m 189.312,242.966 233.452,0 0,116.725 -233.452,0 0,-116.725 z" />
    </clipPath>
    <clipPath
       id="clipPath15885"
       clipPathUnits="userSpaceOnUse">
      <path
         inkscape:connector-curvature="0"
         id="path15887"
         d="m 142.6,203 354.001,0 0,522 -354.001,0 0,-522 z" />
    </clipPath>
    <clipPath
       id="clipPath15967"
       clipPathUnits="userSpaceOnUse">
      <path
         inkscape:connector-curvature="0"
         id="path15969"
         d="m 142.6,203 354.001,0 0,522 -354.001,0 0,-522 z" />
    </clipPath>
    <clipPath
       id="clipPath4648"
       clipPathUnits="userSpaceOnUse">
      <path
         inkscape:connector-curvature="0"
         id="path4650"
         d="m 11.114238,392.17636 51.681204,-49.45836 53.348338,-10.55853 23.89561,17.78278 3.88999,58.90546 26.67417,20.56134 13.89279,72.24255 -9.4471,17.22706 32.23129,21.11706 0,10.55852 -31.67558,1.66714 -42.2341,28.3413 -130.0365787,0 -2.2228475,-175.04924 z"
         style="opacity:0.5;fill:#c0c0c0;fill-opacity:1;stroke:none;stroke-width:0.53149605;stroke-linecap:round;stroke-linejoin:round;stroke-miterlimit:4;stroke-dasharray:1.59448814, 1.59448814;stroke-dashoffset:0;stroke-opacity:1" />
    </clipPath>
    <clipPath
       id="clipPath4659"
       clipPathUnits="userSpaceOnUse">
      <path
         sodipodi:nodetypes="cccccc"
         style="opacity:0.5;fill:#c0c0c0;fill-opacity:1;stroke:none;stroke-width:0.53149605;stroke-linecap:round;stroke-linejoin:round;stroke-miterlimit:4;stroke-dasharray:1.59448814, 1.59448814;stroke-dashoffset:0;stroke-opacity:1"
         d="m -234.19679,907.75734 11.78843,-102.95228 160.322636,-35.36529 4.078046,221.28279 -122.748232,-0.44622 z"
         id="path4661"
         inkscape:connector-curvature="0" />
    </clipPath>
    <clipPath
       id="clipPath4450"
       clipPathUnits="userSpaceOnUse">
      <rect
         y="368.4917"
         x="666.87476"
         height="219.32414"
         width="352.05161"
         id="rect4452"
         style="opacity:1;fill:none;fill-opacity:1;stroke:#000000;stroke-width:0.53149605;stroke-linecap:round;stroke-linejoin:round;stroke-miterlimit:4;stroke-dasharray:1.59448814, 1.59448814;stroke-dashoffset:0;stroke-opacity:1" />
    </clipPath>
    <clipPath
       id="clipPath4471"
       clipPathUnits="userSpaceOnUse">
      <path
         sodipodi:nodetypes="csssssssc"
         inkscape:connector-curvature="0"
         id="path4473"
         d="m 190.5664,596.26171 c 15.45133,-36.62538 29.75812,-85.26845 64.0944,-86.98527 34.33629,-1.71681 94.4248,12.0177 124.18291,21.17405 29.75812,9.15634 43.49264,24.60767 48.64308,-2.86136 5.15044,-27.46903 -4.0059,-45.20945 5.15044,-56.65488 9.15635,-11.44543 62.94986,-16.59586 64.0944,13.73452 1.14455,30.33039 -36.0531,242.07083 -63.52213,254.08853 -27.46903,12.0177 -90.41889,41.77582 -157.94692,39.48673 -67.52804,-2.28908 -90.4189,-105.87022 -84.69618,-181.98232 z"
         style="opacity:1;fill:none;fill-opacity:1;stroke:#000000;stroke-width:0.53149605;stroke-linecap:round;stroke-linejoin:round;stroke-miterlimit:4;stroke-dasharray:1.59448814, 1.59448814;stroke-dashoffset:0;stroke-opacity:1" />
    </clipPath>
    <clipPath
       id="clipPath4490"
       clipPathUnits="userSpaceOnUse">
      <rect
         y="599.99207"
         x="35.690769"
         height="91.45591"
         width="194.19943"
         id="rect4492"
         style="opacity:1;fill:none;fill-opacity:1;stroke:#000000;stroke-width:0.53149605;stroke-linecap:round;stroke-linejoin:round;stroke-miterlimit:4;stroke-dasharray:1.59448814, 1.59448814;stroke-dashoffset:0;stroke-opacity:1" />
    </clipPath>
    <clipPath
       id="clipPath4496"
       clipPathUnits="userSpaceOnUse">
      <ellipse
         ry="52.505909"
         rx="50.789093"
         cy="697.69684"
         cx="-489.72131"
         id="ellipse4498"
         style="opacity:1;fill:none;fill-opacity:1;stroke:#000000;stroke-width:0.53149605;stroke-linecap:round;stroke-linejoin:round;stroke-miterlimit:4;stroke-dasharray:1.59448814, 1.59448814;stroke-dashoffset:0;stroke-opacity:1" />
    </clipPath>
    <clipPath
       id="clipPath4616"
       clipPathUnits="userSpaceOnUse">
      <rect
         y="727.52026"
         x="-319.98599"
         height="59.903057"
         width="28.687952"
         id="rect4618"
         style="opacity:1;fill:none;fill-opacity:1;stroke:#000000;stroke-width:0.53149605;stroke-linecap:round;stroke-linejoin:round;stroke-miterlimit:4;stroke-dasharray:1.59448814, 1.59448814;stroke-dashoffset:0;stroke-opacity:1" />
    </clipPath>
    <clipPath
       id="clipPath4657"
       clipPathUnits="userSpaceOnUse">
      <rect
         style="opacity:1;fill:none;fill-opacity:1;stroke:#000000;stroke-width:0.53149605;stroke-linecap:round;stroke-linejoin:round;stroke-miterlimit:4;stroke-dasharray:1.59448816, 1.59448816;stroke-dashoffset:0;stroke-opacity:1"
         id="rect4659"
         width="550.44434"
         height="123.01574"
         x="636.93018"
         y="541.68488" />
    </clipPath>
    <clipPath
       id="clipPath4669"
       clipPathUnits="userSpaceOnUse">
      <rect
         style="opacity:1;fill:none;fill-opacity:1;stroke:#000000;stroke-width:0.53149605;stroke-linecap:round;stroke-linejoin:round;stroke-miterlimit:4;stroke-dasharray:1.59448813, 1.59448813;stroke-dashoffset:0;stroke-opacity:1"
         id="rect4671"
         width="471.68845"
         height="103.53692"
         x="583.80524"
         y="874.37225" />
    </clipPath>
    <clipPath
       id="clipPath4674"
       clipPathUnits="userSpaceOnUse">
      <rect
         style="opacity:1;fill:none;fill-opacity:1;stroke:#000000;stroke-width:0.53149605;stroke-linecap:round;stroke-linejoin:round;stroke-miterlimit:4;stroke-dasharray:1.59448812, 1.59448812;stroke-dashoffset:0;stroke-opacity:1"
         id="rect4676"
         width="621.55316"
         height="144.72769"
         x="595.65515"
         y="668.37964" />
    </clipPath>
    <clipPath
       id="clipPath4748"
       clipPathUnits="userSpaceOnUse">
      <rect
         clip-path="none"
         y="874.37225"
         x="991.83478"
         height="64.050186"
         width="49.352051"
         id="rect4750"
         style="opacity:1;fill:none;fill-opacity:1;stroke:#000000;stroke-width:0.53149605;stroke-linecap:round;stroke-linejoin:round;stroke-miterlimit:4;stroke-dasharray:1.59448816, 1.59448816;stroke-dashoffset:0;stroke-opacity:1" />
    </clipPath>
    <clipPath
       id="clipPath4481"
       clipPathUnits="userSpaceOnUse">
      <rect
         y="606.47662"
         x="35.433071"
         height="136.2659"
         width="453.54337"
         id="rect4483"
         style="opacity:1;fill:none;fill-opacity:1;stroke:#449dd5;stroke-width:0.53149605;stroke-linecap:round;stroke-linejoin:round;stroke-miterlimit:4;stroke-dasharray:none;stroke-dashoffset:0;stroke-opacity:1" />
    </clipPath>
    <clipPath
       id="clipPath4485"
       clipPathUnits="userSpaceOnUse">
      <rect
         y="606.47662"
         x="35.433071"
         height="136.2659"
         width="453.54337"
         id="rect4487"
         style="opacity:1;fill:none;fill-opacity:1;stroke:#449dd5;stroke-width:0.53149605;stroke-linecap:round;stroke-linejoin:round;stroke-miterlimit:4;stroke-dasharray:none;stroke-dashoffset:0;stroke-opacity:1" />
    </clipPath>
    <clipPath
       id="clipPath4489"
       clipPathUnits="userSpaceOnUse">
      <rect
         y="606.47662"
         x="35.433071"
         height="136.2659"
         width="453.54337"
         id="rect4491"
         style="opacity:1;fill:none;fill-opacity:1;stroke:#449dd5;stroke-width:0.53149605;stroke-linecap:round;stroke-linejoin:round;stroke-miterlimit:4;stroke-dasharray:none;stroke-dashoffset:0;stroke-opacity:1" />
    </clipPath>
    <clipPath
       id="clipPath4601"
       clipPathUnits="userSpaceOnUse">
      <rect
         y="255.7495"
         x="701.82446"
         height="167.62334"
         width="239.49985"
         id="rect4603"
         style="display:inline;opacity:1;fill:#ffffff;fill-opacity:1;stroke:none;stroke-width:0.53149605;stroke-linecap:round;stroke-linejoin:round;stroke-miterlimit:4;stroke-dasharray:none;stroke-dashoffset:0;stroke-opacity:1" />
    </clipPath>
    <clipPath
       id="clipPath4605"
       clipPathUnits="userSpaceOnUse">
      <rect
         style="display:inline;opacity:1;fill:#ffffff;fill-opacity:1;stroke:none;stroke-width:0.53149605;stroke-linecap:round;stroke-linejoin:round;stroke-miterlimit:4;stroke-dasharray:none;stroke-dashoffset:0;stroke-opacity:1"
         id="rect4607"
         width="239.49985"
         height="167.62334"
         x="701.82446"
         y="255.7495" />
    </clipPath>
    <clipPath
       id="clipPath4609"
       clipPathUnits="userSpaceOnUse">
      <rect
         y="255.7495"
         x="701.82446"
         height="167.62334"
         width="239.49985"
         id="rect4611"
         style="display:inline;opacity:1;fill:#ffffff;fill-opacity:1;stroke:none;stroke-width:0.53149605;stroke-linecap:round;stroke-linejoin:round;stroke-miterlimit:4;stroke-dasharray:none;stroke-dashoffset:0;stroke-opacity:1" />
    </clipPath>
  </defs>
  <metadata
     id="metadata7">
    <rdf:RDF>
      <cc:Work
         rdf:about="">
        <dc:format>image/svg+xml</dc:format>
        <dc:type
           rdf:resource="http://purl.org/dc/dcmitype/StillImage" />
        <dc:title />
      </cc:Work>
    </rdf:RDF>
  </metadata>
  <g
     transform="translate(0,-308.26761)"
     id="layer1"
     inkscape:groupmode="layer"
     inkscape:label="artwork"
     style="display:inline">
    <image
       sodipodi:absref="/home/nylnook/Crea/BD/Mokatori/layout/ep1 ebook-fr/../p22.png"
       xlink:href="../p22.png"
       width="538.65002"
       height="758.25"
       preserveAspectRatio="none"
       id="image4683"
       x="-7.0866146"
       y="301.181" />
  </g>
  <g
     style="display:inline"
     inkscape:groupmode="layer"
     id="layer2"
     inkscape:label="bubbles"
     transform="translate(0,-70.866142)">
    <path
       style="opacity:1;fill:#ffffff;fill-opacity:1;stroke:none;stroke-width:7.08661413;stroke-linecap:round;stroke-linejoin:round;stroke-miterlimit:10;stroke-dasharray:none;stroke-dashoffset:0;stroke-opacity:1"
       d="m 82.841209,434.86457 c -27.588182,-10.64761 -29.170644,-33.67472 -6.012985,-36.52225 48.134666,-5.91878 321.929196,2.10161 370.185276,-2.49194 31.40189,-2.98918 44.93462,34.74673 5.43092,38.19097 -141.86397,12.3688 -340.92788,11.89042 -369.603211,0.82322 z"
       id="path4392"
       inkscape:connector-curvature="0"
       sodipodi:nodetypes="sssss" />
    <path
       style="opacity:1;fill:#ffffff;fill-opacity:1;stroke:none;stroke-width:7.08661413;stroke-linecap:round;stroke-linejoin:round;stroke-miterlimit:10;stroke-dasharray:none;stroke-dashoffset:0;stroke-opacity:1"
       d="m 104.61795,669.77434 c -11.338112,20.09853 -15.855279,66.86233 8.45991,73.813 19.07901,5.45383 124.08401,6.13355 144.08892,-4.88791 13.81349,-7.61045 19.18578,-64.10151 2.26806,-68.23342 -59.75866,-14.59532 -151.38791,-6.77009 -154.81689,-0.69167 z"
       id="path4413"
       inkscape:connector-curvature="0"
       sodipodi:nodetypes="sssss" />
  </g>
  <g
     style="display:inline"
     inkscape:groupmode="layer"
     id="layer3"
     inkscape:label="text"
     transform="translate(0,-70.866142)">
    <text
       xml:space="preserve"
       style="color:#000000;font-style:normal;font-variant:normal;font-weight:normal;font-stretch:normal;font-size:16.25000191px;line-height:100%;font-family:Comili;-inkscape-font-specification:'Comili, Normal';text-indent:0;text-align:center;text-decoration:none;text-decoration-line:none;text-decoration-style:solid;text-decoration-color:#000000;letter-spacing:0px;word-spacing:0px;text-transform:none;direction:ltr;block-progression:tb;writing-mode:lr-tb;baseline-shift:baseline;text-anchor:middle;white-space:normal;clip-rule:nonzero;display:inline;overflow:visible;visibility:visible;opacity:1;isolation:auto;mix-blend-mode:normal;color-interpolation:sRGB;color-interpolation-filters:linearRGB;solid-color:#000000;solid-opacity:1;fill:#000000;fill-opacity:1;fill-rule:nonzero;stroke:none;stroke-width:0.99999964px;stroke-linecap:butt;stroke-linejoin:miter;stroke-miterlimit:4;stroke-dasharray:none;stroke-dashoffset:0;stroke-opacity:1;color-rendering:auto;image-rendering:auto;shape-rendering:auto;text-rendering:auto;enable-background:accumulate"
       x="344.76828"
       y="138.59998"
       id="text3477"><tspan
         sodipodi:role="line"
         id="tspan3479"
         x="344.76828"
         y="138.59998" /></text>
    <text
       id="text3485"
       y="304.03015"
       x="376.14102"
       style="color:#000000;font-style:normal;font-variant:normal;font-weight:normal;font-stretch:normal;font-size:16.25000191px;line-height:100%;font-family:Comili;-inkscape-font-specification:'Comili, Normal';text-indent:0;text-align:center;text-decoration:none;text-decoration-line:none;text-decoration-style:solid;text-decoration-color:#000000;letter-spacing:0px;word-spacing:0px;text-transform:none;direction:ltr;block-progression:tb;writing-mode:lr-tb;baseline-shift:baseline;text-anchor:middle;white-space:normal;clip-rule:nonzero;display:inline;overflow:visible;visibility:visible;opacity:1;isolation:auto;mix-blend-mode:normal;color-interpolation:sRGB;color-interpolation-filters:linearRGB;solid-color:#000000;solid-opacity:1;fill:#000000;fill-opacity:1;fill-rule:nonzero;stroke:none;stroke-width:0.99999964px;stroke-linecap:butt;stroke-linejoin:miter;stroke-miterlimit:4;stroke-dasharray:none;stroke-dashoffset:0;stroke-opacity:1;color-rendering:auto;image-rendering:auto;shape-rendering:auto;text-rendering:auto;enable-background:accumulate"
       xml:space="preserve"><tspan
         y="304.03015"
         x="376.14102"
         id="tspan3487"
         sodipodi:role="line" /></text>
    <text
       xml:space="preserve"
       style="color:#000000;font-style:normal;font-variant:normal;font-weight:normal;font-stretch:normal;font-size:16.25000191px;line-height:100%;font-family:Comili;-inkscape-font-specification:'Comili, Normal';text-indent:0;text-align:center;text-decoration:none;text-decoration-line:none;text-decoration-style:solid;text-decoration-color:#000000;letter-spacing:0px;word-spacing:0px;text-transform:none;direction:ltr;block-progression:tb;writing-mode:lr-tb;baseline-shift:baseline;text-anchor:middle;white-space:normal;clip-rule:nonzero;display:inline;overflow:visible;visibility:visible;opacity:1;isolation:auto;mix-blend-mode:normal;color-interpolation:sRGB;color-interpolation-filters:linearRGB;solid-color:#000000;solid-opacity:1;fill:#000000;fill-opacity:1;fill-rule:nonzero;stroke:none;stroke-width:0.99999964px;stroke-linecap:butt;stroke-linejoin:miter;stroke-miterlimit:4;stroke-dasharray:none;stroke-dashoffset:0;stroke-opacity:1;color-rendering:auto;image-rendering:auto;shape-rendering:auto;text-rendering:auto;enable-background:accumulate"
       x="205.58685"
       y="386.01328"
       id="text3481"><tspan
         sodipodi:role="line"
         id="tspan3483"
         x="205.58685"
         y="386.01328" /></text>
    <text
       id="text3473"
       y="221.93939"
       x="218.27101"
       style="color:#000000;font-style:normal;font-variant:normal;font-weight:500;font-stretch:normal;font-size:22.82893181px;line-height:100%;font-family:LetsTrace;-inkscape-font-specification:'LetsTrace Medium';text-indent:0;text-align:center;text-decoration:none;text-decoration-line:none;text-decoration-style:solid;text-decoration-color:#000000;letter-spacing:0px;word-spacing:0px;text-transform:none;direction:ltr;block-progression:tb;writing-mode:lr-tb;baseline-shift:baseline;text-anchor:middle;white-space:normal;clip-rule:nonzero;display:inline;overflow:visible;visibility:visible;opacity:1;isolation:auto;mix-blend-mode:normal;color-interpolation:sRGB;color-interpolation-filters:linearRGB;solid-color:#000000;solid-opacity:1;fill:#000000;fill-opacity:1;fill-rule:nonzero;stroke:none;stroke-width:0.99999964px;stroke-linecap:butt;stroke-linejoin:miter;stroke-miterlimit:4;stroke-dasharray:none;stroke-dashoffset:0;stroke-opacity:1;color-rendering:auto;image-rendering:auto;shape-rendering:auto;text-rendering:auto;enable-background:accumulate"
       xml:space="preserve"><tspan
         y="221.93939"
         x="218.27101"
         id="tspan3475"
         sodipodi:role="line" /></text>
    <flowRoot
       transform="translate(0,70.866111)"
       style="color:#000000;font-style:normal;font-variant:normal;font-weight:normal;font-stretch:normal;font-size:15px;line-height:100%;font-family:Comili;-inkscape-font-specification:'Comili, Normal';text-indent:0;text-align:center;text-decoration:none;text-decoration-line:none;text-decoration-style:solid;text-decoration-color:#000000;letter-spacing:0px;word-spacing:0px;text-transform:none;direction:ltr;block-progression:tb;writing-mode:lr-tb;baseline-shift:baseline;text-anchor:middle;white-space:normal;clip-rule:nonzero;display:inline;overflow:visible;visibility:visible;opacity:1;isolation:auto;mix-blend-mode:normal;color-interpolation:sRGB;color-interpolation-filters:linearRGB;solid-color:#000000;solid-opacity:1;fill:#000000;fill-opacity:1;fill-rule:nonzero;stroke:none;stroke-width:0.99999964px;stroke-linecap:butt;stroke-linejoin:miter;stroke-miterlimit:4;stroke-dasharray:none;stroke-dashoffset:0;stroke-opacity:1;color-rendering:auto;image-rendering:auto;shape-rendering:auto;text-rendering:auto;enable-background:accumulate"
       id="flowRoot3505"
       xml:space="preserve"><flowRegion
         id="flowRegion3507"><rect
           y="140.93306"
           x="289.86884"
           height="62.951313"
           width="110.53079"
           id="rect3509" /></flowRegion><flowPara
         id="flowPara3511" /></flowRoot>    <flowRoot
       transform="translate(0,70.866111)"
       style="color:#000000;font-style:normal;font-variant:normal;font-weight:normal;font-stretch:normal;font-size:15px;line-height:100%;font-family:Comili;-inkscape-font-specification:'Comili, Normal';text-indent:0;text-align:center;text-decoration:none;text-decoration-line:none;text-decoration-style:solid;text-decoration-color:#000000;letter-spacing:0px;word-spacing:0px;text-transform:none;direction:ltr;block-progression:tb;writing-mode:lr-tb;baseline-shift:baseline;text-anchor:middle;white-space:normal;clip-rule:nonzero;display:inline;overflow:visible;visibility:visible;opacity:1;isolation:auto;mix-blend-mode:normal;color-interpolation:sRGB;color-interpolation-filters:linearRGB;solid-color:#000000;solid-opacity:1;fill:#000000;fill-opacity:1;fill-rule:nonzero;stroke:none;stroke-width:0.99999964px;stroke-linecap:butt;stroke-linejoin:miter;stroke-miterlimit:4;stroke-dasharray:none;stroke-dashoffset:0;stroke-opacity:1;color-rendering:auto;image-rendering:auto;shape-rendering:auto;text-rendering:auto;enable-background:accumulate"
       id="flowRoot3521"
       xml:space="preserve"><flowRegion
         id="flowRegion3523"><rect
           y="270.49564"
           x="96.622948"
           height="148.59438"
           width="195.44186"
           id="rect3525" /></flowRegion><flowPara
         id="flowPara3527" /></flowRoot>    <flowRoot
       transform="translate(-26.351716,310.22752)"
       style="color:#000000;font-style:normal;font-variant:normal;font-weight:normal;font-stretch:normal;font-size:16.25000191px;line-height:normal;font-family:Comili;-inkscape-font-specification:Comili;text-indent:0;text-align:start;text-decoration:none;text-decoration-line:none;text-decoration-style:solid;text-decoration-color:#000000;letter-spacing:normal;word-spacing:normal;text-transform:none;direction:ltr;block-progression:tb;writing-mode:lr-tb;baseline-shift:baseline;text-anchor:start;white-space:normal;clip-rule:nonzero;display:inline;overflow:visible;visibility:visible;opacity:1;isolation:auto;mix-blend-mode:normal;color-interpolation:sRGB;color-interpolation-filters:linearRGB;solid-color:#000000;solid-opacity:1;fill:#000000;fill-opacity:1;fill-rule:nonzero;stroke:none;stroke-width:0.9999994px;stroke-linecap:butt;stroke-linejoin:miter;stroke-miterlimit:4;stroke-dasharray:none;stroke-dashoffset:0;stroke-opacity:1;color-rendering:auto;image-rendering:auto;shape-rendering:auto;text-rendering:auto;enable-background:accumulate"
       id="flowRoot3545"
       xml:space="preserve"><flowRegion
         id="flowRegion3547"><rect
           style="font-size:16.25000191px"
           y="395.66629"
           x="114.19076"
           height="68.807251"
           width="123.70665"
           id="rect3549" /></flowRegion><flowPara
         id="flowPara3551" /></flowRoot>    <flowRoot
       style="color:#000000;font-style:normal;font-variant:normal;font-weight:normal;font-stretch:normal;font-size:16.25px;line-height:normal;font-family:Comili;-inkscape-font-specification:Comili;text-indent:0;text-align:start;text-decoration:none;text-decoration-line:none;text-decoration-style:solid;text-decoration-color:#000000;letter-spacing:normal;word-spacing:normal;text-transform:none;direction:ltr;block-progression:tb;writing-mode:lr-tb;baseline-shift:baseline;text-anchor:start;white-space:normal;clip-rule:nonzero;display:inline;overflow:visible;visibility:visible;opacity:1;isolation:auto;mix-blend-mode:normal;color-interpolation:sRGB;color-interpolation-filters:linearRGB;solid-color:#000000;solid-opacity:1;fill:#000000;fill-opacity:1;fill-rule:nonzero;stroke:none;stroke-width:0.9999994px;stroke-linecap:butt;stroke-linejoin:miter;stroke-miterlimit:4;stroke-dasharray:none;stroke-dashoffset:0;stroke-opacity:1;color-rendering:auto;image-rendering:auto;shape-rendering:auto;text-rendering:auto;enable-background:accumulate"
       id="flowRoot4367"
       xml:space="preserve"><flowRegion
         id="flowRegion4369"><rect
           y="583.05621"
           x="559.97388"
           height="125.60517"
           width="78.323143"
           id="rect4371" /></flowRegion><flowPara
         id="flowPara4373" /></flowRoot>    <flowRoot
       xml:space="preserve"
       id="flowRoot4394"
       style="stroke-linejoin:miter;baseline-shift:baseline;color-rendering:auto;text-decoration-color:#000000;color:#000000;letter-spacing:0px;shape-rendering:auto;word-spacing:0px;stroke:none;text-decoration-line:none;text-rendering:auto;stroke-width:1px;color-interpolation-filters:linearRGB;fill:#000000;solid-opacity:1;line-height:0.01%;fill-rule:nonzero;mix-blend-mode:normal;fill-opacity:1;font-style:normal;block-progression:tb;font-stretch:normal;stroke-miterlimit:4;font-variant:normal;font-weight:normal;opacity:1;direction:ltr;-inkscape-font-specification:Frenchpress;visibility:visible;text-indent:0;clip-rule:nonzero;image-rendering:auto;white-space:normal;overflow:visible;font-family:Frenchpress;text-decoration-style:solid;text-align:center;solid-color:#000000;writing-mode:lr-tb;stroke-opacity:1;isolation:auto;stroke-dashoffset:0;text-anchor:middle;text-decoration:none;stroke-linecap:butt;stroke-dasharray:none;enable-background:accumulate;text-transform:none;display:inline;color-interpolation:sRGB"
       transform="translate(-5.7035225,144.8853)"><flowRegion
         id="flowRegion4396"><rect
           id="rect4398"
           width="406.35983"
           height="50.869465"
           x="70.866142"
           y="259.24634"
           style="font-style:normal;font-variant:normal;font-weight:normal;font-stretch:normal;font-size:16.25000191px;line-height:110.00000238%;font-family:Frenchpress;-inkscape-font-specification:Frenchpress;text-align:center;text-anchor:middle" /></flowRegion><flowPara
         id="flowPara4400"
         style="font-style:normal;font-variant:normal;font-weight:normal;font-stretch:normal;font-size:16.25000191px;line-height:100%;font-family:Comili;-inkscape-font-specification:Comili">Le vélo, souvent électrique, est très populaire, mes petits-enfants n’ont jamais passé leur permis de conduire.</flowPara></flowRoot>    <flowRoot
       xml:space="preserve"
       id="flowRoot4380"
       style="stroke-linejoin:miter;baseline-shift:baseline;color-rendering:auto;text-decoration-color:#000000;color:#000000;letter-spacing:0px;shape-rendering:auto;word-spacing:0px;stroke:none;text-decoration-line:none;text-rendering:auto;stroke-width:1px;color-interpolation-filters:linearRGB;fill:#000000;solid-opacity:1;line-height:0.01%;fill-rule:nonzero;mix-blend-mode:normal;fill-opacity:1;font-style:normal;block-progression:tb;font-stretch:normal;stroke-miterlimit:4;font-variant:normal;font-weight:normal;opacity:1;direction:ltr;-inkscape-font-specification:Frenchpress;visibility:visible;text-indent:0;clip-rule:nonzero;image-rendering:auto;white-space:normal;overflow:visible;font-family:Frenchpress;text-decoration-style:solid;text-align:center;solid-color:#000000;writing-mode:lr-tb;stroke-opacity:1;isolation:auto;stroke-dashoffset:0;text-anchor:middle;text-decoration:none;stroke-linecap:butt;stroke-dasharray:none;enable-background:accumulate;text-transform:none;display:inline;color-interpolation:sRGB"
       transform="translate(56.431102,404.96724)"><flowRegion
         id="flowRegion4382"><rect
           id="rect4384"
           width="158.57207"
           height="76.656799"
           x="46.703835"
           y="269.26486"
           style="font-style:normal;font-variant:normal;font-weight:normal;font-stretch:normal;font-size:16.25000191px;line-height:110.00000238%;font-family:Frenchpress;-inkscape-font-specification:Frenchpress;text-align:center;text-anchor:middle" /></flowRegion><flowPara
         id="flowPara4387"
         style="font-style:normal;font-variant:normal;font-weight:normal;font-stretch:normal;font-size:16.25000191px;line-height:100%;font-family:Comili;-inkscape-font-specification:Comili">Ça m’étonnerait qu’ils le passent un jour : les camions qui restent conduisent tout seuls.</flowPara></flowRoot>  </g>
  <g
     id="printing-marks"
     inkscape:label="printing marks"
     inkscape:groupmode="layer"
     sodipodi:insensitive="true">
    <g
       id="CropMarks"
       inkscape:label="CropMarks">
      <path
         d="M 0,-7.0866141732 L 0,-42.5196850392"
         id="cropTL1"
         style="stroke:#000000;stroke-width:0.25;fill:none" />
      <path
         d="M -7.0866141732,0 L -42.5196850392,0"
         id="cropTL2"
         style="stroke:#000000;stroke-width:0.25;fill:none" />
      <path
         d="M 524.409448817,-7.0866141732 L 524.409448817,-42.5196850392"
         id="cropTR1"
         style="stroke:#000000;stroke-width:0.25;fill:none" />
      <path
         d="M 531.49606299,0 L 566.929133856,0"
         id="cropTR2"
         style="stroke:#000000;stroke-width:0.25;fill:none" />
      <path
         d="M 0,751.181102359 L 0,786.614173225"
         id="cropBL1"
         style="stroke:#000000;stroke-width:0.25;fill:none" />
      <path
         d="M -7.0866141732,744.094488186 L -42.5196850392,744.094488186"
         id="cropBL2"
         style="stroke:#000000;stroke-width:0.25;fill:none" />
      <path
         d="M 524.409448817,751.181102359 L 524.409448817,786.614173225"
         id="cropBR1"
         style="stroke:#000000;stroke-width:0.25;fill:none" />
      <path
         d="M 531.49606299,744.094488186 L 566.929133856,744.094488186"
         id="cropBR2"
         style="stroke:#000000;stroke-width:0.25;fill:none" />
    </g>
    <g
       id="RegistrationMarks"
       inkscape:label="RegistrationMarks">
      <g
         id="regMarkL">
        <path
           d="m -0.0,17.716535433 -3.5433070866,0 17.716535433,-17.716535433 -17.716535433,-17.716535433 3.5433070866,0 17.716535433,17.716535433 -17.716535433,17.716535433 z"
           style="stroke:none;fill-opacity:1;fill:#000000"
           transform="translate(-35.433070866,318.897637794) rotate(0)"
           id="path3448" />
        <path
           d="m -3.5433070866,17.716535433 -3.5433070866,0 17.716535433,-17.716535433 -17.716535433,-17.716535433 3.5433070866,0 17.716535433,17.716535433 -17.716535433,17.716535433 z"
           style="stroke:none;fill-opacity:1;fill:#00ffff"
           transform="translate(-35.433070866,318.897637794) rotate(0)"
           id="path3450" />
        <path
           d="m -7.0866141732,17.716535433 -3.5433070866,0 17.716535433,-17.716535433 -17.716535433,-17.716535433 3.5433070866,0 17.716535433,17.716535433 -17.716535433,17.716535433 z"
           style="stroke:none;fill-opacity:1;fill:#ff00ff"
           transform="translate(-35.433070866,318.897637794) rotate(0)"
           id="path3452" />
        <path
           d="m -10.6299212598,17.716535433 -3.5433070866,0 17.716535433,-17.716535433 -17.716535433,-17.716535433 3.5433070866,0 17.716535433,17.716535433 -17.716535433,17.716535433 z"
           style="stroke:none;fill-opacity:1;fill:#ffff00"
           transform="translate(-35.433070866,318.897637794) rotate(0)"
           id="path3454" />
        <path
           d="m -14.1732283464,17.716535433 -3.5433070866,0 17.716535433,-17.716535433 -17.716535433,-17.716535433 3.5433070866,0 17.716535433,17.716535433 -17.716535433,17.716535433 z"
           style="stroke:none;fill-opacity:1;fill:#000000"
           transform="translate(-35.433070866,318.897637794) rotate(0)"
           id="path3456" />
      </g>
      <g
         id="regMarkR">
        <path
           d="m -0.0,17.716535433 -3.5433070866,0 17.716535433,-17.716535433 -17.716535433,-17.716535433 3.5433070866,0 17.716535433,17.716535433 -17.716535433,17.716535433 z"
           style="stroke:none;fill-opacity:1;fill:#000000"
           transform="translate(559.842519683,318.897637794) rotate(180)"
           id="path3459" />
        <path
           d="m -3.5433070866,17.716535433 -3.5433070866,0 17.716535433,-17.716535433 -17.716535433,-17.716535433 3.5433070866,0 17.716535433,17.716535433 -17.716535433,17.716535433 z"
           style="stroke:none;fill-opacity:1;fill:#00ffff"
           transform="translate(559.842519683,318.897637794) rotate(180)"
           id="path3461" />
        <path
           d="m -7.0866141732,17.716535433 -3.5433070866,0 17.716535433,-17.716535433 -17.716535433,-17.716535433 3.5433070866,0 17.716535433,17.716535433 -17.716535433,17.716535433 z"
           style="stroke:none;fill-opacity:1;fill:#ff00ff"
           transform="translate(559.842519683,318.897637794) rotate(180)"
           id="path3463" />
        <path
           d="m -10.6299212598,17.716535433 -3.5433070866,0 17.716535433,-17.716535433 -17.716535433,-17.716535433 3.5433070866,0 17.716535433,17.716535433 -17.716535433,17.716535433 z"
           style="stroke:none;fill-opacity:1;fill:#ffff00"
           transform="translate(559.842519683,318.897637794) rotate(180)"
           id="path3465" />
        <path
           d="m -14.1732283464,17.716535433 -3.5433070866,0 17.716535433,-17.716535433 -17.716535433,-17.716535433 3.5433070866,0 17.716535433,17.716535433 -17.716535433,17.716535433 z"
           style="stroke:none;fill-opacity:1;fill:#000000"
           transform="translate(559.842519683,318.897637794) rotate(180)"
           id="path3467" />
      </g>
      <g
         id="regMarkT">
        <path
           d="m -0.0,17.716535433 -3.5433070866,0 17.716535433,-17.716535433 -17.716535433,-17.716535433 3.5433070866,0 17.716535433,17.716535433 -17.716535433,17.716535433 z"
           style="stroke:none;fill-opacity:1;fill:#000000"
           transform="translate(262.204724408,-35.433070866) rotate(90)"
           id="path3470" />
        <path
           d="m -3.5433070866,17.716535433 -3.5433070866,0 17.716535433,-17.716535433 -17.716535433,-17.716535433 3.5433070866,0 17.716535433,17.716535433 -17.716535433,17.716535433 z"
           style="stroke:none;fill-opacity:1;fill:#00ffff"
           transform="translate(262.204724408,-35.433070866) rotate(90)"
           id="path3472" />
        <path
           d="m -7.0866141732,17.716535433 -3.5433070866,0 17.716535433,-17.716535433 -17.716535433,-17.716535433 3.5433070866,0 17.716535433,17.716535433 -17.716535433,17.716535433 z"
           style="stroke:none;fill-opacity:1;fill:#ff00ff"
           transform="translate(262.204724408,-35.433070866) rotate(90)"
           id="path3474" />
        <path
           d="m -10.6299212598,17.716535433 -3.5433070866,0 17.716535433,-17.716535433 -17.716535433,-17.716535433 3.5433070866,0 17.716535433,17.716535433 -17.716535433,17.716535433 z"
           style="stroke:none;fill-opacity:1;fill:#ffff00"
           transform="translate(262.204724408,-35.433070866) rotate(90)"
           id="path3476" />
        <path
           d="m -14.1732283464,17.716535433 -3.5433070866,0 17.716535433,-17.716535433 -17.716535433,-17.716535433 3.5433070866,0 17.716535433,17.716535433 -17.716535433,17.716535433 z"
           style="stroke:none;fill-opacity:1;fill:#000000"
           transform="translate(262.204724408,-35.433070866) rotate(90)"
           id="path3478" />
      </g>
      <g
         id="regMarkB">
        <path
           d="m -0.0,17.716535433 -3.5433070866,0 17.716535433,-17.716535433 -17.716535433,-17.716535433 3.5433070866,0 17.716535433,17.716535433 -17.716535433,17.716535433 z"
           style="stroke:none;fill-opacity:1;fill:#000000"
           transform="translate(262.204724408,779.527559052) rotate(-90)"
           id="path3481" />
        <path
           d="m -3.5433070866,17.716535433 -3.5433070866,0 17.716535433,-17.716535433 -17.716535433,-17.716535433 3.5433070866,0 17.716535433,17.716535433 -17.716535433,17.716535433 z"
           style="stroke:none;fill-opacity:1;fill:#00ffff"
           transform="translate(262.204724408,779.527559052) rotate(-90)"
           id="path3483" />
        <path
           d="m -7.0866141732,17.716535433 -3.5433070866,0 17.716535433,-17.716535433 -17.716535433,-17.716535433 3.5433070866,0 17.716535433,17.716535433 -17.716535433,17.716535433 z"
           style="stroke:none;fill-opacity:1;fill:#ff00ff"
           transform="translate(262.204724408,779.527559052) rotate(-90)"
           id="path3485" />
        <path
           d="m -10.6299212598,17.716535433 -3.5433070866,0 17.716535433,-17.716535433 -17.716535433,-17.716535433 3.5433070866,0 17.716535433,17.716535433 -17.716535433,17.716535433 z"
           style="stroke:none;fill-opacity:1;fill:#ffff00"
           transform="translate(262.204724408,779.527559052) rotate(-90)"
           id="path3487" />
        <path
           d="m -14.1732283464,17.716535433 -3.5433070866,0 17.716535433,-17.716535433 -17.716535433,-17.716535433 3.5433070866,0 17.716535433,17.716535433 -17.716535433,17.716535433 z"
           style="stroke:none;fill-opacity:1;fill:#000000"
           transform="translate(262.204724408,779.527559052) rotate(-90)"
           id="path3489" />
      </g>
    </g>
  </g>
</svg>
