<?xml version="1.0" encoding="UTF-8" standalone="no"?>
<!-- Created with Inkscape (http://www.inkscape.org/) -->

<svg
   xmlns:dc="http://purl.org/dc/elements/1.1/"
   xmlns:cc="http://creativecommons.org/ns#"
   xmlns:rdf="http://www.w3.org/1999/02/22-rdf-syntax-ns#"
   xmlns:svg="http://www.w3.org/2000/svg"
   xmlns="http://www.w3.org/2000/svg"
   xmlns:xlink="http://www.w3.org/1999/xlink"
   xmlns:sodipodi="http://sodipodi.sourceforge.net/DTD/sodipodi-0.dtd"
   xmlns:inkscape="http://www.inkscape.org/namespaces/inkscape"
   width="148mm"
   height="210mm"
   viewBox="0 0 524.40946 744.09448"
   id="svg2"
   version="1.1"
   inkscape:version="0.92.1 r"
   sodipodi:docname="35.svg">
  <sodipodi:namedview
     id="base"
     pagecolor="#ffffff"
     bordercolor="#666666"
     borderopacity="1.0"
     inkscape:pageopacity="0"
     inkscape:pageshadow="2"
     inkscape:zoom="0.93811246"
     inkscape:cx="190.43005"
     inkscape:cy="246.53524"
     inkscape:document-units="mm"
     inkscape:current-layer="layer4"
     showgrid="false"
     units="mm"
     inkscape:window-width="1280"
     inkscape:window-height="1371"
     inkscape:window-x="0"
     inkscape:window-y="27"
     inkscape:window-maximized="0"
     showguides="true"
     inkscape:guide-bbox="true"
     inkscape:snap-bbox="true"
     inkscape:bbox-paths="false"
     inkscape:bbox-nodes="true"
     borderlayer="true"
     inkscape:snap-global="true">
    <sodipodi:guide
       inkscape:color="rgb(0,0,255)"
       inkscape:label=""
       id="guide7382"
       orientation="1,0"
       position="-7.0866147,0"
       inkscape:locked="false" />
    <sodipodi:guide
       inkscape:color="rgb(0,0,255)"
       inkscape:label=""
       id="guide7384"
       orientation="1,0"
       position="531.4961,0"
       inkscape:locked="false" />
    <sodipodi:guide
       inkscape:color="rgb(0,0,255)"
       inkscape:label=""
       id="guide7386"
       orientation="0,1"
       position="0,-7.0866142"
       inkscape:locked="false" />
    <sodipodi:guide
       inkscape:color="rgb(0,0,255)"
       inkscape:label=""
       id="guide7388"
       orientation="0,1"
       position="0,751.1811"
       inkscape:locked="false" />
    <sodipodi:guide
       inkscape:color="rgb(0,0,255)"
       inkscape:label=""
       id="guide7390"
       orientation="1,0"
       position="35.433073,0"
       inkscape:locked="false" />
    <sodipodi:guide
       inkscape:color="rgb(0,0,255)"
       inkscape:label=""
       id="guide7392"
       orientation="0,1"
       position="0,708.66142"
       inkscape:locked="false" />
    <sodipodi:guide
       inkscape:color="rgb(0,0,255)"
       inkscape:label=""
       id="guide7394"
       orientation="1,0"
       position="488.97641,0"
       inkscape:locked="false" />
    <sodipodi:guide
       inkscape:color="rgb(0,0,255)"
       inkscape:label=""
       id="guide7396"
       orientation="0,1"
       position="0,35.433071"
       inkscape:locked="false" />
  </sodipodi:namedview>
  <defs
     id="defs4">
    <linearGradient
       gradientTransform="matrix(0,-1.1816121,1.1816123,0,655.20983,613.43017)"
       x1="16.386999"
       y1="285.88"
       x2="103.98"
       gradientUnits="userSpaceOnUse"
       y2="285.88"
       id="SVGID_1_-3-3">
      <stop
         id="stop4333"
         offset="0"
         style="stop-color:#ffffff;stop-opacity:1" />
      <stop
         id="stop4335"
         offset="1"
         style="stop-color:#ED1C24" />
    </linearGradient>
    <linearGradient
       inkscape:collect="always"
       id="linearGradient4198">
      <stop
         style="stop-color:#00aad4;stop-opacity:1;"
         offset="0"
         id="stop4200" />
      <stop
         style="stop-color:#88aa00;stop-opacity:1"
         offset="1"
         id="stop4202" />
    </linearGradient>
    <linearGradient
       inkscape:collect="always"
       xlink:href="#linearGradient4198"
       id="linearGradient4212"
       x1="104.38225"
       y1="-86.503387"
       x2="784.58142"
       y2="-86.503387"
       gradientUnits="userSpaceOnUse" />
    <linearGradient
       id="linearGradient2314">
      <stop
         id="stop4334"
         stop-opacity="0"
         stop-color="#e85d0b"
         offset="0" />
      <stop
         id="stop4336"
         stop-color="#f0fd05"
         offset="1" />
    </linearGradient>
    <linearGradient
       y2="-177.76933"
       y1="670.26648"
       x2="446.22998"
       x1="524.12671"
       id="linearGradient2344"
       gradientUnits="userSpaceOnUse"
       gradientTransform="matrix(0.84563,0.09748809,-0.13454,1.16704,0,0)">
      <stop
         id="stop4339"
         stop-color="#e82b00"
         offset="0" />
      <stop
         id="stop4341"
         stop-color="#f0fd05"
         offset="1" />
    </linearGradient>
    <linearGradient
       y2="326.31506"
       y1="396.32053"
       xlink:href="#linearGradient2314"
       x2="677.30365"
       x1="499.6402"
       id="linearGradient2346"
       gradientUnits="userSpaceOnUse"
       gradientTransform="matrix(0.84563,0.09748809,-0.13454,1.16704,0,0)" />
    <linearGradient
       y2="82.65821"
       y1="201.57149"
       xlink:href="#linearGradient2314"
       x2="439.42499"
       x1="527.88281"
       id="linearGradient2347"
       gradientUnits="userSpaceOnUse"
       gradientTransform="matrix(0.84563,0.09748809,-0.13454,1.16704,0,0)" />
    <linearGradient
       y2="398.33472"
       y1="558.98346"
       xlink:href="#linearGradient2314"
       x2="289.89227"
       x1="403.74078"
       id="linearGradient2348"
       gradientUnits="userSpaceOnUse"
       gradientTransform="matrix(0.84563,0.09748809,-0.13454,1.16704,0,0)" />
    <linearGradient
       y2="683.59259"
       y1="707.82776"
       xlink:href="#linearGradient2314"
       x2="145.06538"
       x1="337.96625"
       id="linearGradient2349"
       gradientUnits="userSpaceOnUse"
       gradientTransform="scale(0.80118,1.24817)" />
    <radialGradient
       r="267.37003"
       id="radialGradient2345"
       gradientUnits="userSpaceOnUse"
       gradientTransform="scale(0.9294,1.07596)"
       fy="869.1051"
       fx="381.43335"
       cy="848.68884"
       cx="387.30853">
      <stop
         id="stop4348"
         stop-color="#bd2300"
         offset="0" />
      <stop
         id="stop4350"
         stop-opacity="0"
         stop-color="#fd2f00"
         offset="1" />
    </radialGradient>
    <linearGradient
       id="SVGID_1_-3"
       y2="285.88"
       gradientUnits="userSpaceOnUse"
       x2="103.98"
       y1="285.88"
       x1="16.386999"
       gradientTransform="matrix(0,-1.1816121,1.1816123,0,655.20983,613.43017)">
      <stop
         style="stop-color:#6D0000"
         offset="0"
         id="stop4301" />
      <stop
         style="stop-color:#ED1C24"
         offset="1"
         id="stop4303" />
    </linearGradient>
    <linearGradient
       id="SVGID_2_-6"
       y2="330.53"
       gradientUnits="userSpaceOnUse"
       x2="101.56"
       y1="330.53"
       x1="18.722"
       gradientTransform="translate(967.5776,87.475609)">
      <stop
         style="stop-color:#6D0000"
         offset="0"
         id="stop4308" />
      <stop
         style="stop-color:#ED1C24"
         offset="1"
         id="stop4310" />
    </linearGradient>
  </defs>
  <metadata
     id="metadata7">
    <rdf:RDF>
      <cc:Work
         rdf:about="">
        <dc:format>image/svg+xml</dc:format>
        <dc:type
           rdf:resource="http://purl.org/dc/dcmitype/StillImage" />
        <dc:title />
      </cc:Work>
    </rdf:RDF>
  </metadata>
  <g
     style="display:inline"
     inkscape:label="artwork"
     inkscape:groupmode="layer"
     id="layer1"
     transform="translate(0,-308.26761)" />
  <g
     transform="translate(0,-70.866142)"
     inkscape:label="bubbles"
     id="layer2"
     inkscape:groupmode="layer"
     style="display:inline" />
  <g
     transform="translate(0,-70.866142)"
     inkscape:label="text"
     id="layer3"
     inkscape:groupmode="layer"
     style="display:inline" />
  <g
     inkscape:groupmode="layer"
     id="layer4"
     inkscape:label="cache"
     style="display:inline">
    <flowRoot
       transform="translate(-19.117706,623.27788)"
       style="color:#000000;font-style:normal;font-variant:normal;font-weight:normal;font-stretch:normal;font-size:15px;line-height:100%;font-family:Comili;-inkscape-font-specification:'Comili, Normal';text-indent:0;text-align:start;text-decoration:none;text-decoration-line:none;text-decoration-style:solid;text-decoration-color:#000000;letter-spacing:0px;word-spacing:0px;text-transform:none;direction:ltr;block-progression:tb;writing-mode:lr-tb;baseline-shift:baseline;text-anchor:start;white-space:normal;clip-rule:nonzero;display:inline;overflow:visible;visibility:visible;opacity:1;isolation:auto;mix-blend-mode:normal;color-interpolation:sRGB;color-interpolation-filters:linearRGB;solid-color:#000000;solid-opacity:1;fill:#000000;fill-opacity:1;fill-rule:nonzero;stroke:none;stroke-width:0.99999964px;stroke-linecap:butt;stroke-linejoin:miter;stroke-miterlimit:4;stroke-dasharray:none;stroke-dashoffset:0;stroke-opacity:1;color-rendering:auto;image-rendering:auto;shape-rendering:auto;text-rendering:auto;enable-background:accumulate"
       id="flowRoot4357"
       xml:space="preserve"><flowRegion
         id="flowRegion4359"><rect
           style="text-align:start;text-anchor:start"
           y="55.238964"
           x="54.551323"
           height="272.17627"
           width="256.50732"
           id="rect4361" /></flowRegion><flowPara
         id="flowPara4363" /></flowRoot>    <flowRoot
       xml:space="preserve"
       id="flowRoot4365"
       style="fill:#000000;stroke:none;stroke-opacity:1;stroke-width:0.99999967px;stroke-linejoin:miter;stroke-linecap:butt;color:#000000;font-style:normal;font-variant:normal;font-weight:normal;font-stretch:normal;font-size:15px;line-height:100%;font-family:Comili;-inkscape-font-specification:'Comili, Normal';text-indent:0;text-align:center;text-decoration:none;text-decoration-line:none;text-decoration-style:solid;text-decoration-color:#000000;letter-spacing:0px;word-spacing:0px;text-transform:none;direction:ltr;block-progression:tb;writing-mode:lr;baseline-shift:baseline;text-anchor:middle;white-space:normal;clip-rule:nonzero;display:inline;overflow:visible;visibility:visible;opacity:1;isolation:auto;mix-blend-mode:normal;color-interpolation:sRGB;color-interpolation-filters:linearRGB;solid-color:#000000;solid-opacity:1;fill-opacity:1;fill-rule:nonzero;stroke-miterlimit:4;stroke-dasharray:none;stroke-dashoffset:0;filter-blend-mode:normal;filter-gaussianBlur-deviation:0;color-rendering:auto;image-rendering:auto;shape-rendering:auto;text-rendering:auto;enable-background:accumulate"><flowRegion
         id="flowRegion4367"><rect
           id="rect4369"
           width="32.007889"
           height="68.119354"
           x="293.81601"
           y="858.99463" /></flowRegion><flowPara
         id="flowPara4371" /></flowRoot>    <flowRoot
       transform="translate(-19.117708,383.55815)"
       style="color:#000000;font-style:normal;font-variant:normal;font-weight:normal;font-stretch:normal;font-size:15px;line-height:100%;font-family:Comili;-inkscape-font-specification:'Comili, Normal';text-indent:0;text-align:start;text-decoration:none;text-decoration-line:none;text-decoration-style:solid;text-decoration-color:#000000;letter-spacing:0px;word-spacing:0px;text-transform:none;writing-mode:lr-tb;direction:ltr;baseline-shift:baseline;text-anchor:start;white-space:normal;clip-rule:nonzero;display:inline;overflow:visible;visibility:visible;opacity:1;isolation:auto;mix-blend-mode:normal;color-interpolation:sRGB;color-interpolation-filters:linearRGB;solid-color:#000000;solid-opacity:1;fill:#000000;fill-opacity:1;fill-rule:nonzero;stroke:none;stroke-width:0.99999964px;stroke-linecap:butt;stroke-linejoin:miter;stroke-miterlimit:4;stroke-dasharray:none;stroke-dashoffset:0;stroke-opacity:1;color-rendering:auto;image-rendering:auto;shape-rendering:auto;text-rendering:auto;enable-background:accumulate"
       id="flowRoot4324"
       xml:space="preserve"><flowRegion
         id="flowRegion4326"><rect
           style="text-align:start;text-anchor:start"
           y="55.238964"
           x="54.551323"
           height="357.87332"
           width="453.54279"
           id="rect4328" /></flowRegion><flowPara
         id="flowPara4240">   *p2 : Suivant mes sources, le terme employé est soit « Motakori » soit « Motokari »… Si vous parlez Yanomami, s'il vous plait faites-le moi savoir !</flowPara><flowPara
         id="flowPara4334">   *p5 : Source Gilles Ramstein, « Voyage à travers les climats de la terre », Ed. Odile Jacob, p.282</flowPara><flowPara
         id="flowPara3435">   *p9 : Dessin de la décharge d'après la photo de Curtis Palmer « e-waste », Creative Commons By</flowPara><flowPara
         id="flowPara4642">   *p15 : https://www.ipcc.ch/pdf/assessment-report/ar5/wg1/WG1AR5_SummaryVolume_FINAL_FRENCH.pdf RID B1 p5</flowPara><flowPara
         id="flowPara4656">    *p16 : https://www.ipcc.ch/pdf/assessment-report/ar5/wg1/WG1AR5_SummaryVolume_FINAL_FRENCH.pdf RID E1 p20</flowPara><flowPara
         id="flowPara4658">   *p20 : https://fr.wikipedia.org/wiki/Pic_pétrolier</flowPara><flowPara
         id="flowPara4660">   *p29 : Clins d'œils aux jungles du Douanier Rousseau et à Gaston par Franquin</flowPara><flowPara
         id="flowPara4662">   *p30 : Clin d'œil à « La Grande Vague de Kanagawa » de Hokusai</flowPara><flowPara
         id="flowPara4664">   *p33 : https://www.croptrust.org/our-work/svalbard-global-seed-vault/</flowPara><flowPara
         id="flowPara4666">   *p33 : http://www.navdanya.org/</flowPara><flowPara
         id="flowPara4644" /><flowPara
         id="flowPara4646" /><flowPara
         id="flowPara4648" /><flowPara
         id="flowPara4650" /><flowPara
         id="flowPara4652" /><flowPara
         id="flowPara4654" /></flowRoot>    <text
       id="text4311"
       y="421.17429"
       x="66.358765"
       style="color:#000000;font-style:normal;font-variant:normal;font-weight:normal;font-stretch:normal;font-size:12px;line-height:0%;font-family:Comili;-inkscape-font-specification:Comili;text-indent:0;text-align:center;text-decoration:none;text-decoration-line:none;text-decoration-style:solid;text-decoration-color:#000000;letter-spacing:0px;word-spacing:0px;text-transform:none;writing-mode:lr-tb;direction:ltr;baseline-shift:baseline;text-anchor:middle;white-space:normal;clip-rule:nonzero;display:inline;overflow:visible;visibility:visible;opacity:1;isolation:auto;mix-blend-mode:normal;color-interpolation:sRGB;color-interpolation-filters:linearRGB;solid-color:#000000;solid-opacity:1;fill:#000000;fill-opacity:1;fill-rule:nonzero;stroke:none;stroke-width:1.06974173;stroke-linecap:butt;stroke-linejoin:miter;stroke-miterlimit:4;stroke-dasharray:none;stroke-dashoffset:0;stroke-opacity:1;color-rendering:auto;image-rendering:auto;shape-rendering:auto;text-rendering:auto;enable-background:accumulate"
       xml:space="preserve"><tspan
         y="421.17429"
         x="66.358765"
         id="tspan4313"
         sodipodi:role="line"
         style="font-size:27.14751816px;line-height:1;fill:#000000;stroke:none;stroke-width:1.06974173;stroke-miterlimit:4;stroke-dasharray:none">Notes</tspan></text>
  </g>
  <g
     sodipodi:insensitive="true"
     inkscape:groupmode="layer"
     inkscape:label="printing marks"
     id="printing-marks"
     style="display:inline">
    <g
       inkscape:label="CropMarks"
       id="CropMarks">
      <path
         style="fill:none;stroke:#000000;stroke-width:0.25"
         id="cropTL1"
         d="M 0,-7.0866142 0,-42.519685"
         inkscape:connector-curvature="0" />
      <path
         style="fill:none;stroke:#000000;stroke-width:0.25"
         id="cropTL2"
         d="M -7.0866142,0 -42.519685,0"
         inkscape:connector-curvature="0" />
      <path
         style="fill:none;stroke:#000000;stroke-width:0.25"
         id="cropTR1"
         d="m 524.40945,-7.0866142 0,-35.4330708"
         inkscape:connector-curvature="0" />
      <path
         style="fill:none;stroke:#000000;stroke-width:0.25"
         id="cropTR2"
         d="m 531.49606,0 35.43307,0"
         inkscape:connector-curvature="0" />
      <path
         style="fill:none;stroke:#000000;stroke-width:0.25"
         id="cropBL1"
         d="m 0,751.1811 0,35.43307"
         inkscape:connector-curvature="0" />
      <path
         style="fill:none;stroke:#000000;stroke-width:0.25"
         id="cropBL2"
         d="m -7.0866142,744.09449 -35.4330708,0"
         inkscape:connector-curvature="0" />
      <path
         style="fill:none;stroke:#000000;stroke-width:0.25"
         id="cropBR1"
         d="m 524.40945,751.1811 0,35.43307"
         inkscape:connector-curvature="0" />
      <path
         style="fill:none;stroke:#000000;stroke-width:0.25"
         id="cropBR2"
         d="m 531.49606,744.09449 35.43307,0"
         inkscape:connector-curvature="0" />
    </g>
    <g
       inkscape:label="RegistrationMarks"
       id="RegistrationMarks">
      <g
         id="regMarkL">
        <path
           id="path3448"
           transform="translate(-35.433071,318.89764)"
           style="fill:#000000;fill-opacity:1;stroke:none"
           d="m 0,17.716535 -3.5433071,0 L 14.173228,0 -3.5433071,-17.716535 0,-17.716535 17.716535,0 0,17.716535 Z"
           inkscape:connector-curvature="0" />
        <path
           id="path3450"
           transform="translate(-35.433071,318.89764)"
           style="fill:#00ffff;fill-opacity:1;stroke:none"
           d="m -3.5433071,17.716535 -3.5433071,0 L 10.629921,0 -7.0866142,-17.716535 l 3.5433071,0 L 14.173228,0 -3.5433071,17.716535 Z"
           inkscape:connector-curvature="0" />
        <path
           id="path3452"
           transform="translate(-35.433071,318.89764)"
           style="fill:#ff00ff;fill-opacity:1;stroke:none"
           d="m -7.0866142,17.716535 -3.5433068,0 L 7.0866142,0 -10.629921,-17.716535 l 3.5433068,0 L 10.629921,0 -7.0866142,17.716535 Z"
           inkscape:connector-curvature="0" />
        <path
           id="path3454"
           transform="translate(-35.433071,318.89764)"
           style="fill:#ffff00;fill-opacity:1;stroke:none"
           d="m -10.629921,17.716535 -3.543307,0 L 3.5433071,0 -14.173228,-17.716535 l 3.543307,0 L 7.0866142,0 -10.629921,17.716535 Z"
           inkscape:connector-curvature="0" />
        <path
           id="path3456"
           transform="translate(-35.433071,318.89764)"
           style="fill:#000000;fill-opacity:1;stroke:none"
           d="m -14.173228,17.716535 -3.543307,0 L 0,0 l -17.716535,-17.716535 3.543307,0 L 3.5433071,0 -14.173228,17.716535 Z"
           inkscape:connector-curvature="0" />
      </g>
      <g
         id="regMarkR">
        <path
           id="path3459"
           transform="matrix(-1,0,0,-1,559.84252,318.89764)"
           style="fill:#000000;fill-opacity:1;stroke:none"
           d="m 0,17.716535 -3.5433071,0 L 14.173228,0 -3.5433071,-17.716535 0,-17.716535 17.716535,0 0,17.716535 Z"
           inkscape:connector-curvature="0" />
        <path
           id="path3461"
           transform="matrix(-1,0,0,-1,559.84252,318.89764)"
           style="fill:#00ffff;fill-opacity:1;stroke:none"
           d="m -3.5433071,17.716535 -3.5433071,0 L 10.629921,0 -7.0866142,-17.716535 l 3.5433071,0 L 14.173228,0 -3.5433071,17.716535 Z"
           inkscape:connector-curvature="0" />
        <path
           id="path3463"
           transform="matrix(-1,0,0,-1,559.84252,318.89764)"
           style="fill:#ff00ff;fill-opacity:1;stroke:none"
           d="m -7.0866142,17.716535 -3.5433068,0 L 7.0866142,0 -10.629921,-17.716535 l 3.5433068,0 L 10.629921,0 -7.0866142,17.716535 Z"
           inkscape:connector-curvature="0" />
        <path
           id="path3465"
           transform="matrix(-1,0,0,-1,559.84252,318.89764)"
           style="fill:#ffff00;fill-opacity:1;stroke:none"
           d="m -10.629921,17.716535 -3.543307,0 L 3.5433071,0 -14.173228,-17.716535 l 3.543307,0 L 7.0866142,0 -10.629921,17.716535 Z"
           inkscape:connector-curvature="0" />
        <path
           id="path3467"
           transform="matrix(-1,0,0,-1,559.84252,318.89764)"
           style="fill:#000000;fill-opacity:1;stroke:none"
           d="m -14.173228,17.716535 -3.543307,0 L 0,0 l -17.716535,-17.716535 3.543307,0 L 3.5433071,0 -14.173228,17.716535 Z"
           inkscape:connector-curvature="0" />
      </g>
      <g
         id="regMarkT">
        <path
           id="path3470"
           transform="matrix(0,1,-1,0,262.20472,-35.433071)"
           style="fill:#000000;fill-opacity:1;stroke:none"
           d="m 0,17.716535 -3.5433071,0 L 14.173228,0 -3.5433071,-17.716535 0,-17.716535 17.716535,0 0,17.716535 Z"
           inkscape:connector-curvature="0" />
        <path
           id="path3472"
           transform="matrix(0,1,-1,0,262.20472,-35.433071)"
           style="fill:#00ffff;fill-opacity:1;stroke:none"
           d="m -3.5433071,17.716535 -3.5433071,0 L 10.629921,0 -7.0866142,-17.716535 l 3.5433071,0 L 14.173228,0 -3.5433071,17.716535 Z"
           inkscape:connector-curvature="0" />
        <path
           id="path3474"
           transform="matrix(0,1,-1,0,262.20472,-35.433071)"
           style="fill:#ff00ff;fill-opacity:1;stroke:none"
           d="m -7.0866142,17.716535 -3.5433068,0 L 7.0866142,0 -10.629921,-17.716535 l 3.5433068,0 L 10.629921,0 -7.0866142,17.716535 Z"
           inkscape:connector-curvature="0" />
        <path
           id="path3476"
           transform="matrix(0,1,-1,0,262.20472,-35.433071)"
           style="fill:#ffff00;fill-opacity:1;stroke:none"
           d="m -10.629921,17.716535 -3.543307,0 L 3.5433071,0 -14.173228,-17.716535 l 3.543307,0 L 7.0866142,0 -10.629921,17.716535 Z"
           inkscape:connector-curvature="0" />
        <path
           id="path3478"
           transform="matrix(0,1,-1,0,262.20472,-35.433071)"
           style="fill:#000000;fill-opacity:1;stroke:none"
           d="m -14.173228,17.716535 -3.543307,0 L 0,0 l -17.716535,-17.716535 3.543307,0 L 3.5433071,0 -14.173228,17.716535 Z"
           inkscape:connector-curvature="0" />
      </g>
      <g
         id="regMarkB">
        <path
           id="path3481"
           transform="matrix(0,-1,1,0,262.20472,779.52756)"
           style="fill:#000000;fill-opacity:1;stroke:none"
           d="m 0,17.716535 -3.5433071,0 L 14.173228,0 -3.5433071,-17.716535 0,-17.716535 17.716535,0 0,17.716535 Z"
           inkscape:connector-curvature="0" />
        <path
           id="path3483"
           transform="matrix(0,-1,1,0,262.20472,779.52756)"
           style="fill:#00ffff;fill-opacity:1;stroke:none"
           d="m -3.5433071,17.716535 -3.5433071,0 L 10.629921,0 -7.0866142,-17.716535 l 3.5433071,0 L 14.173228,0 -3.5433071,17.716535 Z"
           inkscape:connector-curvature="0" />
        <path
           id="path3485"
           transform="matrix(0,-1,1,0,262.20472,779.52756)"
           style="fill:#ff00ff;fill-opacity:1;stroke:none"
           d="m -7.0866142,17.716535 -3.5433068,0 L 7.0866142,0 -10.629921,-17.716535 l 3.5433068,0 L 10.629921,0 -7.0866142,17.716535 Z"
           inkscape:connector-curvature="0" />
        <path
           id="path3487"
           transform="matrix(0,-1,1,0,262.20472,779.52756)"
           style="fill:#ffff00;fill-opacity:1;stroke:none"
           d="m -10.629921,17.716535 -3.543307,0 L 3.5433071,0 -14.173228,-17.716535 l 3.543307,0 L 7.0866142,0 -10.629921,17.716535 Z"
           inkscape:connector-curvature="0" />
        <path
           id="path3489"
           transform="matrix(0,-1,1,0,262.20472,779.52756)"
           style="fill:#000000;fill-opacity:1;stroke:none"
           d="m -14.173228,17.716535 -3.543307,0 L 0,0 l -17.716535,-17.716535 3.543307,0 L 3.5433071,0 -14.173228,17.716535 Z"
           inkscape:connector-curvature="0" />
      </g>
    </g>
  </g>
</svg>
