<?xml version="1.0" encoding="UTF-8" standalone="no"?>
<!-- Created with Inkscape (http://www.inkscape.org/) -->

<svg
   xmlns:dc="http://purl.org/dc/elements/1.1/"
   xmlns:cc="http://creativecommons.org/ns#"
   xmlns:rdf="http://www.w3.org/1999/02/22-rdf-syntax-ns#"
   xmlns:svg="http://www.w3.org/2000/svg"
   xmlns="http://www.w3.org/2000/svg"
   xmlns:xlink="http://www.w3.org/1999/xlink"
   xmlns:sodipodi="http://sodipodi.sourceforge.net/DTD/sodipodi-0.dtd"
   xmlns:inkscape="http://www.inkscape.org/namespaces/inkscape"
   width="148mm"
   height="210mm"
   viewBox="0 0 524.40946 744.09448"
   id="svg2"
   version="1.1"
   inkscape:version="0.92.1 r"
   sodipodi:docname="23.svg"
   inkscape:export-filename="/home/nylnook/Crea/BD/storyboard/test mise en page/storyboard2054-p4.png"
   inkscape:export-xdpi="600"
   inkscape:export-ydpi="600">
  <sodipodi:namedview
     id="base"
     pagecolor="#ffffff"
     bordercolor="#666666"
     borderopacity="1.0"
     inkscape:pageopacity="0.0"
     inkscape:pageshadow="2"
     inkscape:zoom="0.81580739"
     inkscape:cx="311.64345"
     inkscape:cy="225.84719"
     inkscape:document-units="mm"
     inkscape:current-layer="layer1"
     showgrid="false"
     units="mm"
     inkscape:window-width="1280"
     inkscape:window-height="1371"
     inkscape:window-x="1280"
     inkscape:window-y="27"
     inkscape:window-maximized="0"
     showguides="true"
     inkscape:guide-bbox="true"
     inkscape:snap-bbox="true"
     inkscape:bbox-paths="false"
     inkscape:bbox-nodes="true"
     borderlayer="true"
     inkscape:snap-global="false">
    <sodipodi:guide
       inkscape:locked="false"
       position="-7.0866147,0"
       orientation="1,0"
       id="guide7382"
       inkscape:label=""
       inkscape:color="rgb(0,0,255)" />
    <sodipodi:guide
       inkscape:locked="false"
       position="531.4961,0"
       orientation="1,0"
       id="guide7384"
       inkscape:label=""
       inkscape:color="rgb(0,0,255)" />
    <sodipodi:guide
       inkscape:locked="false"
       position="0,-7.0866142"
       orientation="0,1"
       id="guide7386"
       inkscape:label=""
       inkscape:color="rgb(0,0,255)" />
    <sodipodi:guide
       inkscape:locked="false"
       position="0,751.1811"
       orientation="0,1"
       id="guide7388"
       inkscape:label=""
       inkscape:color="rgb(0,0,255)" />
    <sodipodi:guide
       inkscape:locked="false"
       position="35.433073,0"
       orientation="1,0"
       id="guide7390"
       inkscape:label=""
       inkscape:color="rgb(0,0,255)" />
    <sodipodi:guide
       inkscape:locked="false"
       position="0,708.66142"
       orientation="0,1"
       id="guide7392"
       inkscape:label=""
       inkscape:color="rgb(0,0,255)" />
    <sodipodi:guide
       inkscape:locked="false"
       position="488.97641,0"
       orientation="1,0"
       id="guide7394"
       inkscape:label=""
       inkscape:color="rgb(0,0,255)" />
    <sodipodi:guide
       inkscape:locked="false"
       position="0,35.433071"
       orientation="0,1"
       id="guide7396"
       inkscape:label=""
       inkscape:color="rgb(0,0,255)" />
  </sodipodi:namedview>
  <defs
     id="defs4">
    <inkscape:path-effect
       bendpath-nodetypes="cc"
       vertical="false"
       scale_y_rel="false"
       prop_scale="1"
       bendpath="m 314.19757,521.41318 c 24.81495,20.67912 86.16539,30.72327 141.70362,-4.13582"
       is_visible="true"
       id="path-effect3512"
       effect="bend_path" />
    <inkscape:path-effect
       bendpath-nodetypes="cc"
       vertical="false"
       scale_y_rel="false"
       prop_scale="1"
       bendpath="m 299.783,464.01523 c 50.22073,-30.48531 95.94109,-25.19865 156.20597,-2.38983"
       is_visible="true"
       id="path-effect3499"
       effect="bend_path" />
    <inkscape:path-effect
       bendpath-nodetypes="cc"
       vertical="false"
       scale_y_rel="false"
       prop_scale="1"
       bendpath="m 255.464,658.14956 c 26,-2 48.45873,3 64.95873,20"
       is_visible="true"
       id="path-effect3609"
       effect="bend_path" />
    <inkscape:path-effect
       bendpath-nodetypes="cc"
       vertical="false"
       scale_y_rel="false"
       prop_scale="1"
       bendpath="m 396.71471,421.683 c 33,-10 69.06701,-7 85.06701,6.5"
       is_visible="true"
       id="path-effect3590"
       effect="bend_path" />
    <clipPath
       id="clipPath5115"
       clipPathUnits="userSpaceOnUse">
      <rect
         style="opacity:0.5;fill:#000000;fill-opacity:1;stroke:none;stroke-width:10.62992096;stroke-linecap:round;stroke-linejoin:round;stroke-miterlimit:4;stroke-dasharray:none;stroke-dashoffset:4.0999999;stroke-opacity:1"
         id="rect5117"
         width="538.5827"
         height="419.32443"
         x="28.346457"
         y="604.69122" />
    </clipPath>
    <clipPath
       id="clipPath5056"
       clipPathUnits="userSpaceOnUse">
      <path
         inkscape:connector-curvature="0"
         style="display:inline;opacity:0.5;fill:#000000;fill-opacity:1;stroke:none;stroke-width:1;stroke-linecap:round;stroke-linejoin:round;stroke-miterlimit:4;stroke-dasharray:none;stroke-dashoffset:0;stroke-opacity:1"
         d="m 70.866142,594.69339 144.095668,0 0,-286.42578 -144.095668,0 z"
         id="path5058"
         sodipodi:nodetypes="ccccc" />
    </clipPath>
    <clipPath
       id="clipPath5122"
       clipPathUnits="userSpaceOnUse">
      <path
         sodipodi:nodetypes="ccccc"
         id="path5124"
         d="m 225.58995,594.69339 144.09567,0 0,-286.42578 -144.09567,0 z"
         style="display:inline;opacity:0.5;fill:#000000;fill-opacity:1;stroke:none;stroke-width:1;stroke-linecap:round;stroke-linejoin:round;stroke-miterlimit:4;stroke-dasharray:none;stroke-dashoffset:0;stroke-opacity:1"
         inkscape:connector-curvature="0" />
    </clipPath>
    <clipPath
       id="clipPath5129"
       clipPathUnits="userSpaceOnUse">
      <path
         inkscape:connector-curvature="0"
         style="display:inline;opacity:0.5;fill:#000000;fill-opacity:1;stroke:none;stroke-width:1;stroke-linecap:round;stroke-linejoin:round;stroke-miterlimit:4;stroke-dasharray:none;stroke-dashoffset:0;stroke-opacity:1"
         d="m 380.31378,594.69339 144.09567,0 0,-286.42578 -144.09567,0 z"
         id="path5131"
         sodipodi:nodetypes="ccccc" />
    </clipPath>
    <clipPath
       id="clipPath3564"
       clipPathUnits="userSpaceOnUse">
      <path
         style="opacity:0.5;fill:#000000;fill-opacity:1;stroke:none;stroke-width:0.35433072;stroke-linecap:round;stroke-linejoin:round;stroke-miterlimit:4;stroke-dasharray:none;stroke-dashoffset:0;stroke-opacity:1"
         d="m 35.433075,625.57288 0,-281.87223 303.857945,0 0,175.55836 -114.00242,106.42574 z"
         id="path3566"
         inkscape:connector-curvature="0"
         sodipodi:nodetypes="cccccc" />
    </clipPath>
    <clipPath
       id="clipPath3568"
       clipPathUnits="userSpaceOnUse">
      <path
         sodipodi:nodetypes="cccccc"
         inkscape:connector-curvature="0"
         id="path3570"
         d="m 488.97643,529.8236 0,217.0441 -233.9733,0 0,-135.18149 87.78287,-81.94875 z"
         style="opacity:0.5;fill:#000000;fill-opacity:1;stroke:none;stroke-width:0.35433072;stroke-linecap:round;stroke-linejoin:round;stroke-miterlimit:4;stroke-dasharray:none;stroke-dashoffset:0;stroke-opacity:1" />
    </clipPath>
    <clipPath
       id="clipPath3539"
       clipPathUnits="userSpaceOnUse">
      <rect
         y="505.45435"
         x="622.36469"
         height="308.71356"
         width="453.54337"
         id="rect3541"
         style="opacity:0.5;fill:#272f3c;fill-opacity:1;stroke:none;stroke-width:0.35433072;stroke-linecap:round;stroke-linejoin:round;stroke-miterlimit:4;stroke-dasharray:none;stroke-dashoffset:0;stroke-opacity:1" />
    </clipPath>
    <clipPath
       id="clipPath3556"
       clipPathUnits="userSpaceOnUse">
      <path
         style="opacity:0.5;fill:#000000;fill-opacity:1;stroke:none;stroke-width:0.35433072;stroke-linecap:round;stroke-linejoin:round;stroke-miterlimit:4;stroke-dasharray:none;stroke-dashoffset:0;stroke-opacity:1"
         d="m 488.97643,812.57452 -203.48715,0 0,90.40334 c 20.06985,81.61738 0,113.08374 0,113.08374 l 203.48715,0 z"
         id="path3558"
         inkscape:connector-curvature="0"
         sodipodi:nodetypes="cccccc" />
    </clipPath>
    <clipPath
       id="clipPath3560"
       clipPathUnits="userSpaceOnUse">
      <path
         sodipodi:nodetypes="cccccc"
         inkscape:connector-curvature="0"
         id="path3562"
         d="m 35.433071,813.44189 203.487149,0 0,90.40334 c -20.06985,81.61738 0,113.08377 0,113.08377 l -203.487149,0 z"
         style="opacity:0.5;fill:#000000;fill-opacity:1;stroke:none;stroke-width:0.35433072;stroke-linecap:round;stroke-linejoin:round;stroke-miterlimit:4;stroke-dasharray:none;stroke-dashoffset:0;stroke-opacity:1" />
    </clipPath>
    <clipPath
       id="clipPath3559"
       clipPathUnits="userSpaceOnUse">
      <rect
         y="557.38965"
         x="35.433071"
         height="187.31729"
         width="199.31833"
         id="rect3561"
         style="opacity:0.5;fill:#000000;fill-opacity:1;stroke:none;stroke-width:0.35433072;stroke-linecap:round;stroke-linejoin:round;stroke-miterlimit:4;stroke-dasharray:none;stroke-dashoffset:0;stroke-opacity:1" />
    </clipPath>
    <clipPath
       id="clipPath3585"
       clipPathUnits="userSpaceOnUse">
      <path
         sodipodi:nodetypes="cccccc"
         inkscape:connector-curvature="0"
         id="path3587"
         d="m 168.33847,343.70065 363.15762,0 0,363.15763 -141.81639,0 -221.34123,-268.5192 z"
         style="opacity:0.5;fill:#000000;fill-opacity:1;stroke:none;stroke-width:0.35433072;stroke-linecap:round;stroke-linejoin:round;stroke-miterlimit:4;stroke-dasharray:none;stroke-dashoffset:0;stroke-opacity:1" />
    </clipPath>
    <clipPath
       id="clipPath3523"
       clipPathUnits="userSpaceOnUse">
      <path
         sodipodi:nodetypes="cccccc"
         inkscape:connector-curvature="0"
         id="path3525"
         d="m 35.433071,620.74042 282.275759,0 0,162.87402 -75.66178,119.40173 -206.613979,0 z"
         style="opacity:0.5;fill:#000000;fill-opacity:1;stroke:none;stroke-width:0.35433072;stroke-linecap:round;stroke-linejoin:round;stroke-miterlimit:4;stroke-dasharray:none;stroke-dashoffset:0;stroke-opacity:1" />
    </clipPath>
  </defs>
  <metadata
     id="metadata7">
    <rdf:RDF>
      <cc:Work
         rdf:about="">
        <dc:format>image/svg+xml</dc:format>
        <dc:type
           rdf:resource="http://purl.org/dc/dcmitype/StillImage" />
        <dc:title />
      </cc:Work>
    </rdf:RDF>
  </metadata>
  <g
     transform="translate(0,-308.26761)"
     id="layer1"
     inkscape:groupmode="layer"
     inkscape:label="artwork"
     style="display:inline">
    <image
       sodipodi:absref="/home/nylnook/Crea/BD/Mokatori/layout/ep1 ebook-en/../p31.png"
       xlink:href="../p31.png"
       style="display:inline"
       width="538.65009"
       height="758.25006"
       preserveAspectRatio="none"
       id="image4625"
       x="-7.0866146"
       y="301.181" />
  </g>
  <g
     style="display:inline"
     inkscape:groupmode="layer"
     id="layer2"
     inkscape:label="bubbles"
     transform="translate(0,-70.866142)">
    <path
       inkscape:connector-curvature="0"
       id="path3595"
       d="m 344.28098,720.85176 1.05323,1.54886"
       style="opacity:1;fill:#ffffff;fill-opacity:1;stroke:none;stroke-width:0.35433072;stroke-linecap:round;stroke-linejoin:round;stroke-miterlimit:4;stroke-dasharray:none;stroke-dashoffset:0;stroke-opacity:1" />
    <path
       inkscape:connector-curvature="0"
       id="path3619"
       d="m 432.10423,800.44693 1.37073,-0.96758"
       style="opacity:1;fill:#ffffff;fill-opacity:1;stroke:none;stroke-width:0.35433072;stroke-linecap:round;stroke-linejoin:round;stroke-miterlimit:4;stroke-dasharray:none;stroke-dashoffset:0;stroke-opacity:1" />
    <path
       sodipodi:nodetypes="sssss"
       inkscape:connector-curvature="0"
       id="path3480"
       d="m 101.37105,152.09017 c 27.15766,5.34177 84.43583,9.70124 106.18347,-2.61296 18.12292,-10.26177 10.31157,-13.23573 -4.2325,-22.38597 -13.41721,-8.44129 -89.80593,1.37119 -101.95585,-1.8599 -19.831747,-5.27396 -39.101283,19.16685 0.005,26.85883 z"
       style="opacity:1;fill:#ffffff;fill-opacity:1;stroke:none;stroke-width:0.35433072;stroke-linecap:round;stroke-linejoin:round;stroke-miterlimit:4;stroke-dasharray:none;stroke-dashoffset:0;stroke-opacity:1" />
    <path
       inkscape:connector-curvature="0"
       id="path3482"
       d="m 276.99655,182.63068 c 16.78931,29.50429 101.65586,15.35627 147.10571,10.56183 11.09822,-1.17074 27.73516,-37.80457 15.35822,-47.55791 -18.33555,-14.44889 -151.40728,-8.55999 -161.9165,-4.27854 -9.40751,3.83261 -9.078,26.28363 -0.54743,41.27462 z"
       style="opacity:1;fill:#ffffff;fill-opacity:1;stroke:none;stroke-width:0.35433072;stroke-linecap:round;stroke-linejoin:round;stroke-miterlimit:4;stroke-dasharray:none;stroke-dashoffset:0;stroke-opacity:1"
       sodipodi:nodetypes="sssss" />
    <path
       inkscape:connector-curvature="0"
       id="path3484"
       d="m 77.078897,494.98446 c -5.273219,16.91584 19.87739,36.92433 32.022043,43.30152 22.62441,11.88013 61.59075,8.68342 83.73548,-2.2137 6.13395,-3.01843 35.07288,-41.92934 21.5949,-45.68783 -24.0298,-6.70099 -130.156544,-18.48349 -137.352423,4.60001 z"
       style="opacity:1;fill:#ffffff;fill-opacity:1;stroke:none;stroke-width:0.35433072;stroke-linecap:round;stroke-linejoin:round;stroke-miterlimit:4;stroke-dasharray:none;stroke-dashoffset:0;stroke-opacity:1"
       sodipodi:nodetypes="sssss" />
    <path
       sodipodi:nodetypes="ssssss"
       inkscape:connector-curvature="0"
       id="path3486"
       d="m 128.76242,624.42496 c 25.51824,33.7602 58.82548,29.48333 80.67528,25.99247 20.46703,-3.26994 35.17301,-7.08697 45.04403,-21.28547 3.60914,-5.19142 15.89837,-18.16221 11.05415,-23.58893 -17.33781,-19.4226 -73.5154,-16.19891 -101.28839,-16.40093 -16.10655,-0.11716 -48.09272,18.60316 -35.48507,35.28286 z"
       style="opacity:1;fill:#ffffff;fill-opacity:1;stroke:none;stroke-width:0.35433072;stroke-linecap:round;stroke-linejoin:round;stroke-miterlimit:4;stroke-dasharray:none;stroke-dashoffset:0;stroke-opacity:1" />
    <path
       sodipodi:nodetypes="sssss"
       inkscape:connector-curvature="0"
       id="path3488"
       d="m 50.35318,642.59766 c -34.320822,3.3113 -15.772258,35.86167 4.071506,37.67702 45.591064,4.17078 173.289714,7.81974 195.704524,5.00647 19.28159,-2.42002 15.8782,-36.88986 -2.27082,-39.32026 -57.70997,-7.72816 -145.73997,-8.35758 -197.50521,-3.36323 z"
       style="opacity:1;fill:#ffffff;fill-opacity:1;stroke:none;stroke-width:0.35433072;stroke-linecap:round;stroke-linejoin:round;stroke-miterlimit:4;stroke-dasharray:none;stroke-dashoffset:0;stroke-opacity:1" />
    <path
       sodipodi:nodetypes="sssss"
       inkscape:connector-curvature="0"
       id="path3490"
       d="m 165.82495,680.21728 c -32.34423,18.36725 13.26529,43.98535 29.10987,38.53554 29.10596,-10.01113 78.27992,6.53001 99.58957,-3.77852 8.8904,-4.30073 8.84187,-33.63419 0.36313,-35.38608 -27.56483,-5.69549 -93.49082,-19.571 -129.06257,0.62906 z"
       style="opacity:1;fill:#ffffff;fill-opacity:1;stroke:none;stroke-width:0.35433072;stroke-linecap:round;stroke-linejoin:round;stroke-miterlimit:4;stroke-dasharray:none;stroke-dashoffset:0;stroke-opacity:1" />
    <path
       inkscape:connector-curvature="0"
       id="path3492"
       d="m 243.95383,723.96699 c -15.89599,8.28381 -9.0609,15.51021 -4.00539,18.74861 13.28693,8.5112 124.69561,1.76003 142.26974,2.05707 23.02136,0.38912 27.35083,-17.22811 5.61502,-20.53954 -34.13341,-5.2002 -135.53539,-4.6144 -143.87937,-0.26614 z"
       style="opacity:1;fill:#ffffff;fill-opacity:1;stroke:none;stroke-width:0.35433072;stroke-linecap:round;stroke-linejoin:round;stroke-miterlimit:4;stroke-dasharray:none;stroke-dashoffset:0;stroke-opacity:1"
       sodipodi:nodetypes="sssss" />
    <path
       inkscape:connector-curvature="0"
       id="path3494"
       d="m 324.51716,758.70326 c 6.47727,16.94712 129.00919,13.97411 150.62422,4.55124 27.98549,-12.20001 -17.48164,-20.34421 -30.97815,-20.68275 -21.02784,-0.52744 -68.53089,-0.70685 -87.94632,0.41564 -12.78017,0.73888 -41.53805,-10.02508 -31.69975,15.71587 z"
       style="opacity:1;fill:#ffffff;fill-opacity:1;stroke:none;stroke-width:0.35433075;stroke-linecap:round;stroke-linejoin:round;stroke-miterlimit:4;stroke-dasharray:none;stroke-dashoffset:0;stroke-opacity:1"
       sodipodi:nodetypes="sssss" />
  </g>
  <g
     style="display:inline"
     inkscape:groupmode="layer"
     id="layer3"
     inkscape:label="text"
     transform="translate(0,-70.866142)">
    <text
       id="text4219"
       y="334.40897"
       x="33.168972"
       style="color:#000000;font-style:normal;font-variant:normal;font-weight:normal;font-stretch:normal;font-size:17.5px;line-height:125%;font-family:Frenchpress;-inkscape-font-specification:Frenchpress;text-indent:0;text-align:start;text-decoration:none;text-decoration-line:none;text-decoration-style:solid;text-decoration-color:#000000;letter-spacing:0px;word-spacing:0px;text-transform:none;direction:ltr;block-progression:tb;writing-mode:lr-tb;baseline-shift:baseline;text-anchor:start;white-space:normal;clip-rule:nonzero;display:inline;overflow:visible;visibility:visible;opacity:1;isolation:auto;mix-blend-mode:normal;color-interpolation:sRGB;color-interpolation-filters:linearRGB;solid-color:#000000;solid-opacity:1;fill:#000000;fill-opacity:1;fill-rule:nonzero;stroke:none;stroke-width:1px;stroke-linecap:butt;stroke-linejoin:miter;stroke-miterlimit:4;stroke-dasharray:none;stroke-dashoffset:0;stroke-opacity:1;color-rendering:auto;image-rendering:auto;shape-rendering:auto;text-rendering:auto;enable-background:accumulate"
       xml:space="preserve"><tspan
         style="font-style:normal;font-variant:normal;font-weight:normal;font-stretch:normal;font-size:17.5px;font-family:Frenchpress;-inkscape-font-specification:Frenchpress"
         y="334.40897"
         x="33.168972"
         id="tspan4221"
         sodipodi:role="line" /></text>
    <flowRoot
       style="color:#000000;font-style:normal;font-variant:normal;font-weight:normal;font-stretch:normal;font-size:12.5px;line-height:125%;font-family:Cantarell;-inkscape-font-specification:Cantarell;text-indent:0;text-align:start;text-decoration:none;text-decoration-line:none;text-decoration-style:solid;text-decoration-color:#000000;letter-spacing:0px;word-spacing:0px;text-transform:none;direction:ltr;block-progression:tb;writing-mode:lr-tb;baseline-shift:baseline;text-anchor:start;white-space:normal;clip-rule:nonzero;display:inline;overflow:visible;visibility:visible;opacity:1;isolation:auto;mix-blend-mode:normal;color-interpolation:sRGB;color-interpolation-filters:linearRGB;solid-color:#000000;solid-opacity:1;fill:#000000;fill-opacity:1;fill-rule:nonzero;stroke:none;stroke-width:1px;stroke-linecap:butt;stroke-linejoin:miter;stroke-miterlimit:4;stroke-dasharray:none;stroke-dashoffset:0;stroke-opacity:1;color-rendering:auto;image-rendering:auto;shape-rendering:auto;text-rendering:auto;enable-background:accumulate"
       id="flowRoot4275"
       xml:space="preserve"
       transform="translate(-37.329684,34.478724)"><flowRegion
         id="flowRegion4277"><rect
           y="317.81778"
           x="70.866142"
           height="95.714287"
           width="200.56242"
           id="rect4279" /></flowRegion><flowPara
         id="flowPara4281" /></flowRoot>    <flowRoot
       xml:space="preserve"
       id="flowRoot3544"
       style="color:#000000;font-style:normal;font-variant:normal;font-weight:normal;font-stretch:normal;font-size:16.25000191px;line-height:110.00000238%;font-family:Frenchpress;-inkscape-font-specification:Frenchpress;text-indent:0;text-align:center;text-decoration:none;text-decoration-line:none;text-decoration-style:solid;text-decoration-color:#000000;letter-spacing:0px;word-spacing:0px;text-transform:none;direction:ltr;block-progression:tb;writing-mode:lr-tb;baseline-shift:baseline;text-anchor:middle;white-space:normal;clip-rule:nonzero;display:inline;overflow:visible;visibility:visible;opacity:1;isolation:auto;mix-blend-mode:normal;color-interpolation:sRGB;color-interpolation-filters:linearRGB;solid-color:#000000;solid-opacity:1;fill:#000000;fill-opacity:1;fill-rule:nonzero;stroke:none;stroke-width:1px;stroke-linecap:butt;stroke-linejoin:miter;stroke-miterlimit:4;stroke-dasharray:none;stroke-dashoffset:0;stroke-opacity:1;color-rendering:auto;image-rendering:auto;shape-rendering:auto;text-rendering:auto;enable-background:accumulate"
       transform="translate(344.03604,157.47794)"><flowRegion
         id="flowRegion3546"><rect
           id="rect3548"
           width="81.80056"
           height="44.043884"
           x="70.866142"
           y="259.24634"
           style="font-style:normal;font-variant:normal;font-weight:normal;font-stretch:normal;font-size:16.25000191px;line-height:110.00000238%;font-family:Frenchpress;-inkscape-font-specification:Frenchpress;text-align:center;text-anchor:middle" /></flowRegion><flowPara
         id="flowPara3550"
         style="font-style:normal;font-variant:normal;font-weight:normal;font-stretch:normal;font-size:16.25000191px;line-height:100%;font-family:Comili;-inkscape-font-specification:Comili" /></flowRoot>    <flowRoot
       xml:space="preserve"
       id="flowRoot3503"
       style="color:#000000;font-style:normal;font-variant:normal;font-weight:normal;font-stretch:normal;line-height:0.01%;font-family:Frenchpress;-inkscape-font-specification:Frenchpress;text-indent:0;text-align:center;text-decoration:none;text-decoration-line:none;text-decoration-style:solid;text-decoration-color:#000000;letter-spacing:0px;word-spacing:0px;text-transform:none;writing-mode:lr-tb;direction:ltr;baseline-shift:baseline;text-anchor:middle;white-space:normal;clip-rule:nonzero;display:inline;overflow:visible;visibility:visible;opacity:1;isolation:auto;mix-blend-mode:normal;color-interpolation:sRGB;color-interpolation-filters:linearRGB;solid-color:#000000;solid-opacity:1;fill:#000000;fill-opacity:1;fill-rule:nonzero;stroke:none;stroke-width:1px;stroke-linecap:butt;stroke-linejoin:miter;stroke-miterlimit:4;stroke-dasharray:none;stroke-dashoffset:0;stroke-opacity:1;color-rendering:auto;image-rendering:auto;shape-rendering:auto;text-rendering:auto;enable-background:accumulate"
       transform="translate(-13.778027,-285.24672)"><flowRegion
         id="flowRegion3505"><rect
           id="rect3507"
           width="191.39093"
           height="45.300381"
           x="64.576889"
           y="417.44534"
           style="font-style:normal;font-variant:normal;font-weight:normal;font-stretch:normal;font-size:16.25000191px;line-height:110.00000238%;font-family:Frenchpress;-inkscape-font-specification:Frenchpress;text-align:center;text-anchor:middle" /></flowRegion><flowPara
         id="flowPara3509"
         style="font-style:normal;font-variant:normal;font-weight:normal;font-stretch:normal;font-size:16.25000191px;line-height:100%;font-family:Comili;-inkscape-font-specification:Comili">Now I must stop,</flowPara></flowRoot>    <flowRoot
       xml:space="preserve"
       id="flowRoot3511"
       style="color:#000000;font-style:normal;font-variant:normal;font-weight:normal;font-stretch:normal;line-height:0.01%;font-family:Frenchpress;-inkscape-font-specification:Frenchpress;text-indent:0;text-align:center;text-decoration:none;text-decoration-line:none;text-decoration-style:solid;text-decoration-color:#000000;letter-spacing:0px;word-spacing:0px;text-transform:none;writing-mode:lr-tb;direction:ltr;baseline-shift:baseline;text-anchor:middle;white-space:normal;clip-rule:nonzero;display:inline;overflow:visible;visibility:visible;opacity:1;isolation:auto;mix-blend-mode:normal;color-interpolation:sRGB;color-interpolation-filters:linearRGB;solid-color:#000000;solid-opacity:1;fill:#000000;fill-opacity:1;fill-rule:nonzero;stroke:none;stroke-width:1px;stroke-linecap:butt;stroke-linejoin:miter;stroke-miterlimit:4;stroke-dasharray:none;stroke-dashoffset:0;stroke-opacity:1;color-rendering:auto;image-rendering:auto;shape-rendering:auto;text-rendering:auto;enable-background:accumulate"
       transform="translate(7.3996088,230.44372)"><flowRegion
         id="flowRegion3513"><rect
           id="rect3515"
           width="128.55676"
           height="59.369411"
           x="70.866142"
           y="259.24634"
           style="font-style:normal;font-variant:normal;font-weight:normal;font-stretch:normal;font-size:16.25000191px;line-height:110.00000238%;font-family:Frenchpress;-inkscape-font-specification:Frenchpress;text-align:center;text-anchor:middle" /></flowRegion><flowPara
         id="flowPara3517"
         style="font-style:normal;font-variant:normal;font-weight:normal;font-stretch:normal;font-size:16.25000191px;line-height:100%;font-family:Comili;-inkscape-font-specification:Comili">I hope we'll get the opportunity to meet.</flowPara></flowRoot>    <flowRoot
       transform="translate(58.292129,335.42561)"
       style="color:#000000;font-style:normal;font-variant:normal;font-weight:normal;font-stretch:normal;line-height:0.01%;font-family:Frenchpress;-inkscape-font-specification:Frenchpress;text-indent:0;text-align:center;text-decoration:none;text-decoration-line:none;text-decoration-style:solid;text-decoration-color:#000000;letter-spacing:0px;word-spacing:0px;text-transform:none;writing-mode:lr-tb;direction:ltr;baseline-shift:baseline;text-anchor:middle;white-space:normal;clip-rule:nonzero;display:inline;overflow:visible;visibility:visible;opacity:1;isolation:auto;mix-blend-mode:normal;color-interpolation:sRGB;color-interpolation-filters:linearRGB;solid-color:#000000;solid-opacity:1;fill:#000000;fill-opacity:1;fill-rule:nonzero;stroke:none;stroke-width:1px;stroke-linecap:butt;stroke-linejoin:miter;stroke-miterlimit:4;stroke-dasharray:none;stroke-dashoffset:0;stroke-opacity:1;color-rendering:auto;image-rendering:auto;shape-rendering:auto;text-rendering:auto;enable-background:accumulate"
       id="flowRoot3516"
       xml:space="preserve"><flowRegion
         id="flowRegion3518"><rect
           style="font-style:normal;font-variant:normal;font-weight:normal;font-stretch:normal;font-size:16.25000191px;line-height:110.00000238%;font-family:Frenchpress;-inkscape-font-specification:Frenchpress;text-align:center;text-anchor:middle"
           y="259.24634"
           x="70.866142"
           height="79.063637"
           width="130.10077"
           id="rect3520" /></flowRegion><flowPara
         style="font-style:normal;font-variant:normal;font-weight:normal;font-stretch:normal;font-size:16.25000191px;line-height:100%;font-family:Comili;-inkscape-font-specification:Comili"
         id="flowPara3522">Please give me your opinion about this message.</flowPara></flowRoot>    <flowRoot
       transform="translate(-39.371169,388.80991)"
       style="color:#000000;font-style:normal;font-variant:normal;font-weight:normal;font-stretch:normal;line-height:0.01%;font-family:Frenchpress;-inkscape-font-specification:Frenchpress;text-indent:0;text-align:center;text-decoration:none;text-decoration-line:none;text-decoration-style:solid;text-decoration-color:#000000;letter-spacing:0px;word-spacing:0px;text-transform:none;writing-mode:lr-tb;direction:ltr;baseline-shift:baseline;text-anchor:middle;white-space:normal;clip-rule:nonzero;display:inline;overflow:visible;visibility:visible;opacity:1;isolation:auto;mix-blend-mode:normal;color-interpolation:sRGB;color-interpolation-filters:linearRGB;solid-color:#000000;solid-opacity:1;fill:#000000;fill-opacity:1;fill-rule:nonzero;stroke:none;stroke-width:1px;stroke-linecap:butt;stroke-linejoin:miter;stroke-miterlimit:4;stroke-dasharray:none;stroke-dashoffset:0;stroke-opacity:1;color-rendering:auto;image-rendering:auto;shape-rendering:auto;text-rendering:auto;enable-background:accumulate"
       id="flowRoot3525"
       xml:space="preserve"><flowRegion
         id="flowRegion3527"><rect
           style="font-style:normal;font-variant:normal;font-weight:normal;font-stretch:normal;font-size:16.25000191px;line-height:110.00000238%;font-family:Frenchpress;-inkscape-font-specification:Frenchpress;text-align:center;text-anchor:middle"
           y="259.24634"
           x="70.866142"
           height="41.853165"
           width="231.87434"
           id="rect3532" /></flowRegion><flowPara
         style="font-style:normal;font-variant:normal;font-weight:normal;font-stretch:normal;font-size:16.25000191px;line-height:100%;font-family:Comili;-inkscape-font-specification:Comili"
         id="flowPara3534">May be this will happen within the next 40 years for you,</flowPara></flowRoot>    <flowRoot
       xml:space="preserve"
       id="flowRoot3498"
       style="color:#000000;font-style:normal;font-variant:normal;font-weight:normal;font-stretch:normal;line-height:0.01%;font-family:Frenchpress;-inkscape-font-specification:Frenchpress;text-indent:0;text-align:center;text-decoration:none;text-decoration-line:none;text-decoration-style:solid;text-decoration-color:#000000;letter-spacing:0px;word-spacing:0px;text-transform:none;writing-mode:lr-tb;direction:ltr;baseline-shift:baseline;text-anchor:middle;white-space:normal;clip-rule:nonzero;display:inline;overflow:visible;visibility:visible;opacity:1;isolation:auto;mix-blend-mode:normal;color-interpolation:sRGB;color-interpolation-filters:linearRGB;solid-color:#000000;solid-opacity:1;fill:#000000;fill-opacity:1;fill-rule:nonzero;stroke:none;stroke-width:1px;stroke-linecap:butt;stroke-linejoin:miter;stroke-miterlimit:4;stroke-dasharray:none;stroke-dashoffset:0;stroke-opacity:1;color-rendering:auto;image-rendering:auto;shape-rendering:auto;text-rendering:auto;enable-background:accumulate"
       transform="translate(86.523293,422.82418)"><flowRegion
         id="flowRegion3500"><rect
           id="rect3502"
           width="145.45909"
           height="61.590618"
           x="70.866142"
           y="259.24634"
           style="font-style:normal;font-variant:normal;font-weight:normal;font-stretch:normal;font-size:16.25000191px;line-height:110.00000238%;font-family:Frenchpress;-inkscape-font-specification:Frenchpress;text-align:center;text-anchor:middle" /></flowRegion><flowPara
         id="flowPara3504"
         style="font-style:normal;font-variant:normal;font-weight:normal;font-stretch:normal;font-size:16.25000191px;line-height:100%;font-family:Comili;-inkscape-font-specification:Comili">may be just within a moment for me.</flowPara></flowRoot>    <flowRoot
       xml:space="preserve"
       id="flowRoot3506"
       style="color:#000000;font-style:normal;font-variant:normal;font-weight:normal;font-stretch:normal;line-height:0.01%;font-family:Frenchpress;-inkscape-font-specification:Frenchpress;text-indent:0;text-align:center;text-decoration:none;text-decoration-line:none;text-decoration-style:solid;text-decoration-color:#000000;letter-spacing:0px;word-spacing:0px;text-transform:none;writing-mode:lr-tb;direction:ltr;baseline-shift:baseline;text-anchor:middle;white-space:normal;clip-rule:nonzero;display:inline;overflow:visible;visibility:visible;opacity:1;isolation:auto;mix-blend-mode:normal;color-interpolation:sRGB;color-interpolation-filters:linearRGB;solid-color:#000000;solid-opacity:1;fill:#000000;fill-opacity:1;fill-rule:nonzero;stroke:none;stroke-width:1px;stroke-linecap:butt;stroke-linejoin:miter;stroke-miterlimit:4;stroke-dasharray:none;stroke-dashoffset:0;stroke-opacity:1;color-rendering:auto;image-rendering:auto;shape-rendering:auto;text-rendering:auto;enable-background:accumulate"
       transform="translate(153.74175,468.35247)"><flowRegion
         id="flowRegion3508"><rect
           id="rect3510"
           width="186.311"
           height="52.909573"
           x="70.866142"
           y="259.24634"
           style="font-style:normal;font-variant:normal;font-weight:normal;font-stretch:normal;font-size:16.25000191px;line-height:110.00000238%;font-family:Frenchpress;-inkscape-font-specification:Frenchpress;text-align:center;text-anchor:middle" /></flowRegion><flowPara
         id="flowPara3512"
         style="font-style:normal;font-variant:normal;font-weight:normal;font-stretch:normal;font-size:16.25000191px;line-height:100%;font-family:Comili;-inkscape-font-specification:Comili">I wish you fair winds,</flowPara></flowRoot>    <flowRoot
       transform="translate(254.2267,489.94343)"
       style="color:#000000;font-style:normal;font-variant:normal;font-weight:normal;font-stretch:normal;line-height:0.01%;font-family:Frenchpress;-inkscape-font-specification:Frenchpress;text-indent:0;text-align:center;text-decoration:none;text-decoration-line:none;text-decoration-style:solid;text-decoration-color:#000000;letter-spacing:0px;word-spacing:0px;text-transform:none;writing-mode:lr-tb;direction:ltr;baseline-shift:baseline;text-anchor:middle;white-space:normal;clip-rule:nonzero;display:inline;overflow:visible;visibility:visible;opacity:1;isolation:auto;mix-blend-mode:normal;color-interpolation:sRGB;color-interpolation-filters:linearRGB;solid-color:#000000;solid-opacity:1;fill:#000000;fill-opacity:1;fill-rule:nonzero;stroke:none;stroke-width:1px;stroke-linecap:butt;stroke-linejoin:miter;stroke-miterlimit:4;stroke-dasharray:none;stroke-dashoffset:0;stroke-opacity:1;color-rendering:auto;image-rendering:auto;shape-rendering:auto;text-rendering:auto;enable-background:accumulate"
       id="flowRoot3524"
       xml:space="preserve"><flowRegion
         id="flowRegion3526"><rect
           style="font-style:normal;font-variant:normal;font-weight:normal;font-stretch:normal;font-size:16.25000191px;line-height:110.00000238%;font-family:Frenchpress;-inkscape-font-specification:Frenchpress;text-align:center;text-anchor:middle"
           y="259.24634"
           x="70.866142"
           height="54.302738"
           width="157.75737"
           id="rect3528" /></flowRegion><flowPara
         style="font-style:normal;font-variant:normal;font-weight:normal;font-stretch:normal;font-size:16.25000191px;line-height:100%;font-family:Comili;-inkscape-font-specification:Comili"
         id="flowPara3530">nice warm fair winds! </flowPara></flowRoot>    <flowRoot
       xml:space="preserve"
       id="flowRoot4289"
       style="color:#000000;font-style:normal;font-variant:normal;font-weight:normal;font-stretch:normal;line-height:0.01%;font-family:Frenchpress;-inkscape-font-specification:Frenchpress;text-indent:0;text-align:center;text-decoration:none;text-decoration-line:none;text-decoration-style:solid;text-decoration-color:#000000;letter-spacing:0px;word-spacing:0px;text-transform:none;writing-mode:lr-tb;direction:ltr;baseline-shift:baseline;text-anchor:middle;white-space:normal;clip-rule:nonzero;display:inline;overflow:visible;visibility:visible;opacity:1;isolation:auto;mix-blend-mode:normal;color-interpolation:sRGB;color-interpolation-filters:linearRGB;solid-color:#000000;solid-opacity:1;fill:#000000;fill-opacity:1;fill-rule:nonzero;stroke:none;stroke-width:1px;stroke-linecap:butt;stroke-linejoin:miter;stroke-miterlimit:4;stroke-dasharray:none;stroke-dashoffset:0;stroke-opacity:1;color-rendering:auto;image-rendering:auto;shape-rendering:auto;text-rendering:auto;enable-background:accumulate"
       transform="translate(184.61375,-115.29977)"><flowRegion
         id="flowRegion4291"><rect
           id="rect4293"
           width="201.91605"
           height="51.379894"
           x="70.866142"
           y="259.24634"
           style="font-style:normal;font-variant:normal;font-weight:normal;font-stretch:normal;font-size:16.25000191px;line-height:110.00000238%;font-family:Frenchpress;-inkscape-font-specification:Frenchpress;text-align:center;text-anchor:middle" /></flowRegion><flowPara
         id="flowPara4295"
         style="font-style:normal;font-variant:normal;font-weight:normal;font-stretch:normal;font-size:16.25000191px;line-height:100%;font-family:Comili;-inkscape-font-specification:Comili">I won't have enough positrons to send the message otherwise.</flowPara></flowRoot>  </g>
  <g
     style="display:inline"
     id="printing-marks"
     inkscape:label="printing marks"
     inkscape:groupmode="layer"
     sodipodi:insensitive="true">
    <g
       id="CropMarks"
       inkscape:label="CropMarks">
      <path
         inkscape:connector-curvature="0"
         d="M 0,-7.0866142 0,-42.519685"
         id="cropTL1"
         style="fill:none;stroke:#000000;stroke-width:0.25" />
      <path
         inkscape:connector-curvature="0"
         d="M -7.0866142,0 -42.519685,0"
         id="cropTL2"
         style="fill:none;stroke:#000000;stroke-width:0.25" />
      <path
         inkscape:connector-curvature="0"
         d="m 524.40945,-7.0866142 0,-35.4330708"
         id="cropTR1"
         style="fill:none;stroke:#000000;stroke-width:0.25" />
      <path
         inkscape:connector-curvature="0"
         d="m 531.49606,0 35.43307,0"
         id="cropTR2"
         style="fill:none;stroke:#000000;stroke-width:0.25" />
      <path
         inkscape:connector-curvature="0"
         d="m 0,751.1811 0,35.43307"
         id="cropBL1"
         style="fill:none;stroke:#000000;stroke-width:0.25" />
      <path
         inkscape:connector-curvature="0"
         d="m -7.0866142,744.09449 -35.4330708,0"
         id="cropBL2"
         style="fill:none;stroke:#000000;stroke-width:0.25" />
      <path
         inkscape:connector-curvature="0"
         d="m 524.40945,751.1811 0,35.43307"
         id="cropBR1"
         style="fill:none;stroke:#000000;stroke-width:0.25" />
      <path
         inkscape:connector-curvature="0"
         d="m 531.49606,744.09449 35.43307,0"
         id="cropBR2"
         style="fill:none;stroke:#000000;stroke-width:0.25" />
    </g>
    <g
       id="RegistrationMarks"
       inkscape:label="RegistrationMarks">
      <g
         id="regMarkL">
        <path
           inkscape:connector-curvature="0"
           d="m 0,17.716535 -3.5433071,0 L 14.173228,0 -3.5433071,-17.716535 0,-17.716535 17.716535,0 0,17.716535 Z"
           style="fill:#000000;fill-opacity:1;stroke:none"
           transform="translate(-35.433071,318.89764)"
           id="path3448" />
        <path
           inkscape:connector-curvature="0"
           d="m -3.5433071,17.716535 -3.5433071,0 L 10.629921,0 -7.0866142,-17.716535 l 3.5433071,0 L 14.173228,0 -3.5433071,17.716535 Z"
           style="fill:#00ffff;fill-opacity:1;stroke:none"
           transform="translate(-35.433071,318.89764)"
           id="path3450" />
        <path
           inkscape:connector-curvature="0"
           d="m -7.0866142,17.716535 -3.5433068,0 L 7.0866142,0 -10.629921,-17.716535 l 3.5433068,0 L 10.629921,0 -7.0866142,17.716535 Z"
           style="fill:#ff00ff;fill-opacity:1;stroke:none"
           transform="translate(-35.433071,318.89764)"
           id="path3452" />
        <path
           inkscape:connector-curvature="0"
           d="m -10.629921,17.716535 -3.543307,0 L 3.5433071,0 -14.173228,-17.716535 l 3.543307,0 L 7.0866142,0 -10.629921,17.716535 Z"
           style="fill:#ffff00;fill-opacity:1;stroke:none"
           transform="translate(-35.433071,318.89764)"
           id="path3454" />
        <path
           inkscape:connector-curvature="0"
           d="m -14.173228,17.716535 -3.543307,0 L 0,0 l -17.716535,-17.716535 3.543307,0 L 3.5433071,0 -14.173228,17.716535 Z"
           style="fill:#000000;fill-opacity:1;stroke:none"
           transform="translate(-35.433071,318.89764)"
           id="path3456" />
      </g>
      <g
         id="regMarkR">
        <path
           inkscape:connector-curvature="0"
           d="m 0,17.716535 -3.5433071,0 L 14.173228,0 -3.5433071,-17.716535 0,-17.716535 17.716535,0 0,17.716535 Z"
           style="fill:#000000;fill-opacity:1;stroke:none"
           transform="matrix(-1,0,0,-1,559.84252,318.89764)"
           id="path3459" />
        <path
           inkscape:connector-curvature="0"
           d="m -3.5433071,17.716535 -3.5433071,0 L 10.629921,0 -7.0866142,-17.716535 l 3.5433071,0 L 14.173228,0 -3.5433071,17.716535 Z"
           style="fill:#00ffff;fill-opacity:1;stroke:none"
           transform="matrix(-1,0,0,-1,559.84252,318.89764)"
           id="path3461" />
        <path
           inkscape:connector-curvature="0"
           d="m -7.0866142,17.716535 -3.5433068,0 L 7.0866142,0 -10.629921,-17.716535 l 3.5433068,0 L 10.629921,0 -7.0866142,17.716535 Z"
           style="fill:#ff00ff;fill-opacity:1;stroke:none"
           transform="matrix(-1,0,0,-1,559.84252,318.89764)"
           id="path3463" />
        <path
           inkscape:connector-curvature="0"
           d="m -10.629921,17.716535 -3.543307,0 L 3.5433071,0 -14.173228,-17.716535 l 3.543307,0 L 7.0866142,0 -10.629921,17.716535 Z"
           style="fill:#ffff00;fill-opacity:1;stroke:none"
           transform="matrix(-1,0,0,-1,559.84252,318.89764)"
           id="path3465" />
        <path
           inkscape:connector-curvature="0"
           d="m -14.173228,17.716535 -3.543307,0 L 0,0 l -17.716535,-17.716535 3.543307,0 L 3.5433071,0 -14.173228,17.716535 Z"
           style="fill:#000000;fill-opacity:1;stroke:none"
           transform="matrix(-1,0,0,-1,559.84252,318.89764)"
           id="path3467" />
      </g>
      <g
         id="regMarkT">
        <path
           inkscape:connector-curvature="0"
           d="m 0,17.716535 -3.5433071,0 L 14.173228,0 -3.5433071,-17.716535 0,-17.716535 17.716535,0 0,17.716535 Z"
           style="fill:#000000;fill-opacity:1;stroke:none"
           transform="matrix(0,1,-1,0,262.20472,-35.433071)"
           id="path3470" />
        <path
           inkscape:connector-curvature="0"
           d="m -3.5433071,17.716535 -3.5433071,0 L 10.629921,0 -7.0866142,-17.716535 l 3.5433071,0 L 14.173228,0 -3.5433071,17.716535 Z"
           style="fill:#00ffff;fill-opacity:1;stroke:none"
           transform="matrix(0,1,-1,0,262.20472,-35.433071)"
           id="path3472" />
        <path
           inkscape:connector-curvature="0"
           d="m -7.0866142,17.716535 -3.5433068,0 L 7.0866142,0 -10.629921,-17.716535 l 3.5433068,0 L 10.629921,0 -7.0866142,17.716535 Z"
           style="fill:#ff00ff;fill-opacity:1;stroke:none"
           transform="matrix(0,1,-1,0,262.20472,-35.433071)"
           id="path3474" />
        <path
           inkscape:connector-curvature="0"
           d="m -10.629921,17.716535 -3.543307,0 L 3.5433071,0 -14.173228,-17.716535 l 3.543307,0 L 7.0866142,0 -10.629921,17.716535 Z"
           style="fill:#ffff00;fill-opacity:1;stroke:none"
           transform="matrix(0,1,-1,0,262.20472,-35.433071)"
           id="path3476" />
        <path
           inkscape:connector-curvature="0"
           d="m -14.173228,17.716535 -3.543307,0 L 0,0 l -17.716535,-17.716535 3.543307,0 L 3.5433071,0 -14.173228,17.716535 Z"
           style="fill:#000000;fill-opacity:1;stroke:none"
           transform="matrix(0,1,-1,0,262.20472,-35.433071)"
           id="path3478" />
      </g>
      <g
         id="regMarkB">
        <path
           inkscape:connector-curvature="0"
           d="m 0,17.716535 -3.5433071,0 L 14.173228,0 -3.5433071,-17.716535 0,-17.716535 17.716535,0 0,17.716535 Z"
           style="fill:#000000;fill-opacity:1;stroke:none"
           transform="matrix(0,-1,1,0,262.20472,779.52756)"
           id="path3481" />
        <path
           inkscape:connector-curvature="0"
           d="m -3.5433071,17.716535 -3.5433071,0 L 10.629921,0 -7.0866142,-17.716535 l 3.5433071,0 L 14.173228,0 -3.5433071,17.716535 Z"
           style="fill:#00ffff;fill-opacity:1;stroke:none"
           transform="matrix(0,-1,1,0,262.20472,779.52756)"
           id="path3483" />
        <path
           inkscape:connector-curvature="0"
           d="m -7.0866142,17.716535 -3.5433068,0 L 7.0866142,0 -10.629921,-17.716535 l 3.5433068,0 L 10.629921,0 -7.0866142,17.716535 Z"
           style="fill:#ff00ff;fill-opacity:1;stroke:none"
           transform="matrix(0,-1,1,0,262.20472,779.52756)"
           id="path3485" />
        <path
           inkscape:connector-curvature="0"
           d="m -10.629921,17.716535 -3.543307,0 L 3.5433071,0 -14.173228,-17.716535 l 3.543307,0 L 7.0866142,0 -10.629921,17.716535 Z"
           style="fill:#ffff00;fill-opacity:1;stroke:none"
           transform="matrix(0,-1,1,0,262.20472,779.52756)"
           id="path3487" />
        <path
           inkscape:connector-curvature="0"
           d="m -14.173228,17.716535 -3.543307,0 L 0,0 l -17.716535,-17.716535 3.543307,0 L 3.5433071,0 -14.173228,17.716535 Z"
           style="fill:#000000;fill-opacity:1;stroke:none"
           transform="matrix(0,-1,1,0,262.20472,779.52756)"
           id="path3489" />
      </g>
    </g>
  </g>
</svg>
